Description,X-coordinate,Y-coordinate,UTM_Zone,Height,Yaw,Pitch,Roll,Velocity,Power,FieldStrength,PathLoss,Throughput
HCI-Institute,429285.5754416311,4512576.126606635,12.0,1.5,0,0,0,0,0,0,0,0
HCI-Institute,429322.1135784283,4512601.31169498,12.0,1.5,0,0,0,0,0,0,0,0
HCI-Institute,429334.84854370327,4512608.961350782,12.0,1.5,0,0,0,0,0,0,0,0
HCI-Institute,429345.0513225809,4512616.635184147,12.0,1.5,0,0,0,0,0,0,0,0
HCI-Institute,429356.0875444571,4512623.190913937,12.0,1.5,0,0,0,0,0,0,0,0
HCI-Institute,429373.9396740737,4512636.342665362,12.0,1.5,0,0,0,0,0,0,0,0
HCI-Institute,429397.7212505068,4512651.658266892,12.0,1.5,0,0,0,0,0,0,0,0
HCI-Institute,429413.8745619181,4512663.716139337,12.0,1.5,0,0,0,0,0,0,0,0
HCI-Institute,429443.606590264,4512683.415844707,12.0,1.5,0,0,0,0,0,0,0,0
HCI-Institute,429447.0039219546,4512685.603814738,12.0,1.5,0,0,0,0,0,0,0,0
HCI-Institute,429451.2558708073,4512688.893812744,12.0,1.5,0,0,0,0,0,0,0,0
HCI-Institute,429464.0116946551,4512698.763821214,12.0,1.5,0,0,0,0,0,0,0,0
HCI-Institute,429472.52612933074,4512706.453905529,12.0,1.5,0,0,0,0,0,0,0,0
HCI-Institute,429472.52612933074,4512706.453905529,12.0,1.5,0,0,0,0,0,0,0,0
HCI-Institute,429469.2768164881,4512719.8068567645,12.0,1.5,0,0,0,0,0,0,0,0
HCI-Institute,429462.80994605576,4512749.84296488,12.0,1.5,0,0,0,0,0,0,0,0
HCI-Institute,429461.2275991743,4512760.959709937,12.0,1.5,0,0,0,0,0,0,0,0
HCI-Institute,429455.55196650425,4512785.437454219,12.0,1.5,0,0,0,0,0,0,0,0
HCI-Institute,429446.6694541981,4512827.708436018,12.0,1.5,0,0,0,0,0,0,0,0
HCI-Institute,429442.6291002309,4512846.619778011,12.0,1.5,0,0,0,0,0,0,0,0
HCI-Institute,429432.7546377454,4512873.357886545,12.0,1.5,0,0,0,0,0,0,0,0
HCI-Institute,429426.1611253093,4512890.073233713,12.0,1.5,0,0,0,0,0,0,0,0
HCI-Institute,429419.5464844196,4512904.568453598,12.0,1.5,0,0,0,0,0,0,0,0
HCI-Institute,429409.6616073002,4512930.19653033,12.0,1.5,0,0,0,0,0,0,0,0
HCI-Institute,429379.1422207944,4513004.868765448,12.0,1.5,0,0,0,0,0,0,0,0
HCI-Institute,429378.3193841353,4513007.09694865,12.0,1.5,0,0,0,0,0,0,0,0
HCI-Institute,429375.903810064,4513019.331834862,12.0,1.5,0,0,0,0,0,0,0,0
HCI-Institute,429374.2793163511,4513026.008336674,12.0,1.5,0,0,0,0,0,0,0,0
HCI-Institute,429372.6654128524,4513033.794906176,12.0,1.5,0,0,0,0,0,0,0,0
HCI-Institute,429371.0515130037,4513041.581476167,12.0,1.5,0,0,0,0,0,0,0,0
HCI-Institute,429371.0621003772,4513042.691543409,12.0,1.5,0,0,0,0,0,0,0,0
HCI-Institute,429371.1362120516,4513050.462014149,12.0,1.5,0,0,0,0,0,0,0,0
HCI-Institute,429370.36632091366,4513058.240534815,12.0,1.5,0,0,0,0,0,0,0,0
HCI-Institute,429370.4510212332,4513067.121073028,12.0,1.5,0,0,0,0,0,0,0,0
HCI-Institute,429370.5251341263,4513074.891544064,12.0,1.5,0,0,0,0,0,0,0,0
HCI-Institute,429370.5780719719,4513080.441880574,12.0,1.5,0,0,0,0,0,0,0,0
HCI-Institute,429372.4142954576,4513095.966723462,12.0,1.5,0,0,0,0,0,0,0,0
HCI-Institute,429373.3535791869,4513105.949279873,12.0,1.5,0,0,0,0,0,0,0,0
HCI-Institute,429375.1262701413,4513114.813719695,12.0,1.5,0,0,0,0,0,0,0,0
HCI-Institute,429376.867196872,4513120.347957882,12.0,1.5,0,0,0,0,0,0,0,0
HCI-Institute,429377.76412592886,4513125.890245582,12.0,1.5,0,0,0,0,0,0,0,0
HCI-Institute,429380.4125606312,4513138.0768399,12.0,1.5,0,0,0,0,0,0,0,0
HCI-Institute,429383.0186435033,4513145.82316562,12.0,1.5,0,0,0,0,0,0,0,0
HCI-Institute,429393.4535073418,4513177.918545365,12.0,1.5,0,0,0,0,0,0,0,0
HCI-Institute,429397.8110436843,4513192.309186591,12.0,1.5,0,0,0,0,0,0,0,0
HCI-Institute,429403.0866319077,4513214.462256654,12.0,1.5,0,0,0,0,0,0,0,0
HCI-Institute,429407.4441301846,4513228.852903851,12.0,1.5,0,0,0,0,0,0,0,0
HCI-Institute,429415.2621910248,4513252.091913341,12.0,1.5,0,0,0,0,0,0,0,0
HCI-Institute,429417.8682008819,4513259.838251717,12.0,1.5,0,0,0,0,0,0,0,0
HCI-Institute,429422.9849817861,4513265.340322847,12.0,1.5,0,0,0,0,0,0,0,0
HCI-Institute,429425.6121392492,4513275.306799161,12.0,1.5,0,0,0,0,0,0,0,0
HCI-Institute,429427.3741536008,4513283.06118488,12.0,1.5,0,0,0,0,0,0,0,0
HCI-Institute,429428.2604493003,4513287.493411731,12.0,1.5,0,0,0,0,0,0,0,0
HCI-Institute,429428.3133474613,4513293.043749915,12.0,1.5,0,0,0,0,0,0,0,0
HCI-Institute,429429.178482558,4513295.255841631,12.0,1.5,0,0,0,0,0,0,0,0
HCI-Institute,429429.2525392185,4513303.026315192,12.0,1.5,0,0,0,0,0,0,0,0
HCI-Institute,429429.29485735775,4513307.466585839,12.0,1.5,0,0,0,0,0,0,0,0
HCI-Institute,429428.50378128793,4513313.02496777,12.0,1.5,0,0,0,0,0,0,0,0
HCI-Institute,429426.0776605776,4513324.149775946,12.0,1.5,0,0,0,0,0,0,0,0
HCI-Institute,429424.4426172016,4513329.716202484,12.0,1.5,0,0,0,0,0,0,0,0
HCI-Institute,429423.6303867194,4513333.054449773,12.0,1.5,0,0,0,0,0,0,0,0
HCI-Institute,429421.9847666144,4513337.510809256,12.0,1.5,0,0,0,0,0,0,0,0
HCI-Institute,429419.5057591872,4513343.085281538,12.0,1.5,0,0,0,0,0,0,0,0
HCI-Institute,429417.8601439633,4513347.541642065,12.0,1.5,0,0,0,0,0,0,0,0
HCI-Institute,429417.0267556053,4513348.659754746,12.0,1.5,0,0,0,0,0,0,0,0
HCI-Institute,429412.8703998024,4513355.36038738,12.0,1.5,0,0,0,0,0,0,0,0
HCI-Institute,429408.7140516618,4513362.061022515,12.0,1.5,0,0,0,0,0,0,0,0
HCI-Institute,429405.3699286827,4513365.42341042,12.0,1.5,0,0,0,0,0,0,0,0
HCI-Institute,429400.3590419845,4513371.02202911,12.0,1.5,0,0,0,0,0,0,0,0
HCI-Institute,429389.482739772,4513381.117257414,12.0,1.5,0,0,0,0,0,0,0,0
HCI-Institute,429379.4292576621,4513388.984317186,12.0,1.5,0,0,0,0,0,0,0,0
HCI-Institute,429367.7090463789,4513399.087627847,12.0,1.5,0,0,0,0,0,0,0,0
HCI-Institute,429333.3819708862,4513428.279551925,12.0,1.5,0,0,0,0,0,0,0,0
HCI-Institute,429302.3885999423,4513452.999134391,12.0,1.5,0,0,0,0,0,0,0,0
HCI-Institute,429283.1259930664,4513468.725450582,12.0,1.5,0,0,0,0,0,0,0,0
HCI-Institute,429273.9166979717,4513476.584597246,12.0,1.5,0,0,0,0,0,0,0,0
HCI-Institute,429263.0407235774,4513486.680017101,12.0,1.5,0,0,0,0,0,0,0,0
HCI-Institute,429252.16477891547,4513496.775453467,12.0,1.5,0,0,0,0,0,0,0,0
HCI-Institute,429239.6433946623,4513511.327309446,12.0,1.5,0,0,0,0,0,0,0,0
HCI-Institute,429229.632689124,4513523.634851043,12.0,1.5,0,0,0,0,0,0,0,0
HCI-Institute,429203.78866124974,4513557.187007183,12.0,1.5,0,0,0,0,0,0,0,0
HCI-Institute,429197.0795517303,4513561.69183989,12.0,1.5,0,0,0,0,0,0,0,0
HCI-Institute,429189.54773775977,4513568.424886452,12.0,1.5,0,0,0,0,0,0,0,0
HCI-Institute,429188.7144092178,4513569.543025969,12.0,1.5,0,0,0,0,0,0,0,0
HCI-Institute,429178.6932505341,4513580.740571367,12.0,1.5,0,0,0,0,0,0,0,0
HCI-Institute,429167.0267169451,4513596.394551537,12.0,1.5,0,0,0,0,0,0,0,0
HCI-Institute,429167.0267169451,4513596.394551537,12.0,1.5,0,0,0,0,0,0,0,0
HCI-Institute,429152.84965703066,4513614.292913777,12.0,1.5,0,0,0,0,0,0,0,0
HCI-Institute,429125.3290546738,4513648.9715766935,12.0,1.5,0,0,0,0,0,0,0,0
HCI-Institute,429115.3293568479,4513662.389348703,12.0,1.5,0,0,0,0,0,0,0,0
HCI-Institute,429106.16299942567,4513674.688985562,12.0,1.5,0,0,0,0,0,0,0,0
HCI-Institute,429098.673905773,4513685.862402186,12.0,1.5,0,0,0,0,0,0,0,0
HCI-Institute,429086.1956781708,4513704.854803972,12.0,1.5,0,0,0,0,0,0,0,0
HCI-Institute,429078.7385466096,4513719.3584477,12.0,1.5,0,0,0,0,0,0,0,0
HCI-Institute,429072.1572749428,4513737.184220432,12.0,1.5,0,0,0,0,0,0,0,0
HCI-Institute,429071.3239836352,4513738.302373922,12.0,1.5,0,0,0,0,0,0,0,0
HCI-Institute,429067.2213428033,4513750.55355441,12.0,1.5,0,0,0,0,0,0,0,0
HCI-Institute,429063.1399881019,4513765.02487482,12.0,1.5,0,0,0,0,0,0,0,0
HCI-Institute,429059.91320789175,4513780.598180289,12.0,1.5,0,0,0,0,0,0,0,0
HCI-Institute,429057.5409984692,4513797.273469719,12.0,1.5,0,0,0,0,0,0,0,0
HCI-Institute,429056.7609017014,4513803.94196852,12.0,1.5,0,0,0,0,0,0,0,0
HCI-Institute,429055.9488949157,4513807.280261381,12.0,1.5,0,0,0,0,0,0,0,0
HCI-Institute,429055.2326250082,4513820.609172783,12.0,1.5,0,0,0,0,0,0,0,0
HCI-Institute,429055.28581180633,4513826.15951642,12.0,1.5,0,0,0,0,0,0,0,0
HCI-Institute,429055.5304717765,4513851.691097757,12.0,1.5,0,0,0,0,0,0,0,0
HCI-Institute,429055.66875835456,4513866.121991997,12.0,1.5,0,0,0,0,0,0,0,0
HCI-Institute,429055.11206223513,4513896.101937285,12.0,1.5,0,0,0,0,0,0,0,0
HCI-Institute,429055.11206223513,4513896.101937285,12.0,1.5,0,0,0,0,0,0,0,0
HCI-Institute,429109.9660735672,4513895.576482515,12.0,1.5,0,0,0,0,0,0,0,0
HCI-Institute,429115.0188920574,4513894.417930672,12.0,1.5,0,0,0,0,0,0,0,0
HCI-Institute,429125.1245335648,4513892.100837395,12.0,1.5,0,0,0,0,0,0,0,0
HCI-Institute,429135.2301811082,4513889.783758001,12.0,1.5,0,0,0,0,0,0,0,0
HCI-Institute,429173.9225336981,4513876.091450958,12.0,1.5,0,0,0,0,0,0,0,0
HCI-Institute,429184.8615091579,4513872.656297682,12.0,1.5,0,0,0,0,0,0,0,0
HCI-Institute,429233.6597590664,4513856.647308738,12.0,1.5,0,0,0,0,0,0,0,0
HCI-Institute,429237.0247972945,4513855.504974273,12.0,1.5,0,0,0,0,0,0,0,0
HCI-Institute,429240.4110559507,4513856.582778738,12.0,1.5,0,0,0,0,0,0,0,0
HCI-Institute,429243.7867043856,4513856.550516048,12.0,1.5,0,0,0,0,0,0,0,0
HCI-Institute,429246.3290495356,4513857.63638873,12.0,1.5,0,0,0,0,0,0,0,0
HCI-Institute,429248.0274820712,4513858.730327233,12.0,1.5,0,0,0,0,0,0,0,0
HCI-Institute,429267.58593415376,4513874.085819446,12.0,1.5,0,0,0,0,0,0,0,0
HCI-Institute,429270.9827848322,4513876.273706465,12.0,1.5,0,0,0,0,0,0,0,0
HCI-Institute,429276.9325708157,4513880.657546813,12.0,1.5,0,0,0,0,0,0,0,0
HCI-Institute,429284.5807705232,4513886.135338667,12.0,1.5,0,0,0,0,0,0,0,0
HCI-Institute,429297.31360970926,4513893.784917451,12.0,1.5,0,0,0,0,0,0,0,0
HCI-Institute,429308.3374092162,4513899.230496597,12.0,1.5,0,0,0,0,0,0,0,0
HCI-Institute,429316.8188743202,4513903.590194494,12.0,1.5,0,0,0,0,0,0,0,0
HCI-Institute,429329.5198599421,4513907.909621896,12.0,1.5,0,0,0,0,0,0,0,0
HCI-Institute,429329.5198599421,4513907.909621896,12.0,1.5,0,0,0,0,0,0,0,0
HCI-Institute,429341.3875194868,4513913.347194055,12.0,1.5,0,0,0,0,0,0,0,0
HCI-Institute,429356.6625582125,4513922.082779698,12.0,1.5,0,0,0,0,0,0,0,0
HCI-Institute,429377.9295996124,4513939.642592099,12.0,1.5,0,0,0,0,0,0,0,0
HCI-Institute,429379.6385827356,4513941.846629211,12.0,1.5,0,0,0,0,0,0,0,0
HCI-Institute,429389.02738418966,4513952.85877149,12.0,1.5,0,0,0,0,0,0,0,0
HCI-Institute,429400.8949269216,4513958.296437936,12.0,1.5,0,0,0,0,0,0,0,0
HCI-Institute,429406.0006695424,4513962.688428512,12.0,1.5,0,0,0,0,0,0,0,0
HCI-Institute,429406.8657395497,4513964.900519008,12.0,1.5,0,0,0,0,0,0,0,0
HCI-Institute,429410.2519222301,4513965.978400379,12.0,1.5,0,0,0,0,0,0,0,0
HCI-Institute,429412.79420463456,4513967.064329617,12.0,1.5,0,0,0,0,0,0,0,0
HCI-Institute,429416.1698016781,4513967.032144881,12.0,1.5,0,0,0,0,0,0,0,0
HCI-Institute,429418.7014994582,4513967.008007338,12.0,1.5,0,0,0,0,0,0,0,0
HCI-Institute,429422.0770964928,4513966.975825297,12.0,1.5,0,0,0,0,0,0,0,0
HCI-Institute,429425.4526935244,4513966.943644793,12.0,1.5,0,0,0,0,0,0,0,0
HCI-Institute,429427.973809333,4513965.809441635,12.0,1.5,0,0,0,0,0,0,0,0
HCI-Institute,429433.01604322833,4513963.541037932,12.0,1.5,0,0,0,0,0,0,0,0
HCI-Institute,429436.381061072,4513962.398793656,12.0,1.5,0,0,0,0,0,0,0,0
HCI-Institute,429442.25661998393,4513959.012283925,12.0,1.5,0,0,0,0,0,0,0,0
HCI-Institute,429446.4549623427,4513956.751932564,12.0,1.5,0,0,0,0,0,0,0,0
HCI-Institute,429450.6533072343,4513954.491583622,12.0,1.5,0,0,0,0,0,0,0,0
HCI-Institute,429455.6849777933,4513951.11312684,12.0,1.5,0,0,0,0,0,0,0,0
HCI-Institute,429459.883328635,4513948.852783229,12.0,1.5,0,0,0,0,0,0,0,0
HCI-Institute,429460.7166529142,4513947.734673552,12.0,1.5,0,0,0,0,0,0,0,0
HCI-Institute,429464.9044308284,4513944.364264115,12.0,1.5,0,0,0,0,0,0,0,0
HCI-Institute,429466.581658279,4513943.238114768,12.0,1.5,0,0,0,0,0,0,0,0
HCI-Institute,429475.8117056654,4513937.599334663,12.0,1.5,0,0,0,0,0,0,0,0
HCI-Institute,429488.3116519079,4513920.827727777,12.0,1.5,0,0,0,0,0,0,0,0
HCI-Institute,429527.4996550254,4513870.49697418,12.0,1.5,0,0,0,0,0,0,0,0
HCI-Institute,429533.1957095825,4513848.2393732825,12.0,1.5,0,0,0,0,0,0,0,0
HCI-Institute,429534.01849090005,4513846.011203784,12.0,1.5,0,0,0,0,0,0,0,0
HCI-Institute,429535.6957512648,4513844.885070682,12.0,1.5,0,0,0,0,0,0,0,0
HCI-Institute,429537.3730121378,4513843.758937971,12.0,1.5,0,0,0,0,0,0,0,0
HCI-Institute,429539.060838407,4513843.742874174,12.0,1.5,0,0,0,0,0,0,0,0
HCI-Institute,429542.4259265598,4513842.600679211,12.0,1.5,0,0,0,0,0,0,0,0
HCI-Institute,429544.96823034296,4513843.686653919,12.0,1.5,0,0,0,0,0,0,0,0
HCI-Institute,429547.510533365,4513844.77262949,12.0,1.5,0,0,0,0,0,0,0,0
HCI-Institute,429549.2089227515,4513845.866636528,12.0,1.5,0,0,0,0,0,0,0,0
HCI-Institute,429549.2089227515,4513845.866636528,12.0,1.5,0,0,0,0,0,0,0,0
HCI-Institute,429550.0633988796,4513846.968674454,12.0,1.5,0,0,0,0,0,0,0,0
HCI-Institute,429550.91787475743,4513848.070712479,12.0,1.5,0,0,0,0,0,0,0,0
HCI-Institute,429550.9284378866,4513849.18078101,12.0,1.5,0,0,0,0,0,0,0,0
HCI-Institute,429551.78291338886,4513850.282819132,12.0,1.5,0,0,0,0,0,0,0,0
HCI-Institute,429551.8040394049,4513852.502956202,12.0,1.5,0,0,0,0,0,0,0,0
HCI-Institute,429550.970690425,4513853.62105515,12.0,1.5,0,0,0,0,0,0,0,0
HCI-Institute,429550.98125356494,4513854.731123689,12.0,1.5,0,0,0,0,0,0,0,0
HCI-Institute,429550.1584682396,4513856.959291282,12.0,1.5,0,0,0,0,0,0,0,0
HCI-Institute,429547.6478607097,4513859.20352048,12.0,1.5,0,0,0,0,0,0,0,0
HCI-Institute,429542.6055213808,4513861.471844395,12.0,1.5,0,0,0,0,0,0,0,0
HCI-Institute,429527.4996550254,4513870.49697418,12.0,1.5,0,0,0,0,0,0,0,0
HCI-Institute,429488.3116519079,4513920.827727777,12.0,1.5,0,0,0,0,0,0,0,0
HCI-Institute,429480.811677279,4513930.890689238,12.0,1.5,0,0,0,0,0,0,0,0
HCI-Institute,429480.811677279,4513930.890689238,12.0,1.5,0,0,0,0,0,0,0,0
HCI-Institute,429475.8117056654,4513937.599334663,12.0,1.5,0,0,0,0,0,0,0,0
HCI-Institute,429472.5312724123,4513947.622110589,12.0,1.5,0,0,0,0,0,0,0,0
HCI-Institute,429464.9996180578,4513954.354882808,12.0,1.5,0,0,0,0,0,0,0,0
HCI-Institute,429456.6134998997,4513959.985635491,12.0,1.5,0,0,0,0,0,0,0,0
HCI-Institute,429447.3834950456,4513965.624440268,12.0,1.5,0,0,0,0,0,0,0,0
HCI-Institute,429445.7062755955,4513966.750594105,12.0,1.5,0,0,0,0,0,0,0,0
HCI-Institute,429440.66404022544,4513969.018989154,12.0,1.5,0,0,0,0,0,0,0,0
HCI-Institute,429431.4128956137,4513972.43767659,12.0,1.5,0,0,0,0,0,0,0,0
HCI-Institute,429428.0478830972,4513973.579923208,12.0,1.5,0,0,0,0,0,0,0,0
HCI-Institute,429424.6828715892,4513974.722171373,12.0,1.5,0,0,0,0,0,0,0,0
HCI-Institute,429420.4633797293,4513974.762397737,12.0,1.5,0,0,0,0,0,0,0,0
HCI-Institute,429416.2438878603,4513974.802626508,12.0,1.5,0,0,0,0,0,0,0,0
HCI-Institute,429413.71219273616,4513974.826764924,12.0,1.5,0,0,0,0,0,0,0,0
HCI-Institute,429410.32601459866,4513973.748882014,12.0,1.5,0,0,0,0,0,0,0,0
HCI-Institute,429407.7837340768,4513972.662953639,12.0,1.5,0,0,0,0,0,0,0,0
HCI-Institute,429405.2414527959,4513971.577026127,12.0,1.5,0,0,0,0,0,0,0,0
HCI-Institute,429401.844685978,4513969.389078253,12.0,1.5,0,0,0,0,0,0,0,0
HCI-Institute,429397.6040178724,4513967.20917998,12.0,1.5,0,0,0,0,0,0,0,0
HCI-Institute,429394.19665973936,4513963.911166766,12.0,1.5,0,0,0,0,0,0,0,0
HCI-Institute,429389.02738418966,4513952.85877149,12.0,1.5,0,0,0,0,0,0,0,0
HCI-Institute,429379.6385827356,4513941.846629211,12.0,1.5,0,0,0,0,0,0,0,0
HCI-Institute,429377.9295996124,4513939.642592099,12.0,1.5,0,0,0,0,0,0,0,0
HCI-Institute,429356.6625582125,4513922.082779698,12.0,1.5,0,0,0,0,0,0,0,0
HCI-Institute,429341.3875194868,4513913.347194055,12.0,1.5,0,0,0,0,0,0,0,0
HCI-Institute,429329.5198599421,4513907.909621896,12.0,1.5,0,0,0,0,0,0,0,0
HCI-Institute,429329.5198599421,4513907.909621896,12.0,1.5,0,0,0,0,0,0,0,0
HCI-Institute,429316.8188743202,4513903.590194494,12.0,1.5,0,0,0,0,0,0,0,0
HCI-Institute,429308.3374092162,4513899.230496597,12.0,1.5,0,0,0,0,0,0,0,0
HCI-Institute,429297.31360970926,4513893.784917451,12.0,1.5,0,0,0,0,0,0,0,0
HCI-Institute,429284.5807705232,4513886.135338667,12.0,1.5,0,0,0,0,0,0,0,0
HCI-Institute,429276.9325708157,4513880.657546813,12.0,1.5,0,0,0,0,0,0,0,0
HCI-Institute,429270.9827848322,4513876.273706465,12.0,1.5,0,0,0,0,0,0,0,0
HCI-Institute,429267.58593415376,4513874.085819446,12.0,1.5,0,0,0,0,0,0,0,0
HCI-Institute,429248.0274820712,4513858.730327233,12.0,1.5,0,0,0,0,0,0,0,0
HCI-Institute,429246.3290495356,4513857.63638873,12.0,1.5,0,0,0,0,0,0,0,0
HCI-Institute,429243.7867043856,4513856.550516048,12.0,1.5,0,0,0,0,0,0,0,0
HCI-Institute,429240.4110559507,4513856.582778738,12.0,1.5,0,0,0,0,0,0,0,0
HCI-Institute,429237.0247972945,4513855.504974273,12.0,1.5,0,0,0,0,0,0,0,0
HCI-Institute,429233.6597590664,4513856.647308738,12.0,1.5,0,0,0,0,0,0,0,0
HCI-Institute,429184.8615091579,4513872.656297682,12.0,1.5,0,0,0,0,0,0,0,0
HCI-Institute,429173.9225336981,4513876.091450958,12.0,1.5,0,0,0,0,0,0,0,0
HCI-Institute,429135.2301811082,4513889.783758001,12.0,1.5,0,0,0,0,0,0,0,0
HCI-Institute,429125.1245335648,4513892.100837395,12.0,1.5,0,0,0,0,0,0,0,0
HCI-Institute,429115.0188920574,4513894.417930672,12.0,1.5,0,0,0,0,0,0,0,0
HCI-Institute,429109.9660735672,4513895.576482515,12.0,1.5,0,0,0,0,0,0,0,0
HCI-Institute,429055.11206223513,4513896.101937285,12.0,1.5,0,0,0,0,0,0,0,0
HCI-Institute,429055.11206223513,4513896.101937285,12.0,1.5,0,0,0,0,0,0,0,0
HCI-Institute,429055.66875835456,4513866.121991997,12.0,1.5,0,0,0,0,0,0,0,0
HCI-Institute,429055.5304717765,4513851.691097757,12.0,1.5,0,0,0,0,0,0,0,0
HCI-Institute,429055.28581180633,4513826.15951642,12.0,1.5,0,0,0,0,0,0,0,0
HCI-Institute,429055.2326250082,4513820.609172783,12.0,1.5,0,0,0,0,0,0,0,0
HCI-Institute,429055.9488949157,4513807.280261381,12.0,1.5,0,0,0,0,0,0,0,0
HCI-Institute,429056.7609017014,4513803.94196852,12.0,1.5,0,0,0,0,0,0,0,0
HCI-Institute,429057.5409984692,4513797.273469719,12.0,1.5,0,0,0,0,0,0,0,0
HCI-Institute,429059.91320789175,4513780.598180289,12.0,1.5,0,0,0,0,0,0,0,0
HCI-Institute,429063.1399881019,4513765.02487482,12.0,1.5,0,0,0,0,0,0,0,0
HCI-Institute,429067.2213428033,4513750.55355441,12.0,1.5,0,0,0,0,0,0,0,0
HCI-Institute,429071.3239836352,4513738.302373922,12.0,1.5,0,0,0,0,0,0,0,0
HCI-Institute,429072.1572749428,4513737.184220432,12.0,1.5,0,0,0,0,0,0,0,0
HCI-Institute,429078.7385466096,4513719.3584477,12.0,1.5,0,0,0,0,0,0,0,0
HCI-Institute,429086.1956781708,4513704.854803972,12.0,1.5,0,0,0,0,0,0,0,0
HCI-Institute,429098.673905773,4513685.862402186,12.0,1.5,0,0,0,0,0,0,0,0
HCI-Institute,429106.16299942567,4513674.688985562,12.0,1.5,0,0,0,0,0,0,0,0
HCI-Institute,429115.3293568479,4513662.389348703,12.0,1.5,0,0,0,0,0,0,0,0
HCI-Institute,429125.3290546738,4513648.9715766935,12.0,1.5,0,0,0,0,0,0,0,0
HCI-Institute,429152.84965703066,4513614.292913777,12.0,1.5,0,0,0,0,0,0,0,0
HCI-Institute,429170.3600071569,4513591.921983794,12.0,1.5,0,0,0,0,0,0,0,0
HCI-Institute,429170.3600071569,4513591.921983794,12.0,1.5,0,0,0,0,0,0,0,0
HCI-Institute,429178.6932505341,4513580.740571367,12.0,1.5,0,0,0,0,0,0,0,0
HCI-Institute,429188.7144092178,4513569.543025969,12.0,1.5,0,0,0,0,0,0,0,0
HCI-Institute,429189.54773775977,4513568.424886452,12.0,1.5,0,0,0,0,0,0,0,0
HCI-Institute,429192.8173594304,4513557.291920105,12.0,1.5,0,0,0,0,0,0,0,0
HCI-Institute,429195.2855056272,4513550.607298789,12.0,1.5,0,0,0,0,0,0,0,0
HCI-Institute,429216.1188756072,4513522.653860888,12.0,1.5,0,0,0,0,0,0,0,0
HCI-Institute,429231.1190006571,4513502.52742389,12.0,1.5,0,0,0,0,0,0,0,0
HCI-Institute,429243.6403839193,4513487.975553672,12.0,1.5,0,0,0,0,0,0,0,0
HCI-Institute,429249.4844202375,4513481.258693013,12.0,1.5,0,0,0,0,0,0,0,0
HCI-Institute,429255.339073432,4513475.65190521,12.0,1.5,0,0,0,0,0,0,0,0
HCI-Institute,429263.71499903535,4513468.910865824,12.0,1.5,0,0,0,0,0,0,0,0
HCI-Institute,429268.7257159159,4513463.312151651,12.0,1.5,0,0,0,0,0,0,0,0
HCI-Institute,429278.7789803798,4513455.444937883,12.0,1.5,0,0,0,0,0,0,0,0
HCI-Institute,429293.0096577352,4513443.097168745,12.0,1.5,0,0,0,0,0,0,0,0
HCI-Institute,429328.1804701934,4513413.896998674,12.0,1.5,0,0,0,0,0,0,0,0
HCI-Institute,429354.9860394303,4513392.547991791,12.0,1.5,0,0,0,0,0,0,0,0
HCI-Institute,429363.36214961146,4513385.807068351,12.0,1.5,0,0,0,0,0,0,0,0
HCI-Institute,429376.73854724737,4513372.357448372,12.0,1.5,0,0,0,0,0,0,0,0
HCI-Institute,429387.6148457542,4513362.262201432,12.0,1.5,0,0,0,0,0,0,0,0
HCI-Institute,429397.6260357539,4513349.954882644,12.0,1.5,0,0,0,0,0,0,0,0
HCI-Institute,429400.9384107631,4513343.262288136,12.0,1.5,0,0,0,0,0,0,0,0
HCI-Institute,429404.250791917,4513336.569695254,12.0,1.5,0,0,0,0,0,0,0,0
HCI-Institute,429405.9175679326,4513334.333467147,12.0,1.5,0,0,0,0,0,0,0,0
HCI-Institute,429410.0210175266,4513322.082492374,12.0,1.5,0,0,0,0,0,0,0,0
HCI-Institute,429414.13506311737,4513310.94158796,12.0,1.5,0,0,0,0,0,0,0,0
HCI-Institute,429414.87322030775,4513299.832866056,12.0,1.5,0,0,0,0,0,0,0,0
HCI-Institute,429415.6642879063,4513294.27448267,12.0,1.5,0,0,0,0,0,0,0,0
HCI-Institute,429416.4341940281,4513286.495964156,12.0,1.5,0,0,0,0,0,0,0,0
HCI-Institute,429416.40244984906,4513283.165761257,12.0,1.5,0,0,0,0,0,0,0,0
HCI-Institute,429416.3283801736,4513275.395287889,12.0,1.5,0,0,0,0,0,0,0,0
HCI-Institute,429415.43149459467,4513269.852994831,12.0,1.5,0,0,0,0,0,0,0,0
HCI-Institute,429417.8682008819,4513259.838251717,12.0,1.5,0,0,0,0,0,0,0,0
HCI-Institute,429415.2621910248,4513252.091913341,12.0,1.5,0,0,0,0,0,0,0,0
HCI-Institute,429407.4441301846,4513228.852903851,12.0,1.5,0,0,0,0,0,0,0,0
HCI-Institute,429403.0866319077,4513214.462256654,12.0,1.5,0,0,0,0,0,0,0,0
HCI-Institute,429397.8110436843,4513192.309186591,12.0,1.5,0,0,0,0,0,0,0,0
HCI-Institute,429393.4535073418,4513177.918545365,12.0,1.5,0,0,0,0,0,0,0,0
HCI-Institute,429383.0186435033,4513145.82316562,12.0,1.5,0,0,0,0,0,0,0,0
HCI-Institute,429380.4125606312,4513138.0768399,12.0,1.5,0,0,0,0,0,0,0,0
HCI-Institute,429377.76412592886,4513125.890245582,12.0,1.5,0,0,0,0,0,0,0,0
HCI-Institute,429376.867196872,4513120.347957882,12.0,1.5,0,0,0,0,0,0,0,0
HCI-Institute,429375.1262701413,4513114.813719695,12.0,1.5,0,0,0,0,0,0,0,0
HCI-Institute,429373.3535791869,4513105.949279873,12.0,1.5,0,0,0,0,0,0,0,0
HCI-Institute,429372.4142954576,4513095.966723462,12.0,1.5,0,0,0,0,0,0,0,0
HCI-Institute,429370.5780719719,4513080.441880574,12.0,1.5,0,0,0,0,0,0,0,0
HCI-Institute,429370.5251341263,4513074.891544064,12.0,1.5,0,0,0,0,0,0,0,0
HCI-Institute,429370.4510212332,4513067.121073028,12.0,1.5,0,0,0,0,0,0,0,0
HCI-Institute,429370.36632091366,4513058.240534815,12.0,1.5,0,0,0,0,0,0,0,0
HCI-Institute,429371.1362120516,4513050.462014149,12.0,1.5,0,0,0,0,0,0,0,0
HCI-Institute,429371.0621003772,4513042.691543409,12.0,1.5,0,0,0,0,0,0,0,0
HCI-Institute,429371.0515130037,4513041.581476167,12.0,1.5,0,0,0,0,0,0,0,0
HCI-Institute,429372.6654128524,4513033.794906176,12.0,1.5,0,0,0,0,0,0,0,0
HCI-Institute,429374.2793163511,4513026.008336674,12.0,1.5,0,0,0,0,0,0,0,0
HCI-Institute,429375.903810064,4513019.331834862,12.0,1.5,0,0,0,0,0,0,0,0
HCI-Institute,429378.3193841353,4513007.09694865,12.0,1.5,0,0,0,0,0,0,0,0
HCI-Institute,429379.1422207944,4513004.868765448,12.0,1.5,0,0,0,0,0,0,0,0
HCI-Institute,429409.6616073002,4512930.19653033,12.0,1.5,0,0,0,0,0,0,0,0
HCI-Institute,429419.5464844196,4512904.568453598,12.0,1.5,0,0,0,0,0,0,0,0
HCI-Institute,429426.1611253093,4512890.073233713,12.0,1.5,0,0,0,0,0,0,0,0
HCI-Institute,429432.7546377454,4512873.357886545,12.0,1.5,0,0,0,0,0,0,0,0
HCI-Institute,429442.6291002309,4512846.619778011,12.0,1.5,0,0,0,0,0,0,0,0
HCI-Institute,429446.6694541981,4512827.708436018,12.0,1.5,0,0,0,0,0,0,0,0
HCI-Institute,429455.55196650425,4512785.437454219,12.0,1.5,0,0,0,0,0,0,0,0
HCI-Institute,429461.2275991743,4512760.959709937,12.0,1.5,0,0,0,0,0,0,0,0
HCI-Institute,429462.80994605576,4512749.84296488,12.0,1.5,0,0,0,0,0,0,0,0
HCI-Institute,429469.2768164881,4512719.8068567645,12.0,1.5,0,0,0,0,0,0,0,0
HCI-Institute,429472.52612933074,4512706.453905529,12.0,1.5,0,0,0,0,0,0,0,0
HCI-Institute,429481.44066472165,4512667.513166075,12.0,1.5,0,0,0,0,0,0,0,0
HCI-Institute,429495.2505332836,4512610.763165831,12.0,1.5,0,0,0,0,0,0,0,0
HCI-Institute,429503.3740904441,4512577.38082837,12.0,1.5,0,0,0,0,0,0,0,0
HCI-Institute,429528.6421071009,4512482.776185421,12.0,1.5,0,0,0,0,0,0,0,0
HCI-Institute,429528.6421071009,4512482.776185421,12.0,1.5,0,0,0,0,0,0,0,0
HCI-Institute,429504.86027979385,4512467.460164102,12.0,1.5,0,0,0,0,0,0,0,0
HCI-Institute,429485.3198491531,4512454.324169951,12.0,1.5,0,0,0,0,0,0,0,0
HCI-Institute,429449.6362243445,4512430.240306304,12.0,1.5,0,0,0,0,0,0,0,0
HCI-Institute,429427.5527919724,4512416.018516771,12.0,1.5,0,0,0,0,0,0,0,0
HCI-Institute,429405.44811411377,4512399.576660048,12.0,1.5,0,0,0,0,0,0,0,0
HCI-Institute,429362.12489065307,4512371.125356526,12.0,1.5,0,0,0,0,0,0,0,0
HCI-Institute,429334.0901692567,4512352.519928949,12.0,1.5,0,0,0,0,0,0,0,0
HCI-Institute,429320.5000939636,4512343.768260245,12.0,1.5,0,0,0,0,0,0,0,0
HCI-Institute,429320.5000939636,4512343.768260245,12.0,1.5,0,0,0,0,0,0,0,0
HCI-Institute,429276.3889815625,4512409.689187562,12.0,1.5,0,0,0,0,0,0,0,0
HCI-Institute,429272.2321970829,4512416.389884247,12.0,1.5,0,0,0,0,0,0,0,0
HCI-Institute,429258.907213535,4512435.389984648,12.0,1.5,0,0,0,0,0,0,0,0
HCI-Institute,429231.42399115936,4512474.508392816,12.0,1.5,0,0,0,0,0,0,0,0
HCI-Institute,429208.1083395424,4512508.036237948,12.0,1.5,0,0,0,0,0,0,0,0
HCI-Institute,429199.7844048282,4512520.327649053,12.0,1.5,0,0,0,0,0,0,0,0
HCI-Institute,429199.7844048282,4512520.327649053,12.0,1.5,0,0,0,0,0,0,0,0
HCI-Institute,429211.67557407566,4512527.985164105,12.0,1.5,0,0,0,0,0,0,0,0
HCI-Institute,429242.2527527496,4512547.6760037225,12.0,1.5,0,0,0,0,0,0,0,0
HCI-Institute,429265.1908301417,4512562.999248539,12.0,1.5,0,0,0,0,0,0,0,0
HCI-Institute,429285.5754416311,4512576.126606635,12.0,1.5,0,0,0,0,0,0,0,0
