NAME AW3828
MAKE Alpha Wireless
FREQUENCY 3550
H_WIDTH 65
V_WIDTH 7
FRONT_TO_BACK 30
GAIN 17.3 dBi
TILT ELECTRICAL
HORIZONTAL  360
0.0 0.1
1.0 0.1
2.0 0.2
3.0 0.3
4.0 0.3
5.0 0.4
6.0 0.5
7.0 0.5
8.0 0.6
9.0 0.7
10.0 0.8
11.0 0.8
12.0 0.9
13.0 1.0
14.0 1.1
15.0 1.3
16.0 1.4
17.0 1.5
18.0 1.6
19.0 1.7
20.0 1.9
21.0 2.0
22.0 2.1
23.0 2.3
24.0 2.4
25.0 2.5
26.0 2.7
27.0 2.8
28.0 3.0
29.0 3.2
30.0 3.4
31.0 3.6
32.0 3.7
33.0 3.9
34.0 4.1
35.0 4.3
36.0 4.5
37.0 4.7
38.0 4.9
39.0 5.2
40.0 5.4
41.0 5.6
42.0 5.8
43.0 6.1
44.0 6.3
45.0 6.5
46.0 6.8
47.0 7.0
48.0 7.3
49.0 7.5
50.0 7.8
51.0 8.0
52.0 8.3
53.0 8.5
54.0 8.7
55.0 9.0
56.0 9.2
57.0 9.5
58.0 9.7
59.0 10.0
60.0 10.3
61.0 10.5
62.0 10.8
63.0 11.1
64.0 11.5
65.0 11.8
66.0 12.1
67.0 12.4
68.0 12.8
69.0 13.1
70.0 13.5
71.0 13.9
72.0 14.3
73.0 14.6
74.0 15.0
75.0 15.3
76.0 15.7
77.0 16.1
78.0 16.5
79.0 16.8
80.0 17.2
81.0 17.5
82.0 17.8
83.0 18.1
84.0 18.2
85.0 18.5
86.0 18.6
87.0 18.8
88.0 18.9
89.0 19.0
90.0 19.1
91.0 19.2
92.0 19.3
93.0 19.4
94.0 19.6
95.0 19.8
96.0 20.1
97.0 20.5
98.0 20.9
99.0 21.4
100.0 21.9
101.0 22.5
102.0 23.1
103.0 23.7
104.0 24.3
105.0 24.8
106.0 25.3
107.0 25.8
108.0 26.0
109.0 26.2
110.0 26.3
111.0 26.4
112.0 26.6
113.0 26.8
114.0 27.1
115.0 27.7
116.0 28.3
117.0 29.2
118.0 30.3
119.0 31.4
120.0 32.5
121.0 33.2
122.0 33.3
123.0 32.7
124.0 31.8
125.0 30.9
126.0 30.1
127.0 29.4
128.0 29.0
129.0 28.7
130.0 28.6
131.0 28.7
132.0 28.9
133.0 29.3
134.0 29.7
135.0 30.2
136.0 30.7
137.0 31.2
138.0 31.6
139.0 32.0
140.0 32.4
141.0 32.9
142.0 33.6
143.0 34.6
144.0 35.9
145.0 37.6
146.0 39.9
147.0 42.5
148.0 43.8
149.0 42.1
150.0 39.5
151.0 37.0
152.0 35.2
153.0 33.7
154.0 32.6
155.0 31.9
156.0 31.5
157.0 31.3
158.0 31.4
159.0 31.8
160.0 32.4
161.0 33.3
162.0 34.7
163.0 36.4
164.0 38.9
165.0 42.6
166.0 49.2
167.0 54.6
168.0 46.1
169.0 41.5
170.0 38.9
171.0 37.1
172.0 36.0
173.0 35.3
174.0 34.9
175.0 34.9
176.0 35.0
177.0 35.3
178.0 35.6
179.0 35.9
180.0 35.9
181.0 35.6
182.0 35.1
183.0 34.3
184.0 33.5
185.0 32.5
186.0 31.8
187.0 31.1
188.0 30.6
189.0 30.2
190.0 29.9
191.0 29.8
192.0 29.9
193.0 30.1
194.0 30.5
195.0 31.0
196.0 31.6
197.0 32.2
198.0 32.8
199.0 33.4
200.0 33.9
201.0 34.3
202.0 34.5
203.0 34.6
204.0 34.6
205.0 34.6
206.0 34.5
207.0 34.5
208.0 34.6
209.0 34.7
210.0 35.0
211.0 35.3
212.0 35.6
213.0 35.8
214.0 36.0
215.0 35.9
216.0 35.7
217.0 35.5
218.0 35.0
219.0 34.6
220.0 34.1
221.0 33.6
222.0 33.2
223.0 32.7
224.0 32.4
225.0 32.2
226.0 32.1
227.0 32.0
228.0 31.9
229.0 31.8
230.0 31.5
231.0 31.2
232.0 31.0
233.0 30.6
234.0 30.4
235.0 30.2
236.0 30.1
237.0 30.0
238.0 29.9
239.0 29.7
240.0 29.5
241.0 29.2
242.0 28.9
243.0 28.7
244.0 28.5
245.0 28.5
246.0 28.4
247.0 28.4
248.0 28.2
249.0 28.0
250.0 27.7
251.0 27.3
252.0 27.0
253.0 26.7
254.0 26.5
255.0 26.4
256.0 26.3
257.0 26.1
258.0 25.9
259.0 25.6
260.0 25.2
261.0 24.9
262.0 24.7
263.0 24.5
264.0 24.5
265.0 24.4
266.0 24.3
267.0 24.1
268.0 23.7
269.0 23.3
270.0 22.9
271.0 22.5
272.0 22.1
273.0 21.7
274.0 21.4
275.0 21.1
276.0 20.8
277.0 20.5
278.0 20.2
279.0 19.9
280.0 19.6
281.0 19.2
282.0 18.8
283.0 18.4
284.0 17.9
285.0 17.4
286.0 16.9
287.0 16.4
288.0 15.9
289.0 15.4
290.0 14.9
291.0 14.5
292.0 14.0
293.0 13.6
294.0 13.2
295.0 12.8
296.0 12.4
297.0 12.0
298.0 11.6
299.0 11.2
300.0 10.8
301.0 10.4
302.0 10.1
303.0 9.7
304.0 9.3
305.0 8.9
306.0 8.5
307.0 8.2
308.0 7.9
309.0 7.5
310.0 7.2
311.0 7.0
312.0 6.7
313.0 6.4
314.0 6.1
315.0 5.9
316.0 5.6
317.0 5.3
318.0 5.0
319.0 4.8
320.0 4.5
321.0 4.3
322.0 4.0
323.0 3.8
324.0 3.6
325.0 3.4
326.0 3.2
327.0 3.1
328.0 2.9
329.0 2.7
330.0 2.6
331.0 2.4
332.0 2.3
333.0 2.1
334.0 2.0
335.0 1.8
336.0 1.7
337.0 1.6
338.0 1.5
339.0 1.3
340.0 1.2
341.0 1.1
342.0 1.0
343.0 0.8
344.0 0.7
345.0 0.6
346.0 0.5
347.0 0.4
348.0 0.3
349.0 0.2
350.0 0.2
351.0 0.1
352.0 0.1
353.0 0.0
354.0 0.0
355.0 0.0
356.0 0.0
357.0 0.0
358.0 0.0
359.0 0.1
VERTICAL  360
0.0 0.3
1.0 0.0
2.0 0.3
3.0 1.1
4.0 2.4
5.0 4.1
6.0 6.7
7.0 10.0
8.0 14.1
9.0 18.0
10.0 19.1
11.0 18.8
12.0 18.9
13.0 20.0
14.0 21.4
15.0 21.8
16.0 21.3
17.0 20.6
18.0 20.7
19.0 22.0
20.0 25.2
21.0 31.2
22.0 31.8
23.0 26.7
24.0 23.1
25.0 21.8
26.0 21.5
27.0 22.1
28.0 23.5
29.0 26.4
30.0 30.1
31.0 31.2
32.0 28.7
33.0 26.2
34.0 25.7
35.0 26.0
36.0 27.6
37.0 32.7
38.0 42.8
39.0 37.3
40.0 32.3
41.0 28.7
42.0 26.3
43.0 25.1
44.0 25.0
45.0 25.6
46.0 27.4
47.0 31.3
48.0 36.2
49.0 36.9
50.0 33.6
51.0 31.7
52.0 31.0
53.0 30.6
54.0 30.6
55.0 30.9
56.0 31.5
57.0 32.4
58.0 34.6
59.0 38.1
60.0 45.4
61.0 52.3
62.0 47.7
63.0 51.4
64.0 49.3
65.0 42.1
66.0 37.8
67.0 35.6
68.0 33.6
69.0 32.9
70.0 33.0
71.0 33.7
72.0 34.1
73.0 34.5
74.0 35.4
75.0 35.7
76.0 34.5
77.0 33.1
78.0 33.1
79.0 33.2
80.0 33.8
81.0 34.5
82.0 36.5
83.0 40.9
84.0 43.0
85.0 41.6
86.0 40.4
87.0 39.2
88.0 37.2
89.0 36.7
90.0 37.9
91.0 38.9
92.0 41.2
93.0 46.1
94.0 46.8
95.0 47.7
96.0 47.0
97.0 45.3
98.0 43.1
99.0 42.8
100.0 43.3
101.0 45.5
102.0 44.0
103.0 45.8
104.0 47.2
105.0 48.2
106.0 52.4
107.0 51.5
108.0 53.0
109.0 48.9
110.0 47.3
111.0 45.2
112.0 43.5
113.0 43.3
114.0 42.7
115.0 43.0
116.0 42.3
117.0 39.8
118.0 38.2
119.0 38.1
120.0 37.5
121.0 36.7
122.0 36.7
123.0 36.0
124.0 36.5
125.0 35.8
126.0 36.7
127.0 38.1
128.0 39.2
129.0 39.8
130.0 40.9
131.0 41.4
132.0 42.6
133.0 42.2
134.0 43.7
135.0 45.6
136.0 45.2
137.0 43.0
138.0 43.9
139.0 40.2
140.0 38.5
141.0 37.7
142.0 37.5
143.0 39.1
144.0 40.1
145.0 42.7
146.0 49.0
147.0 46.4
148.0 40.6
149.0 38.1
150.0 36.1
151.0 35.4
152.0 35.4
153.0 36.4
154.0 36.3
155.0 35.4
156.0 35.0
157.0 34.3
158.0 33.9
159.0 34.5
160.0 35.5
161.0 36.4
162.0 38.8
163.0 43.8
164.0 60.4
165.0 47.3
166.0 42.7
167.0 42.0
168.0 42.3
169.0 39.7
170.0 38.5
171.0 37.7
172.0 37.5
173.0 38.8
174.0 38.7
175.0 38.1
176.0 38.2
177.0 38.5
178.0 39.6
179.0 38.4
180.0 36.6
181.0 36.4
182.0 37.1
183.0 39.7
184.0 41.9
185.0 41.7
186.0 42.3
187.0 43.4
188.0 44.6
189.0 46.0
190.0 50.1
191.0 53.6
192.0 48.5
193.0 45.0
194.0 42.9
195.0 40.5
196.0 37.8
197.0 36.2
198.0 35.8
199.0 35.5
200.0 36.2
201.0 37.3
202.0 39.4
203.0 43.6
204.0 49.4
205.0 47.2
206.0 49.5
207.0 47.8
208.0 46.9
209.0 47.6
210.0 46.3
211.0 44.9
212.0 44.8
213.0 46.3
214.0 41.1
215.0 39.3
216.0 37.0
217.0 34.8
218.0 34.1
219.0 33.9
220.0 34.5
221.0 36.0
222.0 38.9
223.0 41.3
224.0 44.2
225.0 51.8
226.0 49.9
227.0 46.6
228.0 45.2
229.0 45.1
230.0 44.6
231.0 46.1
232.0 43.5
233.0 40.3
234.0 38.8
235.0 37.8
236.0 37.7
237.0 39.0
238.0 42.6
239.0 46.0
240.0 47.8
241.0 42.9
242.0 38.8
243.0 36.3
244.0 34.6
245.0 34.5
246.0 35.4
247.0 36.8
248.0 38.9
249.0 45.0
250.0 48.3
251.0 40.2
252.0 36.8
253.0 35.3
254.0 34.8
255.0 34.9
256.0 35.7
257.0 37.5
258.0 39.6
259.0 41.7
260.0 42.3
261.0 39.4
262.0 36.8
263.0 35.6
264.0 34.7
265.0 33.6
266.0 33.4
267.0 33.8
268.0 34.0
269.0 33.8
270.0 34.1
271.0 34.2
272.0 35.4
273.0 36.1
274.0 36.3
275.0 35.9
276.0 35.2
277.0 34.8
278.0 34.5
279.0 34.4
280.0 34.7
281.0 35.7
282.0 36.7
283.0 38.0
284.0 38.3
285.0 39.1
286.0 38.7
287.0 36.7
288.0 35.1
289.0 33.7
290.0 32.7
291.0 31.6
292.0 31.0
293.0 29.9
294.0 29.2
295.0 28.8
296.0 28.3
297.0 28.0
298.0 27.6
299.0 27.7
300.0 28.1
301.0 29.0
302.0 29.8
303.0 30.6
304.0 30.7
305.0 30.1
306.0 29.1
307.0 28.2
308.0 27.0
309.0 26.4
310.0 26.0
311.0 26.1
312.0 26.8
313.0 27.8
314.0 30.2
315.0 35.0
316.0 45.0
317.0 36.3
318.0 30.8
319.0 27.7
320.0 26.2
321.0 25.9
322.0 26.8
323.0 29.4
324.0 35.7
325.0 37.4
326.0 30.7
327.0 25.7
328.0 23.4
329.0 22.4
330.0 22.9
331.0 24.7
332.0 28.6
333.0 32.8
334.0 28.9
335.0 24.5
336.0 22.3
337.0 21.4
338.0 21.9
339.0 24.2
340.0 29.4
341.0 42.3
342.0 29.2
343.0 24.4
344.0 22.7
345.0 22.8
346.0 25.0
347.0 31.0
348.0 45.6
349.0 29.1
350.0 25.8
351.0 26.8
352.0 29.8
353.0 21.3
354.0 14.3
355.0 9.7
356.0 6.4
357.0 4.0
358.0 2.1
359.0 0.9
