filepath,filename,frequency,beamwidth,gain
/home/speedy/repos/feko_files/antennas/AW3924/MSI/P4/AW3924_3700_T0.msi,AW3924_3700_T0,Alpha,3700,65
/home/speedy/repos/feko_files/antennas/AW3924/MSI/P4/AW3924_4050_T0.msi,AW3924_4050_T0,Alpha,4050,65
/home/speedy/repos/feko_files/antennas/AW3924/MSI/P4/AW3924_3900_T0.msi,AW3924_3900_T0,Alpha,3900,65
/home/speedy/repos/feko_files/antennas/AW3924/MSI/P4/AW3924_3950_T0.msi,AW3924_3950_T0,Alpha,3950,65
/home/speedy/repos/feko_files/antennas/AW3924/MSI/P4/AW3924_3450_T0.msi,AW3924_3450_T0,Alpha,3450,65
/home/speedy/repos/feko_files/antennas/AW3924/MSI/P4/AW3924_4000_T0.msi,AW3924_4000_T0,Alpha,4000,65
/home/speedy/repos/feko_files/antennas/AW3924/MSI/P4/AW3924_4100_T0.msi,AW3924_4100_T0,Alpha,4100,65
/home/speedy/repos/feko_files/antennas/AW3924/MSI/P4/AW3924_3400_T0.msi,AW3924_3400_T0,Alpha,3400,65
/home/speedy/repos/feko_files/antennas/AW3924/MSI/P4/AW3924_3300_T0.msi,AW3924_3300_T0,Alpha,3300,65
/home/speedy/repos/feko_files/antennas/AW3924/MSI/P4/AW3924_4200_T0.msi,AW3924_4200_T0,Alpha,4200,65
/home/speedy/repos/feko_files/antennas/AW3924/MSI/P4/AW3924_3350_T0.msi,AW3924_3350_T0,Alpha,3350,65
/home/speedy/repos/feko_files/antennas/AW3924/MSI/P4/AW3924_3550_T0.msi,AW3924_3550_T0,Alpha,3550,65
/home/speedy/repos/feko_files/antennas/AW3924/MSI/P4/AW3924_3500_T0.msi,AW3924_3500_T0,Alpha,3500,65
/home/speedy/repos/feko_files/antennas/AW3924/MSI/P4/AW3924_3800_T0.msi,AW3924_3800_T0,Alpha,3800,65
/home/speedy/repos/feko_files/antennas/AW3924/MSI/P4/AW3924_3600_T0.msi,AW3924_3600_T0,Alpha,3600,65
/home/speedy/repos/feko_files/antennas/AW3924/MSI/P4/AW3924_3750_T0.msi,AW3924_3750_T0,Alpha,3750,65
/home/speedy/repos/feko_files/antennas/AW3924/MSI/P4/AW3924_4150_T0.msi,AW3924_4150_T0,Alpha,4150,65
/home/speedy/repos/feko_files/antennas/AW3924/MSI/P4/AW3924_3850_T0.msi,AW3924_3850_T0,Alpha,3850,65
/home/speedy/repos/feko_files/antennas/AW3924/MSI/P4/AW3924_3650_T0.msi,AW3924_3650_T0,Alpha,3650,65
