VERSION 2.0
NAME VVSSP-360S-F, Tilt 0, Freq 5850
GAIN 5.4
HOR_LOBE
0	6.9
1	6.5
2	5.9
3	5.3
4	4.7
5	4.1
6	3.5
7	3.1
8	2.9
9	2.9
10	2.9
11	3.0
12	3.1
13	3.3
14	3.5
15	3.8
16	4.4
17	5.1
18	5.9
19	6.7
20	7.4
21	8.1
22	8.7
23	9.2
24	9.8
25	10.4
26	10.7
27	10.6
28	10.3
29	9.8
30	9.3
31	8.7
32	8.3
33	8.0
34	7.9
35	8.1
36	8.3
37	8.6
38	8.8
39	8.9
40	9.0
41	9.2
42	9.4
43	9.9
44	10.5
45	11.2
46	11.9
47	12.5
48	12.9
49	13.1
50	13.3
51	13.3
52	13.0
53	12.7
54	12.3
55	11.9
56	11.5
57	11.3
58	11.2
59	11.0
60	10.7
61	10.2
62	9.7
63	9.1
64	8.6
65	8.2
66	8.0
67	7.8
68	7.6
69	7.4
70	7.2
71	7.1
72	7.2
73	7.4
74	7.7
75	8.0
76	8.1
77	8.0
78	7.9
79	7.8
80	7.8
81	8.1
82	8.3
83	8.4
84	8.2
85	7.6
86	6.7
87	5.8
88	5.0
89	4.4
90	4.0
91	3.6
92	3.1
93	2.6
94	2.1
95	1.7
96	1.5
97	1.4
98	1.6
99	2.0
100	2.3
101	2.6
102	2.9
103	3.2
104	3.6
105	4.1
106	4.8
107	5.6
108	6.3
109	6.9
110	7.5
111	7.9
112	8.3
113	8.6
114	8.7
115	8.6
116	8.3
117	8.0
118	7.8
119	7.7
120	7.6
121	7.6
122	7.5
123	7.3
124	7.2
125	7.2
126	7.4
127	7.6
128	8.0
129	8.5
130	9.0
131	9.6
132	10.2
133	10.7
134	11.1
135	11.2
136	11.2
137	11.0
138	10.9
139	10.9
140	10.9
141	10.8
142	10.6
143	10.3
144	9.7
145	9.2
146	8.7
147	8.3
148	8.1
149	8.1
150	8.0
151	7.8
152	7.5
153	7.1
154	6.7
155	6.4
156	6.2
157	6.1
158	6.2
159	6.5
160	6.8
161	7.2
162	7.5
163	8.0
164	8.5
165	9.1
166	9.7
167	10.1
168	10.3
169	10.2
170	10.1
171	9.9
172	9.7
173	9.3
174	8.8
175	8.2
176	7.6
177	6.9
178	6.3
179	5.7
180	5.2
181	4.7
182	4.2
183	3.8
184	3.4
185	3.2
186	3.1
187	3.1
188	3.1
189	3.3
190	3.5
191	3.8
192	4.2
193	4.7
194	5.2
195	5.8
196	6.4
197	7.2
198	8.0
199	9.0
200	9.9
201	10.8
202	11.3
203	11.4
204	11.1
205	10.7
206	10.3
207	9.9
208	9.6
209	9.4
210	9.3
211	9.4
212	9.7
213	10.1
214	10.6
215	11.1
216	11.5
217	11.8
218	11.9
219	12.1
220	12.2
221	12.3
222	12.3
223	12.1
224	11.8
225	11.3
226	10.7
227	10.1
228	9.5
229	8.8
230	8.2
231	7.6
232	7.2
233	7.0
234	6.9
235	7.1
236	7.2
237	7.3
238	7.2
239	6.9
240	6.5
241	6.1
242	5.7
243	5.4
244	5.1
245	4.7
246	4.5
247	4.3
248	4.2
249	4.3
250	4.4
251	4.5
252	4.6
253	4.4
254	4.2
255	4.1
256	4.1
257	4.2
258	4.5
259	4.7
260	4.8
261	4.6
262	4.1
263	3.5
264	2.9
265	2.4
266	2.1
267	1.9
268	1.9
269	1.9
270	1.9
271	1.9
272	1.9
273	1.8
274	1.7
275	1.4
276	1.2
277	.8
278	.5
279	.2
280	.0
281	.0
282	.1
283	.2
284	.5
285	.8
286	1.0
287	1.4
288	1.8
289	2.2
290	2.8
291	3.5
292	4.2
293	4.9
294	5.6
295	6.2
296	7.0
297	7.7
298	8.4
299	8.9
300	9.3
301	9.4
302	9.3
303	9.1
304	8.8
305	8.5
306	8.3
307	8.2
308	8.2
309	8.3
310	8.3
311	8.3
312	8.2
313	8.1
314	8.1
315	8.3
316	8.6
317	9.0
318	9.3
319	9.5
320	9.4
321	9.3
322	9.3
323	9.4
324	9.5
325	9.5
326	9.4
327	9.1
328	8.7
329	8.4
330	8.2
331	8.1
332	8.1
333	8.0
334	7.7
335	7.3
336	6.9
337	6.6
338	6.5
339	6.6
340	6.8
341	7.0
342	7.0
343	7.0
344	7.0
345	7.0
346	7.3
347	7.7
348	8.3
349	8.8
350	9.3
351	9.5
352	9.6
353	9.5
354	9.3
355	9.1
356	8.7
357	8.3
358	7.8
359	7.4
VER_LOBE
0	2.4
1	2.4
2	1.7
3	.6
4	.0
5	.2
6	1.1
7	2.1
8	2.3
9	2.0
10	1.9
11	2.3
12	3.2
13	4.8
14	7.3
15	9.4
16	9.7
17	9.8
18	10.7
19	12.3
20	13.5
21	14.6
22	16.3
23	19.1
24	25.3
25	32.7
26	20.7
27	17.3
28	16.8
29	17.0
30	16.2
31	15.0
32	13.5
33	11.7
34	10.2
35	9.7
36	10.2
37	11.3
38	11.7
39	11.5
40	11.2
41	10.7
42	9.7
43	8.4
44	7.1
45	6.1
46	5.8
47	6.3
48	7.9
49	10.8
50	15.5
51	24.1
52	23.4
53	15.4
54	11.3
55	9.2
56	8.3
57	8.2
58	8.4
59	8.7
60	9.3
61	10.4
62	11.5
63	12.2
64	12.7
65	13.4
66	14.2
67	14.6
68	15.2
69	16.8
70	18.9
71	19.4
72	18.8
73	18.4
74	18.6
75	18.6
76	18.3
77	18.5
78	20.3
79	23.9
80	27.3
81	27.3
82	26.0
83	25.9
84	27.8
85	29.1
86	27.8
87	28.0
88	28.9
89	29.1
90	30.4
91	29.0
92	24.5
93	22.7
94	24.1
95	28.1
96	26.6
97	23.7
98	24.1
99	27.0
100	28.7
101	26.6
102	24.1
103	22.5
104	21.6
105	19.8
106	17.3
107	15.6
108	15.2
109	15.3
110	15.0
111	14.3
112	13.9
113	14.4
114	15.6
115	15.5
116	13.5
117	12.3
118	12.3
119	12.6
120	12.0
121	10.9
122	10.5
123	11.1
124	12.5
125	14.2
126	16.4
127	19.7
128	24.0
129	20.9
130	16.2
131	13.3
132	11.3
133	10.1
134	9.9
135	11.0
136	13.2
137	15.2
138	14.8
139	13.6
140	12.8
141	12.2
142	11.9
143	12.1
144	13.8
145	18.0
146	24.6
147	19.0
148	15.3
149	14.5
150	15.3
151	17.2
152	19.3
153	21.0
154	22.3
155	23.0
156	22.6
157	19.7
158	16.1
159	13.7
160	12.5
161	12.0
162	11.4
163	10.3
164	9.0
165	8.0
166	7.4
167	6.8
168	6.1
169	5.2
170	4.2
171	3.1
172	2.1
173	1.2
174	.7
175	.8
176	1.1
177	1.3
178	1.2
179	.9
180	.8
181	.8
182	1.0
183	1.3
184	1.4
185	1.1
186	.9
187	.8
188	1.0
189	1.6
190	2.6
191	3.4
192	3.2
193	2.7
194	3.0
195	4.3
196	6.0
197	6.8
198	7.0
199	7.8
200	9.2
201	10.1
202	10.1
203	9.9
204	10.3
205	11.0
206	11.2
207	11.3
208	12.4
209	14.9
210	18.0
211	19.2
212	19.4
213	20.9
214	22.5
215	21.5
216	18.9
217	15.9
218	13.5
219	12.2
220	11.9
221	12.3
222	12.9
223	13.0
224	12.6
225	12.3
226	12.3
227	12.4
228	12.0
229	11.2
230	10.7
231	10.8
232	11.9
233	13.8
234	15.8
235	16.8
236	16.8
237	17.0
238	17.2
239	16.6
240	15.5
241	14.6
242	14.1
243	13.7
244	13.0
245	12.0
246	11.3
247	11.5
248	12.6
249	14.3
250	15.4
251	15.5
252	15.5
253	15.8
254	16.0
255	15.8
256	15.4
257	14.9
258	14.4
259	13.8
260	13.5
261	14.1
262	16.0
263	19.4
264	21.4
265	18.2
266	15.4
267	13.9
268	13.0
269	12.4
270	11.7
271	11.1
272	10.7
273	10.6
274	10.7
275	10.9
276	11.2
277	11.5
278	12.0
279	12.9
280	14.1
281	15.6
282	17.1
283	18.1
284	17.6
285	16.6
286	16.4
287	17.5
288	19.8
289	22.3
290	22.5
291	20.9
292	19.8
293	19.4
294	18.9
295	18.0
296	17.0
297	16.5
298	16.7
299	16.9
300	16.4
301	15.5
302	15.0
303	15.2
304	15.4
305	14.9
306	13.9
307	13.4
308	13.5
309	13.3
310	12.4
311	11.6
312	11.2
313	11.4
314	11.9
315	12.3
316	12.4
317	12.7
318	13.8
319	15.3
320	14.7
321	13.0
322	12.4
323	12.9
324	13.3
325	12.6
326	12.1
327	12.5
328	14.0
329	16.7
330	21.5
331	35.2
332	25.4
333	18.8
334	16.6
335	17.0
336	18.8
337	20.2
338	22.0
339	26.5
340	23.9
341	17.9
342	13.7
343	10.4
344	8.1
345	7.0
346	7.4
347	8.9
348	9.9
349	8.1
350	5.7
351	4.0
352	3.0
353	2.8
354	3.1
355	3.2
356	2.6
357	1.9
358	1.7
359	2.0
