VERSION 2.0
NAME VVSSP-360S-F, Tilt 0, Freq 5400
GAIN 3.3
HOR_LOBE
0	1.5
1	1.5
2	1.4
3	1.4
4	1.3
5	1.3
6	1.2
7	1.2
8	1.1
9	1.1
10	1.0
11	1.0
12	1.0
13	1.0
14	1.0
15	1.1
16	1.2
17	1.3
18	1.5
19	1.7
20	1.8
21	2.1
22	2.3
23	2.5
24	2.6
25	2.8
26	2.9
27	3.1
28	3.3
29	3.6
30	3.9
31	4.3
32	4.7
33	5.1
34	5.4
35	5.8
36	6.2
37	6.6
38	7.1
39	7.5
40	7.8
41	7.8
42	7.7
43	7.4
44	7.0
45	6.7
46	6.4
47	6.1
48	5.7
49	5.3
50	4.8
51	4.4
52	4.1
53	3.9
54	3.8
55	3.8
56	3.8
57	3.9
58	4.1
59	4.2
60	4.3
61	4.4
62	4.5
63	4.5
64	4.5
65	4.4
66	4.4
67	4.3
68	4.2
69	4.1
70	4.0
71	4.0
72	4.0
73	4.1
74	4.2
75	4.3
76	4.3
77	4.3
78	4.1
79	3.9
80	3.7
81	3.5
82	3.4
83	3.4
84	3.5
85	3.7
86	3.9
87	3.8
88	3.5
89	3.0
90	2.3
91	1.5
92	.9
93	.4
94	.1
95	.0
96	.1
97	.3
98	.6
99	.9
100	1.2
101	1.5
102	1.7
103	1.8
104	1.9
105	2.0
106	2.1
107	2.3
108	2.5
109	2.7
110	3.1
111	3.4
112	3.6
113	3.8
114	3.9
115	4.0
116	4.1
117	4.3
118	4.6
119	5.1
120	5.8
121	6.6
122	7.6
123	8.8
124	10.0
125	11.3
126	12.3
127	12.8
128	12.4
129	11.4
130	10.2
131	9.0
132	7.9
133	6.8
134	5.8
135	4.9
136	4.2
137	3.5
138	3.0
139	2.6
140	2.3
141	2.2
142	2.3
143	2.4
144	2.6
145	2.9
146	3.1
147	3.2
148	3.4
149	3.4
150	3.4
151	3.4
152	3.4
153	3.4
154	3.3
155	3.3
156	3.1
157	3.0
158	2.7
159	2.5
160	2.3
161	2.1
162	1.9
163	1.7
164	1.6
165	1.4
166	1.3
167	1.2
168	1.1
169	.9
170	.8
171	.7
172	.6
173	.6
174	.5
175	.4
176	.4
177	.4
178	.3
179	.3
180	.3
181	.2
182	.2
183	.1
184	.1
185	.1
186	.2
187	.3
188	.4
189	.6
190	.7
191	.9
192	1.1
193	1.2
194	1.4
195	1.6
196	1.8
197	2.1
198	2.3
199	2.5
200	2.6
201	2.8
202	2.9
203	3.1
204	3.3
205	3.5
206	3.9
207	4.2
208	4.6
209	5.0
210	5.5
211	5.9
212	6.3
213	6.6
214	6.9
215	7.1
216	7.1
217	7.1
218	6.9
219	6.8
220	6.6
221	6.4
222	6.2
223	6.0
224	5.7
225	5.4
226	5.2
227	5.0
228	4.9
229	4.9
230	4.9
231	4.9
232	4.9
233	5.0
234	5.2
235	5.4
236	5.7
237	6.0
238	6.5
239	6.8
240	7.1
241	7.3
242	7.4
243	7.5
244	7.5
245	7.5
246	7.6
247	7.6
248	7.5
249	7.4
250	7.3
251	7.1
252	6.9
253	6.9
254	6.9
255	7.0
256	7.1
257	7.3
258	7.5
259	7.5
260	7.5
261	7.2
262	6.9
263	6.4
264	5.9
265	5.4
266	4.9
267	4.5
268	4.2
269	4.0
270	4.0
271	4.0
272	3.9
273	3.8
274	3.6
275	3.2
276	2.8
277	2.5
278	2.2
279	2.0
280	2.0
281	2.1
282	2.2
283	2.4
284	2.7
285	2.9
286	3.2
287	3.5
288	3.7
289	3.9
290	4.1
291	4.2
292	4.3
293	4.4
294	4.5
295	4.7
296	4.8
297	5.1
298	5.3
299	5.5
300	5.8
301	6.0
302	6.4
303	6.7
304	7.2
305	7.7
306	8.4
307	9.3
308	10.5
309	11.9
310	13.9
311	16.6
312	20.8
313	27.3
314	25.1
315	19.2
316	15.5
317	12.9
318	10.9
319	9.4
320	8.1
321	7.1
322	6.2
323	5.4
324	4.7
325	4.2
326	3.7
327	3.2
328	2.9
329	2.6
330	2.4
331	2.2
332	2.1
333	1.9
334	1.7
335	1.5
336	1.3
337	1.1
338	.9
339	.8
340	.7
341	.7
342	.6
343	.6
344	.5
345	.5
346	.5
347	.5
348	.5
349	.6
350	.7
351	.8
352	.9
353	1.0
354	1.2
355	1.3
356	1.4
357	1.5
358	1.5
359	1.5
VER_LOBE
0	1.3
1	1.2
2	1.2
3	1.2
4	1.4
5	1.8
6	2.2
7	2.7
8	3.3
9	3.9
10	4.3
11	4.7
12	5.3
13	6.0
14	6.8
15	7.4
16	7.9
17	8.8
18	10.5
19	12.6
20	13.6
21	13.0
22	12.2
23	12.2
24	12.7
25	13.3
26	13.7
27	14.3
28	15.4
29	17.2
30	19.2
31	20.0
32	20.1
33	20.5
34	21.3
35	21.0
36	19.4
37	18.1
38	17.7
39	18.2
40	19.7
41	22.6
42	24.5
43	21.0
44	17.4
45	15.4
46	14.5
47	14.1
48	13.4
49	12.5
50	11.6
51	11.1
52	10.7
53	10.4
54	10.1
55	9.9
56	10.0
57	10.3
58	10.7
59	11.2
60	11.8
61	12.5
62	13.3
63	14.2
64	14.8
65	15.4
66	16.1
67	16.9
68	18.0
69	19.2
70	20.6
71	22.5
72	25.1
73	28.7
74	32.5
75	35.0
76	36.5
77	39.6
78	46.0
79	46.3
80	43.3
81	42.5
82	44.2
83	46.3
84	37.4
85	33.2
86	32.8
87	32.8
88	28.7
89	25.4
90	24.7
91	26.4
92	30.5
93	36.4
94	42.9
95	51.7
96	36.9
97	33.2
98	33.2
99	34.7
100	35.6
101	36.9
102	41.4
103	52.6
104	44.0
105	37.7
106	32.8
107	28.3
108	24.7
109	22.2
110	20.7
111	19.5
112	18.1
113	16.4
114	14.7
115	13.6
116	12.9
117	12.3
118	11.3
119	10.3
120	9.7
121	9.5
122	9.7
123	9.9
124	9.8
125	9.6
126	9.7
127	9.9
128	10.3
129	10.6
130	11.0
131	11.5
132	12.0
133	12.4
134	12.9
135	13.6
136	14.5
137	15.3
138	15.7
139	16.2
140	16.7
141	17.2
142	17.8
143	18.3
144	18.5
145	18.6
146	19.3
147	21.1
148	23.2
149	23.2
150	21.8
151	20.8
152	20.1
153	20.2
154	22.4
155	28.7
156	23.6
157	17.3
158	14.1
159	12.3
160	10.9
161	9.7
162	8.7
163	8.0
164	7.3
165	6.6
166	5.9
167	5.3
168	4.7
169	4.0
170	3.2
171	2.5
172	1.9
173	1.4
174	.9
175	.4
176	.1
177	.0
178	.1
179	.1
180	.1
181	.2
182	.4
183	.5
184	.6
185	.8
186	.9
187	.9
188	.7
189	.6
190	.8
191	1.4
192	2.1
193	2.5
194	2.6
195	2.6
196	2.9
197	3.4
198	4.2
199	5.0
200	5.5
201	5.6
202	5.7
203	6.2
204	7.1
205	8.0
206	8.5
207	8.8
208	9.3
209	9.8
210	9.8
211	9.5
212	9.4
213	9.8
214	10.3
215	10.6
216	10.7
217	10.9
218	11.8
219	13.4
220	15.2
221	16.6
222	17.3
223	17.7
224	17.6
225	17.2
226	16.4
227	15.6
228	15.2
229	15.7
230	17.0
231	18.8
232	20.5
233	21.6
234	22.6
235	23.7
236	23.7
237	21.9
238	19.7
239	17.8
240	16.4
241	15.3
242	14.5
243	14.0
244	13.8
245	14.0
246	14.3
247	14.4
248	14.4
249	14.4
250	14.8
251	15.9
252	17.7
253	19.9
254	21.8
255	22.9
256	23.2
257	23.2
258	22.7
259	21.8
260	20.7
261	19.8
262	19.3
263	19.6
264	20.1
265	19.7
266	18.2
267	16.5
268	15.0
269	14.0
270	13.4
271	13.1
272	13.2
273	13.7
274	14.5
275	15.6
276	17.0
277	18.7
278	20.6
279	23.2
280	26.6
281	31.5
282	37.0
283	36.3
284	33.7
285	32.3
286	32.0
287	32.3
288	32.6
289	31.1
290	27.6
291	24.4
292	22.1
293	20.5
294	19.1
295	18.0
296	17.1
297	16.6
298	16.6
299	17.4
300	19.0
301	21.3
302	24.5
303	29.3
304	37.5
305	33.5
306	30.1
307	32.2
308	41.6
309	26.7
310	20.5
311	17.3
312	15.6
313	14.9
314	14.7
315	15.0
316	15.5
317	16.1
318	16.6
319	16.8
320	16.5
321	16.0
322	15.5
323	15.2
324	15.0
325	14.6
326	13.9
327	13.1
328	12.2
329	11.7
330	11.7
331	12.2
332	13.0
333	13.2
334	12.7
335	11.9
336	11.2
337	10.5
338	9.5
339	8.2
340	7.1
341	6.3
342	5.8
343	5.4
344	5.2
345	5.1
346	5.0
347	4.8
348	4.3
349	3.8
350	3.4
351	3.1
352	2.8
353	2.4
354	2.0
355	1.9
356	1.9
357	1.9
358	1.7
359	1.5
