VERSION 2.0
NAME VVSSP-360S-F, Tilt 0, Freq 5200
GAIN 2.9
HOR_LOBE
0	1.4
1	1.5
2	1.5
3	1.5
4	1.4
5	1.4
6	1.3
7	1.3
8	1.2
9	1.1
10	1.0
11	.9
12	.7
13	.5
14	.4
15	.3
16	.2
17	.1
18	.1
19	.1
20	.1
21	.1
22	.2
23	.2
24	.3
25	.5
26	.7
27	1.0
28	1.4
29	1.8
30	2.3
31	2.9
32	3.4
33	4.0
34	4.6
35	5.2
36	5.8
37	6.4
38	6.9
39	7.3
40	7.5
41	7.4
42	7.1
43	6.6
44	6.1
45	5.5
46	5.0
47	4.6
48	4.3
49	4.1
50	3.9
51	3.9
52	3.8
53	3.8
54	3.8
55	3.8
56	3.9
57	4.0
58	4.1
59	4.3
60	4.6
61	4.9
62	5.1
63	5.4
64	5.6
65	5.7
66	5.7
67	5.7
68	5.6
69	5.6
70	5.6
71	5.6
72	5.6
73	5.5
74	5.5
75	5.4
76	5.3
77	5.2
78	5.0
79	4.9
80	4.9
81	4.9
82	5.1
83	5.3
84	5.6
85	5.9
86	6.0
87	5.9
88	5.5
89	5.0
90	4.4
91	3.9
92	3.3
93	3.0
94	2.7
95	2.5
96	2.5
97	2.4
98	2.4
99	2.3
100	2.2
101	2.1
102	1.9
103	1.8
104	1.6
105	1.5
106	1.4
107	1.3
108	1.2
109	1.1
110	1.1
111	1.2
112	1.3
113	1.5
114	1.8
115	2.1
116	2.5
117	2.9
118	3.4
119	4.0
120	4.7
121	5.5
122	6.5
123	7.5
124	8.6
125	9.5
126	10.2
127	10.4
128	10.2
129	9.6
130	8.7
131	7.8
132	6.8
133	5.9
134	5.2
135	4.5
136	3.9
137	3.4
138	3.1
139	2.8
140	2.7
141	2.6
142	2.6
143	2.6
144	2.7
145	2.8
146	2.9
147	2.9
148	2.9
149	2.9
150	2.9
151	3.0
152	3.1
153	3.3
154	3.5
155	3.7
156	3.8
157	3.8
158	3.8
159	3.7
160	3.6
161	3.5
162	3.4
163	3.3
164	3.3
165	3.3
166	3.3
167	3.3
168	3.4
169	3.4
170	3.4
171	3.5
172	3.5
173	3.4
174	3.4
175	3.3
176	3.2
177	3.0
178	2.8
179	2.6
180	2.4
181	2.2
182	1.9
183	1.7
184	1.5
185	1.3
186	1.2
187	1.0
188	.9
189	.8
190	.7
191	.6
192	.6
193	.5
194	.5
195	.5
196	.4
197	.4
198	.4
199	.4
200	.4
201	.5
202	.6
203	.8
204	1.0
205	1.2
206	1.5
207	1.8
208	2.1
209	2.5
210	2.9
211	3.3
212	3.8
213	4.3
214	4.8
215	5.3
216	5.7
217	6.1
218	6.3
219	6.4
220	6.3
221	6.1
222	5.8
223	5.4
224	5.0
225	4.5
226	4.0
227	3.5
228	3.0
229	2.7
230	2.4
231	2.2
232	2.1
233	2.2
234	2.2
235	2.4
236	2.5
237	2.7
238	2.9
239	3.1
240	3.3
241	3.5
242	3.8
243	4.0
244	4.3
245	4.4
246	4.5
247	4.6
248	4.5
249	4.4
250	4.4
251	4.3
252	4.3
253	4.2
254	4.2
255	4.1
256	4.1
257	4.1
258	4.1
259	4.1
260	4.1
261	4.2
262	4.2
263	4.1
264	3.8
265	3.5
266	3.2
267	2.9
268	2.7
269	2.6
270	2.6
271	2.6
272	2.6
273	2.5
274	2.3
275	2.0
276	1.5
277	1.1
278	.8
279	.6
280	.5
281	.5
282	.6
283	.7
284	.9
285	1.0
286	1.0
287	1.1
288	1.0
289	1.0
290	1.0
291	1.0
292	1.1
293	1.2
294	1.3
295	1.4
296	1.5
297	1.7
298	1.8
299	2.0
300	2.3
301	2.6
302	3.1
303	3.6
304	4.3
305	5.1
306	6.1
307	7.1
308	8.4
309	9.8
310	11.3
311	12.8
312	13.9
313	13.9
314	12.8
315	11.3
316	9.8
317	8.3
318	7.1
319	5.9
320	4.9
321	4.0
322	3.3
323	2.6
324	2.1
325	1.7
326	1.4
327	1.2
328	1.1
329	.9
330	.8
331	.7
332	.7
333	.6
334	.5
335	.5
336	.5
337	.5
338	.4
339	.4
340	.3
341	.2
342	.2
343	.1
344	.0
345	.0
346	.0
347	.1
348	.1
349	.2
350	.2
351	.2
352	.3
353	.3
354	.4
355	.5
356	.7
357	.9
358	1.1
359	1.3
VER_LOBE
0	.2
1	.1
2	.0
3	.0
4	.2
5	.3
6	.5
7	.6
8	.7
9	.7
10	.8
11	1.2
12	1.7
13	2.1
14	2.4
15	2.7
16	3.2
17	4.0
18	4.9
19	5.5
20	5.9
21	6.3
22	6.9
23	7.8
24	9.3
25	11.3
26	13.5
27	15.2
28	16.9
29	19.4
30	22.9
31	27.0
32	30.6
33	34.7
34	36.0
35	29.3
36	24.5
37	21.2
38	18.9
39	17.4
40	16.2
41	15.2
42	14.1
43	13.2
44	12.5
45	12.1
46	12.1
47	12.4
48	12.9
49	13.2
50	12.8
51	12.0
52	11.3
53	10.8
54	10.3
55	10.0
56	9.9
57	10.2
58	11.0
59	11.5
60	11.4
61	11.1
62	11.2
63	11.9
64	12.6
65	12.6
66	12.1
67	11.8
68	11.9
69	11.9
70	11.4
71	10.9
72	10.8
73	11.2
74	12.0
75	12.9
76	13.6
77	14.5
78	15.8
79	17.6
80	19.3
81	20.7
82	22.2
83	24.4
84	26.7
85	26.8
86	25.8
87	26.9
88	31.6
89	30.1
90	26.3
91	27.0
92	34.5
93	32.5
94	26.1
95	25.1
96	26.3
97	26.1
98	24.5
99	23.8
100	23.8
101	23.0
102	21.1
103	19.3
104	18.2
105	17.6
106	16.9
107	16.0
108	15.3
109	15.3
110	15.9
111	16.6
112	16.9
113	16.7
114	16.7
115	16.8
116	16.6
117	15.9
118	15.2
119	14.8
120	14.4
121	14.0
122	13.8
123	14.2
124	14.8
125	14.9
126	14.1
127	13.1
128	12.4
129	11.7
130	10.9
131	10.1
132	9.7
133	9.8
134	10.2
135	10.7
136	11.1
137	11.5
138	11.9
139	12.4
140	12.8
141	13.3
142	14.2
143	15.7
144	17.9
145	20.6
146	22.9
147	23.9
148	24.3
149	24.6
150	23.8
151	21.7
152	19.4
153	17.5
154	16.2
155	15.3
156	15.0
157	14.8
158	14.4
159	13.4
160	11.7
161	10.0
162	8.5
163	7.5
164	6.7
165	5.7
166	4.7
167	3.8
168	3.3
169	3.3
170	3.4
171	3.2
172	2.7
173	2.2
174	1.8
175	1.5
176	1.4
177	1.6
178	1.8
179	1.8
180	1.5
181	1.3
182	1.3
183	1.4
184	1.6
185	1.6
186	1.4
187	1.3
188	1.3
189	1.5
190	1.9
191	2.3
192	2.5
193	2.5
194	2.5
195	2.6
196	2.8
197	3.0
198	3.6
199	4.5
200	5.7
201	6.9
202	7.7
203	8.1
204	8.6
205	9.5
206	10.8
207	12.1
208	12.9
209	13.1
210	13.5
211	14.6
212	16.9
213	19.9
214	20.7
215	18.9
216	17.6
217	17.5
218	18.0
219	18.9
220	19.7
221	20.2
222	20.3
223	20.2
224	19.6
225	18.5
226	17.5
227	16.8
228	16.5
229	16.5
230	16.5
231	16.3
232	15.8
233	15.5
234	15.5
235	15.5
236	15.4
237	15.2
238	15.4
239	16.3
240	18.0
241	20.4
242	22.4
243	22.6
244	21.7
245	21.1
246	21.3
247	22.3
248	24.3
249	27.0
250	29.7
251	30.6
252	29.1
253	26.9
254	25.0
255	23.5
256	22.1
257	20.9
258	20.0
259	19.5
260	19.4
261	19.8
262	20.5
263	21.2
264	21.9
265	22.5
266	23.3
267	24.2
268	25.1
269	25.7
270	26.0
271	26.2
272	26.3
273	26.0
274	25.1
275	23.6
276	21.5
277	19.7
278	18.4
279	17.8
280	17.9
281	18.4
282	18.8
283	18.6
284	17.9
285	17.3
286	17.3
287	18.4
288	20.6
289	23.5
290	25.9
291	27.2
292	28.6
293	30.4
294	28.9
295	25.6
296	23.2
297	22.0
298	21.4
299	21.3
300	21.6
301	22.1
302	22.8
303	23.5
304	23.4
305	22.0
306	20.1
307	18.5
308	17.2
309	16.2
310	15.2
311	14.3
312	13.9
313	13.9
314	14.2
315	14.8
316	15.5
317	16.5
318	17.3
319	17.7
320	17.8
321	18.0
322	18.5
323	19.1
324	19.7
325	19.9
326	19.9
327	19.2
328	17.4
329	15.4
330	13.8
331	13.0
332	12.4
333	11.5
334	10.3
335	9.3
336	8.8
337	8.5
338	7.7
339	6.3
340	5.0
341	3.9
342	3.2
343	2.7
344	2.4
345	2.2
346	2.0
347	1.8
348	1.8
349	1.9
350	1.8
351	1.4
352	.9
353	.7
354	.7
355	.8
356	.7
357	.4
358	.2
359	.2
