VERSION 2.0
NAME VVSSP-360S-F, Tilt 7, Freq 1900
GAIN 6.7
HOR_LOBE
0	2.6
1	2.5
2	2.4
3	2.2
4	2.1
5	2.0
6	1.9
7	1.9
8	1.8
9	1.7
10	1.7
11	1.6
12	1.5
13	1.5
14	1.5
15	1.4
16	1.4
17	1.4
18	1.4
19	1.3
20	1.3
21	1.3
22	1.3
23	1.4
24	1.4
25	1.4
26	1.4
27	1.5
28	1.5
29	1.6
30	1.6
31	1.7
32	1.7
33	1.8
34	1.8
35	1.9
36	2.0
37	2.1
38	2.2
39	2.2
40	2.3
41	2.4
42	2.5
43	2.6
44	2.7
45	2.7
46	2.8
47	2.9
48	2.9
49	3.0
50	3.1
51	3.1
52	3.2
53	3.2
54	3.3
55	3.3
56	3.3
57	3.4
58	3.4
59	3.4
60	3.4
61	3.4
62	3.5
63	3.5
64	3.5
65	3.5
66	3.5
67	3.5
68	3.4
69	3.4
70	3.3
71	3.3
72	3.2
73	3.1
74	3.0
75	2.9
76	2.8
77	2.6
78	2.5
79	2.4
80	2.3
81	2.1
82	2.0
83	1.9
84	1.7
85	1.6
86	1.4
87	1.3
88	1.1
89	1.0
90	.9
91	.7
92	.6
93	.5
94	.4
95	.3
96	.2
97	.1
98	.1
99	.0
100	.1
101	.1
102	.2
103	.2
104	.2
105	.3
106	.3
107	.3
108	.3
109	.3
110	.3
111	.3
112	.2
113	.2
114	.2
115	.1
116	.1
117	.0
118	.0
119	.1
120	.2
121	.2
122	.3
123	.4
124	.4
125	.5
126	.6
127	.7
128	.8
129	.8
130	.9
131	1.0
132	1.1
133	1.1
134	1.2
135	1.3
136	1.3
137	1.4
138	1.5
139	1.5
140	1.6
141	1.7
142	1.7
143	1.8
144	1.9
145	2.0
146	2.0
147	2.1
148	2.1
149	2.2
150	2.2
151	2.3
152	2.3
153	2.3
154	2.4
155	2.4
156	2.4
157	2.4
158	2.4
159	2.4
160	2.4
161	2.4
162	2.4
163	2.4
164	2.3
165	2.3
166	2.3
167	2.2
168	2.2
169	2.1
170	2.1
171	2.0
172	2.0
173	2.0
174	1.9
175	1.9
176	1.8
177	1.7
178	1.7
179	1.6
180	1.6
181	1.5
182	1.5
183	1.4
184	1.4
185	1.4
186	1.3
187	1.3
188	1.2
189	1.2
190	1.1
191	1.1
192	1.0
193	1.0
194	.9
195	.9
196	.8
197	.8
198	.7
199	.7
200	.6
201	.5
202	.5
203	.4
204	.3
205	.3
206	.2
207	.1
208	.1
209	.0
210	.0
211	.1
212	.1
213	.2
214	.2
215	.3
216	.3
217	.4
218	.4
219	.4
220	.4
221	.4
222	.4
223	.4
224	.4
225	.4
226	.4
227	.3
228	.3
229	.2
230	.2
231	.1
232	.0
233	.0
234	.1
235	.2
236	.3
237	.4
238	.5
239	.6
240	.7
241	.8
242	.9
243	1.0
244	1.1
245	1.2
246	1.3
247	1.3
248	1.4
249	1.5
250	1.5
251	1.6
252	1.6
253	1.7
254	1.7
255	1.7
256	1.7
257	1.7
258	1.7
259	1.7
260	1.7
261	1.7
262	1.6
263	1.6
264	1.5
265	1.5
266	1.4
267	1.4
268	1.3
269	1.3
270	1.3
271	1.2
272	1.2
273	1.2
274	1.1
275	1.1
276	1.1
277	1.1
278	1.1
279	1.1
280	1.1
281	1.1
282	1.1
283	1.1
284	1.1
285	1.2
286	1.2
287	1.2
288	1.2
289	1.2
290	1.2
291	1.2
292	1.2
293	1.3
294	1.3
295	1.3
296	1.3
297	1.3
298	1.3
299	1.2
300	1.2
301	1.2
302	1.2
303	1.1
304	1.1
305	1.1
306	1.1
307	1.1
308	1.0
309	1.0
310	1.0
311	1.0
312	1.0
313	1.0
314	1.0
315	1.1
316	1.1
317	1.1
318	1.2
319	1.2
320	1.3
321	1.3
322	1.4
323	1.5
324	1.5
325	1.6
326	1.7
327	1.8
328	1.9
329	2.0
330	2.1
331	2.2
332	2.3
333	2.4
334	2.5
335	2.6
336	2.7
337	2.8
338	2.9
339	3.0
340	3.0
341	3.1
342	3.2
343	3.3
344	3.3
345	3.4
346	3.4
347	3.4
348	3.4
349	3.4
350	3.3
351	3.3
352	3.2
353	3.2
354	3.1
355	3.0
356	2.9
357	2.9
358	2.8
359	2.7
VER_LOBE
0	1.9
1	1.7
2	1.5
3	1.3
4	1.2
5	1.1
6	1.1
7	1.1
8	1.1
9	1.2
10	1.4
11	1.6
12	1.9
13	2.4
14	2.8
15	3.4
16	4.0
17	4.6
18	5.3
19	6.1
20	6.9
21	7.7
22	8.7
23	9.7
24	10.9
25	12.1
26	13.4
27	14.6
28	15.7
29	16.4
30	16.7
31	16.7
32	16.4
33	16.0
34	15.6
35	15.2
36	14.8
37	14.5
38	14.2
39	14.0
40	13.9
41	13.8
42	13.7
43	13.6
44	13.6
45	13.7
46	13.8
47	14.0
48	14.3
49	14.6
50	15.0
51	15.4
52	15.7
53	16.0
54	16.3
55	16.5
56	16.7
57	16.8
58	17.0
59	17.0
60	17.1
61	17.1
62	17.0
63	17.0
64	17.0
65	17.0
66	17.1
67	17.3
68	17.6
69	18.1
70	18.7
71	19.5
72	20.4
73	21.5
74	22.6
75	23.5
76	24.2
77	24.7
78	25.2
79	25.7
80	26.4
81	27.3
82	28.6
83	30.5
84	33.2
85	35.1
86	33.1
87	29.9
88	27.5
89	26.2
90	25.7
91	26.1
92	27.3
93	29.5
94	32.8
95	35.5
96	34.4
97	32.1
98	30.6
99	30.0
100	30.1
101	30.6
102	31.5
103	32.3
104	32.9
105	33.0
106	32.4
107	31.2
108	29.9
109	28.6
110	27.4
111	26.4
112	25.6
113	24.8
114	24.1
115	23.4
116	22.9
117	22.6
118	22.4
119	22.5
120	22.7
121	23.1
122	23.4
123	23.5
124	23.3
125	22.7
126	21.8
127	20.9
128	20.1
129	19.5
130	19.0
131	18.8
132	18.8
133	18.8
134	18.9
135	19.0
136	18.8
137	18.5
138	18.1
139	17.6
140	17.1
141	16.7
142	16.4
143	16.2
144	16.0
145	15.6
146	15.0
147	14.1
148	13.1
149	12.1
150	11.0
151	10.0
152	9.0
153	8.0
154	7.1
155	6.2
156	5.4
157	4.6
158	3.9
159	3.2
160	2.7
161	2.2
162	1.7
163	1.4
164	1.1
165	.8
166	.6
167	.4
168	.2
169	.1
170	.0
171	.0
172	.0
173	.0
174	.1
175	.3
176	.4
177	.7
178	.9
179	1.3
180	1.6
181	2.0
182	2.5
183	3.0
184	3.6
185	4.2
186	5.0
187	5.9
188	6.8
189	7.9
190	9.0
191	10.2
192	11.4
193	12.6
194	13.7
195	14.8
196	15.7
197	16.5
198	17.1
199	17.5
200	17.7
201	17.6
202	17.5
203	17.4
204	17.3
205	17.4
206	17.7
207	18.1
208	18.8
209	19.7
210	20.7
211	21.8
212	23.0
213	24.0
214	24.6
215	24.7
216	24.4
217	23.7
218	22.8
219	21.8
220	20.8
221	19.9
222	19.0
223	18.4
224	17.9
225	17.6
226	17.5
227	17.5
228	17.6
229	17.7
230	17.8
231	17.9
232	17.8
233	17.7
234	17.5
235	17.4
236	17.2
237	17.0
238	16.9
239	16.8
240	16.6
241	16.5
242	16.3
243	16.2
244	16.1
245	15.9
246	15.7
247	15.3
248	14.8
249	14.3
250	13.8
251	13.5
252	13.4
253	13.3
254	13.4
255	13.5
256	13.8
257	14.1
258	14.3
259	14.5
260	14.4
261	14.1
262	13.7
263	13.4
264	13.2
265	13.1
266	13.2
267	13.4
268	13.7
269	14.0
270	14.3
271	14.5
272	14.7
273	14.7
274	14.8
275	14.9
276	15.1
277	15.4
278	15.9
279	16.5
280	17.1
281	17.6
282	17.8
283	17.8
284	17.6
285	17.4
286	17.2
287	17.2
288	17.3
289	17.6
290	18.1
291	18.7
292	19.5
293	20.2
294	20.7
295	20.8
296	20.7
297	20.4
298	20.0
299	19.6
300	19.3
301	19.1
302	18.9
303	18.9
304	18.9
305	19.0
306	19.0
307	19.0
308	18.9
309	18.9
310	18.9
311	19.0
312	19.2
313	19.7
314	20.5
315	21.5
316	22.7
317	23.8
318	24.5
319	24.3
320	23.5
321	22.4
322	21.4
323	20.6
324	20.1
325	19.7
326	19.4
327	19.1
328	18.8
329	18.3
330	17.7
331	17.0
332	16.1
333	15.3
334	14.5
335	13.9
336	13.4
337	13.1
338	13.0
339	13.1
340	13.3
341	13.5
342	13.7
343	13.5
344	13.1
345	12.3
346	11.3
347	10.2
348	9.2
349	8.3
350	7.5
351	6.7
352	6.0
353	5.3
354	4.7
355	4.1
356	3.5
357	3.0
358	2.6
359	2.2
