VERSION 2.0
NAME VVSSP-360S-F, Tilt 7, Freq 1710
GAIN 5.6
HOR_LOBE
0	.8
1	.6
2	.5
3	.3
4	.2
5	.0
6	.1
7	.2
8	.3
9	.5
10	.6
11	.7
12	.8
13	.9
14	.9
15	1.0
16	1.1
17	1.1
18	1.2
19	1.2
20	1.3
21	1.3
22	1.3
23	1.3
24	1.3
25	1.3
26	1.3
27	1.3
28	1.3
29	1.3
30	1.3
31	1.3
32	1.2
33	1.2
34	1.1
35	1.1
36	1.0
37	.9
38	.9
39	.8
40	.7
41	.6
42	.5
43	.4
44	.4
45	.3
46	.2
47	.1
48	.0
49	.1
50	.2
51	.3
52	.5
53	.6
54	.7
55	.8
56	.9
57	1.0
58	1.1
59	1.2
60	1.3
61	1.4
62	1.4
63	1.5
64	1.6
65	1.7
66	1.7
67	1.8
68	1.8
69	1.9
70	1.9
71	1.9
72	1.9
73	1.9
74	1.9
75	1.9
76	1.9
77	1.9
78	1.8
79	1.7
80	1.7
81	1.6
82	1.5
83	1.4
84	1.3
85	1.2
86	1.1
87	1.0
88	.9
89	.8
90	.7
91	.6
92	.5
93	.4
94	.3
95	.2
96	.1
97	.1
98	.0
99	.1
100	.2
101	.2
102	.3
103	.3
104	.4
105	.4
106	.5
107	.5
108	.5
109	.5
110	.5
111	.5
112	.5
113	.5
114	.5
115	.5
116	.5
117	.4
118	.4
119	.4
120	.3
121	.3
122	.2
123	.2
124	.1
125	.0
126	.1
127	.1
128	.2
129	.3
130	.4
131	.5
132	.6
133	.7
134	.8
135	.9
136	1.1
137	1.2
138	1.3
139	1.4
140	1.5
141	1.7
142	1.8
143	1.9
144	2.1
145	2.2
146	2.3
147	2.5
148	2.6
149	2.7
150	2.8
151	2.9
152	3.0
153	3.0
154	3.1
155	3.1
156	3.2
157	3.2
158	3.2
159	3.1
160	3.1
161	3.0
162	3.0
163	2.9
164	2.9
165	2.8
166	2.7
167	2.6
168	2.5
169	2.4
170	2.3
171	2.2
172	2.2
173	2.1
174	2.0
175	1.9
176	1.8
177	1.7
178	1.6
179	1.5
180	1.4
181	1.3
182	1.2
183	1.1
184	1.0
185	1.0
186	.9
187	.8
188	.7
189	.7
190	.6
191	.5
192	.4
193	.4
194	.3
195	.2
196	.2
197	.1
198	.1
199	.0
200	.1
201	.1
202	.2
203	.2
204	.3
205	.3
206	.4
207	.4
208	.5
209	.5
210	.5
211	.6
212	.6
213	.6
214	.6
215	.7
216	.7
217	.7
218	.7
219	.8
220	.8
221	.8
222	.8
223	.8
224	.8
225	.8
226	.7
227	.7
228	.7
229	.7
230	.6
231	.6
232	.5
233	.5
234	.4
235	.4
236	.3
237	.3
238	.2
239	.1
240	.1
241	.0
242	.1
243	.1
244	.2
245	.3
246	.3
247	.4
248	.4
249	.5
250	.6
251	.6
252	.6
253	.7
254	.7
255	.7
256	.7
257	.7
258	.7
259	.7
260	.7
261	.7
262	.7
263	.7
264	.7
265	.7
266	.7
267	.7
268	.7
269	.6
270	.6
271	.6
272	.6
273	.6
274	.6
275	.6
276	.6
277	.6
278	.6
279	.6
280	.6
281	.6
282	.6
283	.6
284	.6
285	.6
286	.6
287	.6
288	.6
289	.6
290	.6
291	.6
292	.6
293	.6
294	.5
295	.5
296	.5
297	.5
298	.5
299	.5
300	.5
301	.4
302	.4
303	.4
304	.4
305	.4
306	.4
307	.4
308	.3
309	.3
310	.3
311	.3
312	.4
313	.4
314	.4
315	.4
316	.5
317	.5
318	.6
319	.6
320	.7
321	.8
322	.8
323	.9
324	1.0
325	1.1
326	1.2
327	1.3
328	1.4
329	1.5
330	1.6
331	1.7
332	1.9
333	2.0
334	2.1
335	2.1
336	2.2
337	2.3
338	2.4
339	2.4
340	2.5
341	2.5
342	2.5
343	2.5
344	2.5
345	2.5
346	2.4
347	2.3
348	2.3
349	2.2
350	2.1
351	2.0
352	1.9
353	1.8
354	1.7
355	1.5
356	1.4
357	1.2
358	1.1
359	.9
VER_LOBE
0	1.5
1	1.2
2	1.0
3	.9
4	.7
5	.7
6	.6
7	.6
8	.6
9	.6
10	.7
11	.8
12	1.0
13	1.2
14	1.4
15	1.7
16	2.1
17	2.5
18	2.9
19	3.4
20	4.0
21	4.6
22	5.3
23	6.0
24	6.9
25	7.9
26	8.9
27	10.1
28	11.3
29	12.6
30	13.8
31	14.9
32	15.7
33	16.2
34	16.3
35	16.2
36	15.9
37	15.4
38	14.9
39	14.4
40	13.9
41	13.5
42	13.2
43	13.1
44	13.0
45	13.1
46	13.3
47	13.5
48	13.7
49	13.9
50	14.1
51	14.3
52	14.6
53	15.0
54	15.4
55	15.9
56	16.4
57	17.0
58	17.3
59	17.4
60	17.1
61	16.6
62	16.0
63	15.5
64	15.1
65	15.0
66	15.0
67	15.2
68	15.5
69	15.8
70	16.2
71	16.6
72	17.0
73	17.3
74	17.6
75	17.9
76	18.2
77	18.7
78	19.4
79	20.5
80	22.0
81	23.8
82	25.6
83	26.2
84	25.2
85	23.5
86	22.0
87	20.8
88	20.0
89	19.5
90	19.4
91	19.6
92	20.0
93	20.4
94	20.7
95	20.5
96	19.8
97	18.9
98	17.9
99	17.0
100	16.3
101	15.8
102	15.3
103	14.9
104	14.6
105	14.1
106	13.6
107	13.1
108	12.5
109	11.9
110	11.5
111	11.1
112	11.0
113	11.0
114	11.1
115	11.5
116	12.0
117	12.6
118	13.2
119	13.7
120	13.8
121	13.5
122	13.0
123	12.3
124	11.8
125	11.3
126	11.0
127	10.9
128	10.9
129	11.0
130	11.1
131	11.2
132	11.2
133	11.1
134	10.9
135	10.7
136	10.5
137	10.4
138	10.5
139	10.7
140	10.9
141	11.2
142	11.5
143	11.6
144	11.6
145	11.3
146	10.9
147	10.5
148	10.1
149	9.8
150	9.6
151	9.3
152	9.0
153	8.6
154	8.1
155	7.4
156	6.8
157	6.1
158	5.5
159	5.0
160	4.5
161	4.1
162	3.6
163	3.2
164	2.8
165	2.3
166	1.9
167	1.4
168	1.0
169	.7
170	.4
171	.1
172	.1
173	.2
174	.3
175	.4
176	.4
177	.4
178	.4
179	.3
180	.2
181	.1
182	.1
183	.3
184	.5
185	.8
186	1.2
187	1.5
188	1.9
189	2.4
190	2.9
191	3.5
192	4.1
193	4.7
194	5.5
195	6.3
196	7.1
197	8.0
198	8.9
199	9.7
200	10.3
201	10.8
202	11.0
203	11.1
204	11.1
205	10.9
206	10.7
207	10.5
208	10.3
209	10.1
210	10.0
211	9.9
212	9.9
213	10.0
214	10.2
215	10.5
216	10.7
217	11.0
218	11.2
219	11.4
220	11.4
221	11.4
222	11.3
223	11.3
224	11.4
225	11.6
226	12.0
227	12.5
228	13.2
229	13.8
230	14.5
231	15.0
232	15.2
233	15.3
234	15.1
235	14.9
236	14.7
237	14.7
238	14.7
239	14.9
240	15.1
241	15.4
242	15.6
243	15.7
244	15.7
245	15.3
246	14.9
247	14.3
248	13.8
249	13.4
250	13.1
251	13.1
252	13.2
253	13.5
254	14.0
255	14.6
256	15.2
257	15.8
258	16.2
259	16.3
260	16.0
261	15.5
262	15.1
263	14.7
264	14.5
265	14.3
266	14.3
267	14.3
268	14.4
269	14.7
270	15.2
271	16.0
272	17.3
273	19.1
274	21.0
275	22.2
276	21.7
277	20.4
278	19.4
279	18.9
280	18.8
281	19.0
282	19.3
283	19.4
284	19.2
285	18.7
286	18.2
287	17.5
288	16.8
289	16.0
290	15.2
291	14.4
292	13.8
293	13.2
294	12.7
295	12.3
296	12.0
297	11.7
298	11.4
299	11.1
300	10.9
301	10.8
302	10.7
303	10.6
304	10.6
305	10.6
306	10.6
307	10.5
308	10.4
309	10.3
310	10.1
311	10.0
312	9.9
313	9.9
314	9.9
315	10.0
316	10.1
317	10.4
318	10.6
319	10.9
320	11.1
321	11.4
322	11.7
323	11.9
324	12.1
325	12.3
326	12.5
327	12.8
328	13.1
329	13.5
330	14.1
331	14.8
332	15.6
333	16.5
334	17.2
335	17.7
336	18.0
337	17.9
338	17.6
339	17.2
340	16.7
341	16.0
342	15.3
343	14.3
344	13.2
345	12.1
346	10.9
347	9.7
348	8.7
349	7.7
350	6.8
351	6.0
352	5.3
353	4.6
354	4.0
355	3.5
356	3.0
357	2.6
358	2.2
359	1.8
