VERSION 2.0
NAME VVSSP-360S-F, Tilt 0, Freq 5475
GAIN 4.9
HOR_LOBE
0	5.5
1	5.5
2	5.4
3	5.2
4	5.0
5	4.8
6	4.7
7	4.6
8	4.6
9	4.6
10	4.5
11	4.4
12	4.3
13	4.2
14	4.1
15	4.2
16	4.3
17	4.4
18	4.5
19	4.6
20	4.6
21	4.6
22	4.5
23	4.6
24	4.6
25	4.8
26	5.0
27	5.2
28	5.4
29	5.6
30	5.8
31	6.2
32	6.7
33	7.3
34	7.9
35	8.6
36	9.1
37	9.4
38	9.5
39	9.4
40	9.2
41	9.0
42	8.6
43	8.3
44	7.9
45	7.5
46	7.1
47	6.8
48	6.4
49	6.0
50	5.8
51	5.6
52	5.5
53	5.5
54	5.6
55	5.8
56	6.0
57	6.2
58	6.4
59	6.5
60	6.5
61	6.6
62	6.8
63	7.0
64	7.3
65	7.5
66	7.6
67	7.6
68	7.4
69	7.2
70	7.0
71	6.9
72	6.9
73	7.0
74	7.0
75	7.1
76	7.0
77	6.8
78	6.6
79	6.3
80	6.2
81	6.1
82	6.0
83	6.1
84	6.1
85	6.1
86	5.9
87	5.6
88	5.0
89	4.4
90	3.8
91	3.3
92	2.8
93	2.3
94	2.0
95	1.7
96	1.5
97	1.4
98	1.4
99	1.5
100	1.7
101	1.8
102	1.9
103	1.8
104	1.7
105	1.6
106	1.5
107	1.5
108	1.6
109	1.8
110	2.0
111	2.2
112	2.4
113	2.5
114	2.6
115	2.8
116	3.0
117	3.2
118	3.5
119	3.9
120	4.4
121	4.9
122	5.5
123	6.1
124	6.9
125	7.8
126	8.8
127	9.8
128	10.8
129	11.8
130	12.6
131	13.1
132	13.1
133	12.6
134	11.7
135	10.6
136	9.7
137	8.9
138	8.3
139	7.8
140	7.5
141	7.4
142	7.3
143	7.4
144	7.5
145	7.7
146	8.0
147	8.3
148	8.5
149	8.6
150	8.6
151	8.5
152	8.4
153	8.3
154	8.2
155	8.2
156	8.0
157	7.9
158	7.7
159	7.5
160	7.4
161	7.3
162	7.3
163	7.4
164	7.5
165	7.7
166	7.9
167	8.1
168	8.4
169	8.5
170	8.7
171	8.8
172	8.9
173	8.8
174	8.7
175	8.5
176	8.1
177	7.7
178	7.3
179	6.8
180	6.3
181	5.8
182	5.4
183	5.1
184	4.9
185	4.7
186	4.6
187	4.6
188	4.6
189	4.6
190	4.6
191	4.6
192	4.6
193	4.7
194	4.8
195	5.1
196	5.4
197	5.7
198	6.0
199	6.1
200	6.2
201	6.3
202	6.3
203	6.4
204	6.5
205	6.7
206	6.9
207	7.2
208	7.5
209	7.8
210	8.1
211	8.6
212	9.3
213	10.3
214	11.5
215	13.0
216	14.6
217	15.9
218	16.6
219	16.5
220	15.6
221	14.3
222	12.7
223	11.1
224	9.7
225	8.6
226	7.6
227	6.9
228	6.4
229	6.0
230	5.7
231	5.4
232	5.2
233	5.0
234	4.9
235	4.8
236	4.8
237	4.8
238	4.8
239	4.7
240	4.6
241	4.5
242	4.4
243	4.3
244	4.1
245	4.0
246	4.0
247	3.9
248	3.9
249	3.9
250	3.9
251	3.9
252	4.0
253	4.1
254	4.2
255	4.4
256	4.7
257	5.0
258	5.2
259	5.3
260	5.3
261	5.0
262	4.6
263	4.1
264	3.6
265	3.2
266	2.8
267	2.5
268	2.4
269	2.3
270	2.3
271	2.3
272	2.3
273	2.2
274	2.0
275	1.8
276	1.4
277	1.0
278	.7
279	.4
280	.1
281	.0
282	.0
283	.1
284	.3
285	.5
286	.7
287	.9
288	1.1
289	1.2
290	1.4
291	1.6
292	1.8
293	2.1
294	2.3
295	2.5
296	2.7
297	2.8
298	2.9
299	3.0
300	3.2
301	3.4
302	3.8
303	4.2
304	4.6
305	5.1
306	5.6
307	6.2
308	7.0
309	8.0
310	9.2
311	10.5
312	12.0
313	13.3
314	14.1
315	14.3
316	14.0
317	13.1
318	12.0
319	10.7
320	9.5
321	8.5
322	7.6
323	6.9
324	6.4
325	6.0
326	5.7
327	5.4
328	5.3
329	5.2
330	5.1
331	5.1
332	5.1
333	5.0
334	4.9
335	4.7
336	4.6
337	4.4
338	4.3
339	4.1
340	4.0
341	3.9
342	3.7
343	3.6
344	3.4
345	3.3
346	3.3
347	3.3
348	3.5
349	3.7
350	3.9
351	4.1
352	4.3
353	4.5
354	4.6
355	4.8
356	4.9
357	5.1
358	5.3
359	5.5
VER_LOBE
0	.7
1	1.4
2	1.8
3	1.6
4	1.1
5	1.1
6	1.4
7	2.1
8	2.7
9	3.1
10	2.9
11	2.7
12	2.8
13	3.5
14	4.7
15	6.0
16	7.2
17	8.2
18	9.3
19	10.5
20	12.1
21	14.0
22	15.5
23	15.9
24	16.5
25	18.9
26	23.8
27	27.3
28	24.3
29	23.3
30	23.8
31	23.7
32	21.6
33	18.7
34	16.7
35	15.9
36	15.9
37	15.8
38	15.0
39	14.3
40	14.5
41	15.3
42	16.0
43	16.0
44	15.9
45	15.5
46	14.7
47	13.7
48	13.0
49	12.8
50	13.0
51	13.6
52	14.9
53	16.7
54	18.4
55	18.4
56	17.1
57	15.7
58	14.4
59	13.1
60	12.1
61	11.6
62	11.6
63	12.0
64	12.3
65	12.6
66	12.8
67	13.2
68	13.7
69	14.1
70	13.9
71	13.3
72	13.0
73	13.4
74	14.4
75	15.5
76	16.4
77	17.0
78	17.9
79	19.1
80	20.6
81	22.2
82	24.2
83	26.3
84	26.7
85	26.0
86	26.0
87	26.8
88	26.1
89	24.2
90	23.6
91	23.4
92	21.7
93	20.2
94	20.8
95	23.7
96	28.2
97	29.1
98	26.1
99	23.6
100	21.8
101	20.2
102	18.6
103	17.5
104	17.1
105	17.2
106	17.3
107	17.4
108	17.5
109	17.7
110	18.1
111	17.8
112	16.8
113	15.7
114	14.9
115	14.6
116	14.8
117	15.4
118	16.0
119	16.6
120	17.2
121	17.7
122	17.3
123	15.6
124	13.5
125	11.9
126	10.8
127	10.1
128	9.5
129	9.3
130	9.6
131	10.4
132	11.6
133	12.4
134	12.1
135	11.4
136	10.9
137	10.9
138	11.6
139	12.7
140	14.1
141	15.2
142	15.2
143	14.7
144	14.6
145	15.4
146	17.3
147	20.0
148	22.9
149	25.3
150	25.4
151	22.9
152	19.8
153	17.1
154	14.7
155	12.8
156	11.3
157	10.4
158	10.0
159	10.2
160	10.6
161	10.2
162	8.8
163	7.5
164	6.7
165	6.4
166	6.7
167	7.2
168	7.4
169	6.8
170	5.7
171	4.9
172	4.8
173	4.9
174	4.6
175	3.9
176	3.5
177	3.4
178	3.1
179	2.5
180	2.0
181	1.8
182	2.0
183	2.0
184	1.9
185	1.6
186	1.4
187	1.4
188	1.9
189	2.8
190	3.7
191	4.6
192	5.6
193	7.0
194	8.1
195	8.2
196	7.8
197	8.0
198	8.8
199	9.8
200	10.6
201	11.6
202	12.9
203	13.8
204	13.0
205	11.6
206	10.7
207	10.8
208	11.7
209	13.2
210	14.9
211	15.7
212	14.7
213	13.2
214	12.3
215	12.4
216	13.8
217	17.7
218	30.0
219	22.6
220	16.5
221	14.8
222	15.4
223	17.7
224	21.3
225	23.7
226	22.3
227	20.3
228	19.8
229	21.8
230	29.6
231	29.8
232	20.5
233	17.2
234	16.2
235	17.1
236	19.4
237	23.0
238	24.2
239	21.7
240	19.4
241	18.3
242	18.3
243	19.2
244	20.9
245	22.3
246	22.5
247	21.6
248	20.6
249	19.7
250	18.7
251	16.7
252	14.0
253	11.6
254	9.8
255	8.9
256	8.6
257	8.7
258	9.0
259	9.1
260	9.3
261	9.7
262	10.8
263	12.6
264	15.2
265	17.8
266	19.3
267	19.6
268	19.6
269	19.4
270	18.8
271	17.8
272	17.2
273	17.1
274	17.7
275	18.7
276	19.6
277	19.8
278	19.1
279	17.8
280	16.1
281	14.2
282	12.6
283	11.3
284	10.6
285	10.4
286	10.6
287	11.0
288	11.6
289	12.2
290	13.1
291	14.2
292	15.8
293	17.7
294	19.4
295	19.9
296	18.6
297	16.5
298	14.9
299	14.0
300	13.8
301	14.2
302	15.5
303	17.9
304	23.1
305	31.9
306	21.7
307	17.5
308	16.1
309	16.4
310	17.5
311	18.7
312	19.6
313	19.9
314	19.1
315	17.9
316	17.6
317	19.1
318	23.6
319	28.2
320	23.5
321	20.8
322	19.9
323	19.8
324	20.4
325	21.9
326	24.4
327	24.4
328	19.9
329	16.3
330	14.2
331	13.6
332	14.1
333	15.1
334	15.3
335	13.8
336	11.7
337	10.0
338	9.1
339	9.4
340	10.3
341	10.1
342	8.1
343	6.2
344	5.3
345	5.3
346	5.4
347	5.1
348	4.0
349	2.8
350	1.7
351	1.1
352	.8
353	.9
354	1.0
355	1.0
356	.7
357	.2
358	.0
359	.1
