VERSION 2.0
NAME VVSSP-360S-F, Tilt 0, Freq 5300
GAIN 3.8
HOR_LOBE
0	3.3
1	3.4
2	3.5
3	3.6
4	3.6
5	3.7
6	3.7
7	3.7
8	3.8
9	3.9
10	4.1
11	4.2
12	4.3
13	4.4
14	4.4
15	4.5
16	4.7
17	4.9
18	5.2
19	5.6
20	6.1
21	6.5
22	6.8
23	7.1
24	7.4
25	7.7
26	7.9
27	8.1
28	8.4
29	8.6
30	8.9
31	9.2
32	9.6
33	10.0
34	10.5
35	11.0
36	11.5
37	11.7
38	11.8
39	11.6
40	11.3
41	10.8
42	10.1
43	9.3
44	8.5
45	7.8
46	7.1
47	6.6
48	6.1
49	5.7
50	5.4
51	5.1
52	4.8
53	4.7
54	4.6
55	4.5
56	4.5
57	4.5
58	4.5
59	4.5
60	4.5
61	4.6
62	4.6
63	4.8
64	4.9
65	4.9
66	4.9
67	4.7
68	4.5
69	4.3
70	4.2
71	4.1
72	4.0
73	3.8
74	3.7
75	3.4
76	3.1
77	2.8
78	2.5
79	2.2
80	2.0
81	2.0
82	2.1
83	2.2
84	2.4
85	2.5
86	2.6
87	2.4
88	2.1
89	1.7
90	1.2
91	.8
92	.4
93	.1
94	.0
95	.0
96	.1
97	.3
98	.6
99	.9
100	1.2
101	1.5
102	1.7
103	1.7
104	1.7
105	1.6
106	1.6
107	1.7
108	1.8
109	2.0
110	2.3
111	2.6
112	2.9
113	3.1
114	3.3
115	3.5
116	3.8
117	4.1
118	4.6
119	5.1
120	5.7
121	6.4
122	7.2
123	8.1
124	9.1
125	10.2
126	11.4
127	12.6
128	13.5
129	13.5
130	12.7
131	11.4
132	10.0
133	8.7
134	7.6
135	6.7
136	6.1
137	5.5
138	5.1
139	4.7
140	4.4
141	4.2
142	4.1
143	4.0
144	4.0
145	4.1
146	4.2
147	4.3
148	4.5
149	4.7
150	5.0
151	5.3
152	5.5
153	5.8
154	5.9
155	5.9
156	5.8
157	5.6
158	5.4
159	5.2
160	5.2
161	5.1
162	5.1
163	5.0
164	4.9
165	4.6
166	4.4
167	4.1
168	3.9
169	3.7
170	3.6
171	3.5
172	3.4
173	3.3
174	3.1
175	3.0
176	2.8
177	2.6
178	2.5
179	2.4
180	2.3
181	2.2
182	2.1
183	2.1
184	2.0
185	2.0
186	2.0
187	2.0
188	2.0
189	2.1
190	2.2
191	2.3
192	2.4
193	2.6
194	2.8
195	3.0
196	3.2
197	3.5
198	3.7
199	4.0
200	4.3
201	4.6
202	4.9
203	5.1
204	5.3
205	5.6
206	5.9
207	6.3
208	6.8
209	7.5
210	8.2
211	9.0
212	9.9
213	10.9
214	12.0
215	13.2
216	14.5
217	15.6
218	15.9
219	15.2
220	13.8
221	12.2
222	10.6
223	9.2
224	7.9
225	6.7
226	5.7
227	4.9
228	4.2
229	3.7
230	3.3
231	3.0
232	2.8
233	2.6
234	2.5
235	2.4
236	2.3
237	2.3
238	2.4
239	2.6
240	2.7
241	2.8
242	2.8
243	2.8
244	2.7
245	2.7
246	2.7
247	2.8
248	2.8
249	2.8
250	2.6
251	2.4
252	2.1
253	1.9
254	1.8
255	1.8
256	1.9
257	2.1
258	2.2
259	2.3
260	2.2
261	1.9
262	1.6
263	1.3
264	1.0
265	.8
266	.8
267	.8
268	.9
269	1.2
270	1.5
271	1.8
272	2.1
273	2.2
274	2.1
275	1.8
276	1.3
277	.9
278	.6
279	.4
280	.3
281	.4
282	.5
283	.7
284	.9
285	1.1
286	1.2
287	1.3
288	1.3
289	1.3
290	1.4
291	1.5
292	1.6
293	1.8
294	1.9
295	2.1
296	2.2
297	2.3
298	2.4
299	2.5
300	2.8
301	3.1
302	3.6
303	4.1
304	4.7
305	5.3
306	5.9
307	6.6
308	7.5
309	8.6
310	10.1
311	12.0
312	14.3
313	17.1
314	19.7
315	20.2
316	18.2
317	15.6
318	13.2
319	11.1
320	9.4
321	8.0
322	6.9
323	6.0
324	5.4
325	4.9
326	4.5
327	4.2
328	3.9
329	3.7
330	3.6
331	3.6
332	3.6
333	3.7
334	3.7
335	3.8
336	3.8
337	3.7
338	3.7
339	3.6
340	3.4
341	3.3
342	3.2
343	3.1
344	3.0
345	2.9
346	2.8
347	2.7
348	2.6
349	2.5
350	2.5
351	2.5
352	2.5
353	2.6
354	2.7
355	2.8
356	2.8
357	2.9
358	3.0
359	3.2
VER_LOBE
0	.8
1	.8
2	1.0
3	1.4
4	1.8
5	2.2
6	2.5
7	3.0
8	3.7
9	4.5
10	5.1
11	5.6
12	5.9
13	6.2
14	6.5
15	6.9
16	7.7
17	8.7
18	9.1
19	8.5
20	7.7
21	7.4
22	7.7
23	8.3
24	8.6
25	8.8
26	9.2
27	10.0
28	11.3
29	12.7
30	14.0
31	15.6
32	17.3
33	18.5
34	18.1
35	17.1
36	16.5
37	16.9
38	18.8
39	23.4
40	39.5
41	25.6
42	19.4
43	16.4
44	15.0
45	14.5
46	14.6
47	14.5
48	13.3
49	11.8
50	10.8
51	10.3
52	10.1
53	9.9
54	9.8
55	9.8
56	10.1
57	10.8
58	11.6
59	12.5
60	13.5
61	15.0
62	16.6
63	17.7
64	17.6
65	17.1
66	17.1
67	17.7
68	18.9
69	20.1
70	21.3
71	22.4
72	23.5
73	24.7
74	25.6
75	25.3
76	24.2
77	23.6
78	24.2
79	25.8
80	28.1
81	30.7
82	34.5
83	39.9
84	43.3
85	38.9
86	33.7
87	31.0
88	30.9
89	32.2
90	31.8
91	29.9
92	29.1
93	30.1
94	32.4
95	34.3
96	35.0
97	36.4
98	38.6
99	40.4
100	40.8
101	39.0
102	37.5
103	34.5
104	29.7
105	26.5
106	25.1
107	24.6
108	24.5
109	24.2
110	24.1
111	23.7
112	22.2
113	20.0
114	18.1
115	16.7
116	15.4
117	14.0
118	12.5
119	11.3
120	10.4
121	9.6
122	9.0
123	8.7
124	8.8
125	9.3
126	9.9
127	10.3
128	10.7
129	11.1
130	11.6
131	11.8
132	11.9
133	12.4
134	13.6
135	15.2
136	16.4
137	17.4
138	18.6
139	19.2
140	18.5
141	17.8
142	17.9
143	18.3
144	18.2
145	18.2
146	18.9
147	19.2
148	18.0
149	16.4
150	15.2
151	14.2
152	13.3
153	12.9
154	13.2
155	13.7
156	13.6
157	13.2
158	12.4
159	11.0
160	9.4
161	8.4
162	8.0
163	7.8
164	7.2
165	6.2
166	5.3
167	4.7
168	4.4
169	3.9
170	3.2
171	2.6
172	2.1
173	1.7
174	1.2
175	.8
176	.5
177	.5
178	.5
179	.3
180	.1
181	.0
182	.3
183	.8
184	1.3
185	1.5
186	1.3
187	1.0
188	.8
189	.9
190	1.3
191	2.0
192	2.6
193	3.0
194	3.2
195	3.3
196	3.4
197	3.8
198	4.4
199	5.3
200	6.2
201	6.9
202	7.3
203	7.6
204	7.9
205	8.5
206	9.0
207	9.3
208	9.1
209	8.8
210	8.9
211	9.6
212	10.4
213	10.7
214	10.6
215	10.7
216	11.1
217	11.6
218	11.8
219	12.1
220	12.9
221	14.3
222	15.8
223	16.9
224	17.1
225	16.8
226	16.6
227	16.8
228	17.3
229	17.5
230	17.1
231	16.6
232	16.5
233	17.1
234	18.0
235	18.7
236	18.5
237	17.3
238	15.7
239	14.4
240	13.7
241	13.6
242	13.7
243	13.5
244	12.9
245	12.4
246	12.3
247	12.6
248	12.8
249	12.5
250	12.0
251	11.7
252	11.6
253	11.7
254	11.9
255	12.1
256	12.5
257	13.4
258	14.5
259	15.6
260	15.8
261	15.3
262	14.4
263	13.7
264	13.3
265	13.1
266	13.1
267	12.9
268	12.5
269	12.3
270	12.2
271	12.4
272	12.7
273	13.2
274	13.7
275	13.9
276	14.1
277	14.6
278	15.5
279	16.8
280	18.1
281	19.2
282	19.8
283	20.4
284	21.3
285	22.6
286	23.9
287	24.2
288	23.7
289	22.5
290	20.8
291	18.6
292	16.4
293	14.8
294	13.9
295	13.7
296	13.7
297	13.8
298	13.6
299	13.5
300	13.6
301	13.8
302	14.1
303	14.2
304	14.5
305	15.1
306	16.0
307	17.0
308	17.8
309	17.9
310	17.3
311	16.8
312	16.7
313	17.0
314	17.0
315	16.5
316	16.0
317	16.1
318	16.7
319	17.2
320	17.5
321	17.5
322	17.6
323	18.0
324	18.8
325	19.1
326	18.0
327	16.2
328	15.0
329	14.8
330	15.3
331	15.4
332	14.4
333	13.2
334	12.6
335	12.7
336	12.6
337	11.3
338	9.3
339	7.4
340	6.0
341	5.1
342	4.6
343	4.4
344	4.3
345	4.1
346	3.9
347	3.7
348	3.3
349	3.0
350	2.5
351	2.0
352	1.6
353	1.5
354	1.5
355	1.6
356	1.6
357	1.4
358	1.2
359	1.0
