VERSION 2.0
NAME VVSSP-360S-F, Tilt 0, Freq 3775
GAIN 4.8
HOR_LOBE
0	2.3
1	2.0
2	1.7
3	1.4
4	1.1
5	.9
6	.7
7	.5
8	.4
9	.3
10	.2
11	.1
12	.0
13	.1
14	.1
15	.2
16	.2
17	.2
18	.2
19	.2
20	.2
21	.1
22	.1
23	.1
24	.0
25	.1
26	.2
27	.3
28	.4
29	.4
30	.5
31	.6
32	.7
33	.8
34	.9
35	.9
36	1.0
37	1.1
38	1.1
39	1.2
40	1.3
41	1.3
42	1.4
43	1.5
44	1.5
45	1.6
46	1.6
47	1.6
48	1.7
49	1.7
50	1.7
51	1.7
52	1.8
53	1.8
54	1.9
55	2.0
56	2.0
57	2.1
58	2.3
59	2.4
60	2.5
61	2.7
62	2.8
63	3.0
64	3.2
65	3.4
66	3.6
67	3.8
68	4.1
69	4.3
70	4.4
71	4.6
72	4.7
73	4.8
74	4.9
75	4.9
76	4.9
77	4.8
78	4.7
79	4.6
80	4.4
81	4.2
82	4.0
83	3.8
84	3.6
85	3.3
86	3.1
87	2.9
88	2.6
89	2.4
90	2.2
91	1.9
92	1.7
93	1.5
94	1.3
95	1.2
96	1.0
97	.8
98	.7
99	.6
100	.4
101	.3
102	.2
103	.2
104	.1
105	.0
106	.0
107	.0
108	.0
109	.0
110	.0
111	.0
112	.1
113	.1
114	.2
115	.2
116	.3
117	.3
118	.4
119	.5
120	.6
121	.7
122	.8
123	.9
124	1.0
125	1.1
126	1.2
127	1.3
128	1.4
129	1.6
130	1.7
131	1.8
132	2.0
133	2.1
134	2.3
135	2.4
136	2.6
137	2.8
138	3.0
139	3.1
140	3.3
141	3.5
142	3.6
143	3.8
144	3.9
145	4.1
146	4.2
147	4.3
148	4.5
149	4.6
150	4.7
151	4.8
152	4.8
153	4.9
154	5.0
155	5.1
156	5.1
157	5.2
158	5.3
159	5.4
160	5.4
161	5.5
162	5.6
163	5.7
164	5.8
165	5.9
166	5.9
167	5.9
168	5.9
169	5.9
170	5.9
171	5.8
172	5.7
173	5.5
174	5.4
175	5.2
176	5.0
177	4.7
178	4.5
179	4.3
180	4.1
181	3.8
182	3.5
183	3.3
184	3.0
185	2.8
186	2.6
187	2.3
188	2.1
189	1.9
190	1.7
191	1.6
192	1.4
193	1.3
194	1.2
195	1.1
196	1.0
197	.9
198	.9
199	.8
200	.8
201	.8
202	.8
203	.8
204	.9
205	.9
206	1.0
207	1.0
208	1.1
209	1.2
210	1.3
211	1.4
212	1.5
213	1.6
214	1.8
215	1.9
216	2.0
217	2.2
218	2.3
219	2.5
220	2.7
221	2.8
222	3.0
223	3.2
224	3.4
225	3.5
226	3.7
227	3.9
228	4.1
229	4.4
230	4.6
231	4.8
232	5.0
233	5.2
234	5.4
235	5.6
236	5.8
237	6.0
238	6.2
239	6.3
240	6.5
241	6.6
242	6.6
243	6.7
244	6.7
245	6.7
246	6.7
247	6.6
248	6.6
249	6.5
250	6.4
251	6.3
252	6.1
253	6.0
254	5.8
255	5.6
256	5.5
257	5.3
258	5.1
259	5.0
260	4.8
261	4.7
262	4.5
263	4.3
264	4.2
265	4.0
266	3.9
267	3.7
268	3.6
269	3.4
270	3.3
271	3.1
272	3.0
273	2.8
274	2.7
275	2.5
276	2.4
277	2.2
278	2.1
279	1.9
280	1.8
281	1.6
282	1.5
283	1.3
284	1.2
285	1.0
286	.9
287	.8
288	.7
289	.6
290	.5
291	.4
292	.3
293	.3
294	.2
295	.2
296	.2
297	.2
298	.2
299	.2
300	.2
301	.3
302	.4
303	.4
304	.5
305	.6
306	.8
307	.9
308	1.0
309	1.2
310	1.4
311	1.6
312	1.7
313	1.9
314	2.2
315	2.4
316	2.6
317	2.8
318	3.0
319	3.2
320	3.5
321	3.6
322	3.8
323	4.0
324	4.1
325	4.2
326	4.3
327	4.4
328	4.5
329	4.5
330	4.6
331	4.6
332	4.6
333	4.7
334	4.7
335	4.7
336	4.7
337	4.8
338	4.8
339	4.9
340	4.9
341	5.0
342	5.1
343	5.1
344	5.2
345	5.2
346	5.2
347	5.1
348	5.0
349	4.9
350	4.8
351	4.7
352	4.5
353	4.3
354	4.0
355	3.8
356	3.5
357	3.2
358	2.9
359	2.6
VER_LOBE
0	.4
1	.3
2	.2
3	.2
4	.1
5	.0
6	.0
7	.1
8	.0
9	.1
10	.2
11	.4
12	.7
13	1.0
14	1.2
15	1.5
16	1.7
17	1.8
18	1.9
19	2.0
20	2.1
21	2.2
22	2.4
23	2.6
24	2.9
25	3.3
26	3.7
27	4.0
28	4.3
29	4.5
30	4.6
31	4.7
32	4.8
33	5.0
34	5.2
35	5.6
36	6.1
37	6.7
38	7.3
39	7.9
40	8.4
41	8.8
42	9.0
43	9.3
44	9.5
45	9.8
46	10.4
47	11.1
48	12.1
49	13.3
50	14.8
51	16.6
52	18.6
53	20.6
54	22.2
55	22.8
56	22.6
57	22.2
58	21.8
59	21.5
60	21.4
61	21.6
62	21.9
63	22.4
64	23.2
65	24.2
66	25.6
67	26.9
68	27.0
69	25.4
70	23.3
71	21.3
72	19.9
73	19.0
74	18.6
75	18.8
76	19.3
77	20.4
78	21.7
79	23.1
80	23.8
81	23.7
82	23.3
83	23.1
84	23.4
85	24.4
86	26.1
87	28.2
88	29.3
89	27.8
90	25.6
91	23.7
92	22.5
93	21.8
94	21.6
95	21.8
96	22.5
97	23.4
98	24.4
99	24.5
100	23.4
101	21.6
102	19.7
103	18.2
104	17.1
105	16.3
106	15.8
107	15.6
108	15.7
109	15.8
110	16.1
111	16.4
112	16.7
113	17.0
114	17.4
115	17.8
116	18.3
117	18.8
118	19.5
119	20.1
120	20.7
121	21.1
122	21.0
123	20.1
124	18.7
125	17.1
126	15.5
127	14.2
128	13.1
129	12.3
130	11.6
131	11.2
132	10.9
133	10.7
134	10.4
135	10.1
136	9.7
137	9.2
138	8.5
139	7.8
140	7.1
141	6.5
142	6.0
143	5.6
144	5.4
145	5.2
146	5.0
147	4.9
148	4.7
149	4.5
150	4.3
151	4.0
152	3.7
153	3.5
154	3.3
155	3.1
156	3.0
157	2.9
158	2.8
159	2.7
160	2.6
161	2.4
162	2.1
163	1.9
164	1.6
165	1.4
166	1.2
167	1.0
168	.8
169	.7
170	.6
171	.5
172	.4
173	.4
174	.3
175	.3
176	.2
177	.2
178	.2
179	.1
180	.1
181	.0
182	.0
183	.1
184	.1
185	.0
186	.1
187	.2
188	.4
189	.6
190	.9
191	1.3
192	1.6
193	2.0
194	2.4
195	2.8
196	3.2
197	3.7
198	4.1
199	4.7
200	5.2
201	5.8
202	6.5
203	7.1
204	7.8
205	8.4
206	9.0
207	9.6
208	10.1
209	10.6
210	11.2
211	11.8
212	12.6
213	13.4
214	14.3
215	15.3
216	16.3
217	17.2
218	17.9
219	18.3
220	18.4
221	18.2
222	17.7
223	17.1
224	16.4
225	15.9
226	15.5
227	15.2
228	15.2
229	15.3
230	15.6
231	15.8
232	16.0
233	15.8
234	15.4
235	14.9
236	14.3
237	13.9
238	13.7
239	13.7
240	14.0
241	14.6
242	15.5
243	16.5
244	17.5
245	18.3
246	18.6
247	18.5
248	17.9
249	17.3
250	16.6
251	16.0
252	15.4
253	14.9
254	14.4
255	14.0
256	13.7
257	13.5
258	13.5
259	13.5
260	13.7
261	14.1
262	14.5
263	15.1
264	15.8
265	16.6
266	17.4
267	18.3
268	19.2
269	20.1
270	20.8
271	21.3
272	21.4
273	21.1
274	20.5
275	19.6
276	18.6
277	17.4
278	16.1
279	15.0
280	14.0
281	13.2
282	12.6
283	12.3
284	12.2
285	12.4
286	12.9
287	13.5
288	14.4
289	15.4
290	16.6
291	17.8
292	19.1
293	20.2
294	21.1
295	21.7
296	22.0
297	22.0
298	21.8
299	21.6
300	21.4
301	21.1
302	20.7
303	20.3
304	19.8
305	19.2
306	18.6
307	18.1
308	17.8
309	17.5
310	17.3
311	17.2
312	17.0
313	16.7
314	16.3
315	15.8
316	15.3
317	14.8
318	14.4
319	14.0
320	13.7
321	13.4
322	13.0
323	12.6
324	12.1
325	11.5
326	10.8
327	10.1
328	9.5
329	8.9
330	8.4
331	8.0
332	7.7
333	7.4
334	7.3
335	7.1
336	7.0
337	6.9
338	6.7
339	6.3
340	5.9
341	5.4
342	4.8
343	4.2
344	3.6
345	3.1
346	2.6
347	2.2
348	1.9
349	1.6
350	1.4
351	1.2
352	1.1
353	1.0
354	.9
355	.8
356	.7
357	.7
358	.6
359	.5
