VERSION 2.0
NAME VVSSP-360S-F, Tilt 0, Freq 5575
GAIN 4.7
HOR_LOBE
0	3.2
1	3.0
2	2.8
3	2.6
4	2.3
5	2.1
6	1.9
7	1.7
8	1.5
9	1.5
10	1.5
11	1.5
12	1.6
13	1.7
14	1.9
15	2.0
16	2.1
17	2.3
18	2.4
19	2.5
20	2.7
21	2.9
22	3.1
23	3.4
24	3.6
25	3.9
26	4.0
27	4.2
28	4.3
29	4.4
30	4.6
31	4.8
32	5.1
33	5.4
34	5.8
35	6.1
36	6.5
37	6.9
38	7.5
39	8.1
40	8.7
41	9.4
42	9.8
43	10.1
44	10.0
45	9.8
46	9.4
47	9.0
48	8.6
49	8.1
50	7.7
51	7.3
52	6.9
53	6.6
54	6.4
55	6.2
56	6.1
57	6.1
58	6.0
59	6.0
60	6.0
61	6.0
62	6.0
63	5.9
64	5.7
65	5.6
66	5.4
67	5.2
68	5.1
69	5.1
70	5.1
71	5.3
72	5.5
73	5.7
74	5.8
75	5.9
76	6.0
77	6.0
78	6.1
79	6.3
80	6.6
81	7.0
82	7.4
83	7.6
84	7.8
85	7.8
86	7.5
87	7.0
88	6.4
89	5.6
90	4.7
91	3.9
92	3.1
93	2.5
94	2.1
95	1.8
96	1.7
97	1.7
98	1.8
99	2.0
100	2.3
101	2.5
102	2.7
103	2.8
104	2.8
105	2.7
106	2.7
107	2.7
108	2.8
109	3.0
110	3.1
111	3.2
112	3.3
113	3.3
114	3.2
115	3.2
116	3.3
117	3.5
118	3.8
119	4.2
120	4.7
121	5.3
122	6.0
123	6.8
124	7.8
125	9.0
126	10.5
127	12.2
128	13.9
129	15.1
130	15.1
131	13.9
132	12.2
133	10.5
134	9.1
135	7.9
136	6.9
137	6.3
138	5.8
139	5.6
140	5.4
141	5.3
142	5.2
143	5.1
144	5.0
145	5.0
146	5.0
147	5.0
148	4.9
149	4.7
150	4.5
151	4.2
152	4.0
153	3.8
154	3.6
155	3.4
156	3.2
157	3.0
158	2.8
159	2.6
160	2.5
161	2.5
162	2.4
163	2.5
164	2.5
165	2.6
166	2.7
167	2.8
168	2.8
169	2.9
170	3.0
171	3.0
172	2.9
173	2.7
174	2.4
175	2.0
176	1.7
177	1.4
178	1.1
179	.8
180	.6
181	.5
182	.3
183	.2
184	.1
185	.0
186	.0
187	.0
188	.0
189	.0
190	.1
191	.1
192	.2
193	.3
194	.5
195	.7
196	1.0
197	1.2
198	1.4
199	1.6
200	1.7
201	1.8
202	1.9
203	1.9
204	2.0
205	2.2
206	2.3
207	2.4
208	2.5
209	2.7
210	3.0
211	3.3
212	3.6
213	4.0
214	4.5
215	4.9
216	5.4
217	5.9
218	6.4
219	6.9
220	7.4
221	8.0
222	8.4
223	8.7
224	8.9
225	9.0
226	9.0
227	9.0
228	9.0
229	9.0
230	9.0
231	8.9
232	8.8
233	8.7
234	8.6
235	8.6
236	8.6
237	8.6
238	8.8
239	8.8
240	8.9
241	8.8
242	8.5
243	8.2
244	7.9
245	7.7
246	7.7
247	7.7
248	7.9
249	8.1
250	8.2
251	8.3
252	8.3
253	8.5
254	8.7
255	9.2
256	9.9
257	10.7
258	11.5
259	12.0
260	12.2
261	12.0
262	11.6
263	11.1
264	10.5
265	9.9
266	9.2
267	8.6
268	8.0
269	7.5
270	7.1
271	6.7
272	6.3
273	6.0
274	5.5
275	5.1
276	4.6
277	4.2
278	3.9
279	3.7
280	3.6
281	3.6
282	3.7
283	3.9
284	4.1
285	4.4
286	4.7
287	5.0
288	5.4
289	5.8
290	6.2
291	6.5
292	6.8
293	7.0
294	7.2
295	7.4
296	7.6
297	7.8
298	7.9
299	7.9
300	7.8
301	7.8
302	7.8
303	7.9
304	8.1
305	8.5
306	9.0
307	9.9
308	10.9
309	12.2
310	13.5
311	14.7
312	15.6
313	15.8
314	15.4
315	14.4
316	13.1
317	11.8
318	10.6
319	9.5
320	8.6
321	8.0
322	7.4
323	7.0
324	6.5
325	6.1
326	5.8
327	5.5
328	5.3
329	5.2
330	5.2
331	5.1
332	5.1
333	5.1
334	4.9
335	4.7
336	4.5
337	4.4
338	4.2
339	4.0
340	3.9
341	3.8
342	3.6
343	3.5
344	3.4
345	3.3
346	3.3
347	3.4
348	3.6
349	3.7
350	3.9
351	4.0
352	4.1
353	4.1
354	4.0
355	3.9
356	3.7
357	3.6
358	3.5
359	3.3
VER_LOBE
0	2.5
1	2.8
2	3.1
3	3.2
4	3.2
5	3.2
6	3.3
7	3.4
8	3.8
9	4.3
10	4.8
11	5.0
12	5.3
13	5.7
14	6.2
15	6.8
16	7.4
17	8.1
18	8.8
19	9.5
20	10.5
21	12.3
22	15.1
23	19.1
24	24.0
25	29.6
26	39.3
27	36.7
28	30.1
29	28.8
30	29.9
31	26.9
32	21.6
33	18.2
34	16.3
35	15.2
36	14.3
37	13.4
38	13.1
39	13.2
40	13.3
41	13.0
42	12.7
43	13.0
44	13.4
45	13.4
46	12.8
47	12.2
48	11.8
49	11.6
50	11.5
51	11.7
52	12.1
53	12.6
54	12.8
55	12.8
56	12.4
57	12.1
58	12.1
59	12.1
60	12.1
61	12.0
62	12.1
63	12.6
64	13.4
65	13.7
66	13.4
67	13.2
68	13.7
69	14.6
70	15.5
71	15.5
72	15.2
73	15.4
74	16.0
75	16.8
76	17.6
77	18.6
78	20.5
79	22.9
80	24.0
81	23.4
82	23.6
83	25.7
84	30.2
85	29.9
86	27.1
87	28.2
88	34.6
89	29.7
90	25.6
91	26.1
92	28.1
93	25.9
94	24.0
95	24.8
96	26.4
97	25.4
98	24.0
99	23.8
100	23.9
101	22.6
102	20.3
103	18.4
104	17.1
105	16.5
106	16.0
107	15.9
108	16.0
109	16.1
110	15.6
111	14.3
112	13.1
113	12.5
114	12.4
115	12.3
116	11.9
117	11.3
118	11.1
119	11.3
120	11.8
121	11.9
122	11.8
123	11.6
124	11.5
125	11.0
126	10.3
127	9.7
128	9.4
129	9.3
130	9.1
131	9.0
132	9.1
133	9.5
134	10.0
135	10.3
136	10.6
137	11.0
138	11.5
139	12.1
140	12.8
141	13.5
142	13.8
143	13.6
144	13.5
145	14.4
146	16.2
147	17.9
148	17.7
149	16.9
150	16.8
151	17.8
152	20.1
153	23.3
154	24.3
155	22.0
156	19.7
157	17.4
158	15.0
159	12.8
160	11.2
161	9.9
162	9.0
163	8.1
164	7.3
165	6.5
166	6.1
167	5.8
168	5.3
169	4.6
170	3.9
171	3.4
172	3.1
173	2.8
174	2.4
175	2.1
176	1.7
177	1.2
178	.6
179	.1
180	.0
181	.1
182	.4
183	.7
184	.9
185	1.0
186	1.1
187	1.6
188	2.5
189	3.4
190	3.9
191	4.0
192	4.2
193	4.6
194	5.5
195	6.6
196	7.8
197	8.6
198	8.9
199	9.1
200	9.9
201	11.1
202	12.3
203	12.8
204	12.4
205	11.7
206	11.1
207	11.2
208	12.1
209	13.9
210	16.0
211	16.7
212	16.4
213	16.4
214	17.3
215	19.0
216	21.4
217	24.5
218	26.8
219	26.7
220	27.2
221	31.2
222	43.2
223	28.6
224	23.2
225	20.6
226	19.2
227	18.7
228	18.7
229	19.2
230	20.4
231	22.7
232	26.7
233	32.2
234	33.9
235	30.1
236	25.1
237	21.2
238	19.0
239	18.1
240	18.1
241	18.6
242	19.3
243	20.0
244	20.6
245	21.3
246	21.6
247	21.1
248	19.8
249	18.0
250	16.1
251	14.6
252	13.5
253	12.9
254	12.7
255	12.8
256	13.0
257	13.3
258	13.9
259	15.0
260	16.8
261	19.2
262	22.5
263	26.8
264	28.8
265	24.5
266	20.7
267	18.1
268	16.4
269	15.2
270	14.6
271	14.4
272	14.6
273	15.5
274	17.2
275	20.2
276	25.7
277	40.9
278	29.0
279	23.2
280	20.2
281	18.2
282	16.5
283	14.9
284	13.7
285	13.0
286	13.1
287	13.9
288	15.1
289	16.5
290	17.9
291	19.5
292	21.7
293	24.7
294	26.1
295	23.7
296	21.1
297	19.3
298	18.0
299	17.2
300	16.6
301	16.3
302	16.4
303	16.9
304	17.8
305	19.2
306	21.0
307	23.6
308	27.8
309	29.4
310	24.3
311	20.8
312	19.0
313	18.4
314	18.9
315	20.7
316	23.6
317	26.2
318	26.0
319	25.6
320	27.2
321	30.9
322	32.5
323	32.2
324	32.8
325	28.0
326	24.7
327	24.6
328	24.8
329	20.7
330	17.4
331	16.4
332	17.4
333	19.2
334	19.1
335	17.2
336	16.1
337	16.4
338	17.5
339	17.8
340	16.8
341	15.7
342	14.8
343	13.9
344	12.5
345	10.9
346	9.6
347	8.8
348	8.4
349	7.8
350	6.9
351	6.1
352	5.4
353	4.8
354	4.1
355	3.5
356	3.0
357	2.7
358	2.5
359	2.4
