VERSION 2.0
NAME VVSSP-360S-F, Tilt 0, Freq 5525
GAIN 4.3
HOR_LOBE
0	5.5
1	5.3
2	5.0
3	4.7
4	4.2
5	3.8
6	3.5
7	3.3
8	3.2
9	3.2
10	3.3
11	3.4
12	3.5
13	3.7
14	3.8
15	3.9
16	4.1
17	4.3
18	4.5
19	4.7
20	4.9
21	5.1
22	5.2
23	5.3
24	5.4
25	5.5
26	5.5
27	5.6
28	5.7
29	5.8
30	6.1
31	6.4
32	6.9
33	7.5
34	8.2
35	8.9
36	9.6
37	10.5
38	11.4
39	12.3
40	13.0
41	13.2
42	12.7
43	11.7
44	10.6
45	9.7
46	8.9
47	8.2
48	7.6
49	7.0
50	6.4
51	5.8
52	5.3
53	5.0
54	4.8
55	4.8
56	4.9
57	5.0
58	5.1
59	5.2
60	5.1
61	5.0
62	4.8
63	4.6
64	4.5
65	4.3
66	4.1
67	4.0
68	3.9
69	3.7
70	3.6
71	3.5
72	3.4
73	3.4
74	3.4
75	3.3
76	3.2
77	3.1
78	3.1
79	3.0
80	3.0
81	3.1
82	3.2
83	3.3
84	3.5
85	3.7
86	3.8
87	3.6
88	3.3
89	2.7
90	2.0
91	1.4
92	.8
93	.4
94	.1
95	.0
96	.0
97	.1
98	.3
99	.5
100	.6
101	.7
102	.8
103	.7
104	.7
105	.6
106	.6
107	.6
108	.6
109	.7
110	.8
111	.8
112	.8
113	.8
114	.8
115	1.0
116	1.3
117	1.6
118	2.1
119	2.7
120	3.3
121	3.9
122	4.5
123	5.2
124	5.8
125	6.6
126	7.4
127	8.1
128	8.8
129	9.3
130	9.5
131	9.3
132	8.7
133	7.9
134	7.0
135	6.2
136	5.5
137	5.0
138	4.7
139	4.5
140	4.5
141	4.5
142	4.6
143	4.7
144	4.8
145	5.0
146	5.2
147	5.3
148	5.5
149	5.5
150	5.5
151	5.4
152	5.2
153	5.1
154	4.9
155	4.7
156	4.5
157	4.4
158	4.3
159	4.2
160	4.3
161	4.4
162	4.6
163	4.8
164	5.1
165	5.3
166	5.5
167	5.7
168	5.8
169	5.8
170	5.8
171	5.7
172	5.5
173	5.3
174	4.9
175	4.5
176	4.1
177	3.7
178	3.3
179	2.8
180	2.5
181	2.1
182	1.8
183	1.5
184	1.3
185	1.1
186	1.0
187	.9
188	.9
189	.9
190	1.0
191	1.2
192	1.3
193	1.5
194	1.7
195	1.9
196	2.0
197	2.1
198	2.2
199	2.3
200	2.3
201	2.5
202	2.6
203	2.7
204	2.9
205	2.9
206	3.0
207	3.0
208	3.1
209	3.2
210	3.4
211	3.7
212	4.1
213	4.6
214	5.1
215	5.6
216	6.2
217	6.8
218	7.5
219	8.4
220	9.5
221	10.6
222	11.5
223	11.8
224	11.4
225	10.6
226	9.7
227	8.8
228	8.0
229	7.3
230	6.6
231	6.0
232	5.5
233	5.1
234	4.8
235	4.6
236	4.5
237	4.5
238	4.5
239	4.4
240	4.2
241	4.0
242	3.7
243	3.4
244	3.2
245	3.1
246	3.0
247	3.0
248	3.0
249	3.0
250	2.9
251	2.8
252	2.7
253	2.7
254	2.8
255	3.0
256	3.2
257	3.5
258	3.7
259	3.8
260	3.9
261	3.8
262	3.7
263	3.6
264	3.5
265	3.2
266	2.9
267	2.6
268	2.3
269	2.2
270	2.2
271	2.2
272	2.4
273	2.4
274	2.3
275	2.1
276	1.7
277	1.2
278	.9
279	.6
280	.5
281	.6
282	.7
283	1.0
284	1.2
285	1.5
286	1.7
287	1.8
288	1.9
289	2.0
290	2.1
291	2.3
292	2.4
293	2.6
294	2.7
295	2.8
296	2.9
297	3.0
298	3.1
299	3.2
300	3.4
301	3.6
302	3.8
303	4.1
304	4.4
305	4.8
306	5.3
307	6.0
308	6.7
309	7.6
310	8.5
311	9.4
312	10.1
313	10.7
314	11.2
315	11.3
316	11.1
317	10.6
318	9.9
319	9.0
320	8.3
321	7.7
322	7.2
323	6.9
324	6.7
325	6.4
326	6.2
327	6.0
328	5.9
329	5.7
330	5.7
331	5.6
332	5.6
333	5.6
334	5.6
335	5.5
336	5.4
337	5.3
338	5.1
339	5.0
340	4.9
341	4.8
342	4.7
343	4.7
344	4.7
345	4.7
346	4.8
347	4.9
348	5.1
349	5.4
350	5.8
351	6.1
352	6.3
353	6.3
354	6.2
355	6.0
356	5.8
357	5.7
358	5.6
359	5.5
VER_LOBE
0	2.7
1	2.9
2	3.3
3	3.8
4	4.1
5	4.0
6	4.2
7	4.9
8	6.1
9	7.0
10	6.9
11	6.5
12	6.3
13	6.5
14	6.9
15	7.8
16	9.2
17	10.9
18	12.2
19	12.9
20	13.6
21	15.1
22	17.4
23	20.4
24	24.2
25	28.9
26	30.6
27	29.6
28	27.5
29	23.0
30	19.3
31	17.0
32	15.6
33	15.0
34	14.8
35	14.9
36	15.0
37	15.2
38	15.5
39	15.2
40	13.9
41	12.6
42	12.2
43	12.5
44	12.9
45	13.2
46	13.7
47	14.2
48	14.0
49	12.9
50	12.1
51	12.1
52	12.9
53	13.7
54	14.0
55	14.3
56	15.1
57	16.0
58	16.6
59	16.8
60	17.1
61	17.4
62	17.5
63	17.6
64	17.4
65	16.8
66	16.2
67	16.2
68	17.2
69	18.7
70	19.4
71	18.8
72	17.9
73	17.7
74	18.1
75	18.8
76	19.8
77	21.3
78	23.7
79	26.8
80	28.5
81	28.1
82	27.9
83	29.4
84	31.9
85	32.0
86	30.8
87	29.5
88	26.3
89	23.2
90	21.8
91	22.0
92	23.0
93	23.9
94	24.3
95	24.8
96	25.5
97	25.2
98	24.0
99	22.6
100	21.4
101	20.1
102	19.1
103	18.4
104	17.7
105	17.0
106	16.1
107	15.4
108	15.0
109	14.6
110	13.8
111	13.0
112	12.5
113	12.5
114	12.6
115	12.5
116	12.3
117	12.3
118	12.9
119	13.7
120	13.9
121	13.2
122	12.3
123	11.1
124	9.7
125	8.4
126	7.5
127	7.0
128	6.8
129	6.8
130	7.0
131	7.6
132	8.4
133	8.9
134	9.1
135	9.4
136	10.0
137	10.7
138	10.9
139	10.9
140	11.2
141	11.7
142	12.0
143	12.3
144	12.8
145	13.8
146	15.2
147	17.2
148	19.8
149	22.4
150	23.7
151	24.1
152	23.6
153	21.3
154	18.6
155	16.0
156	13.9
157	12.6
158	12.0
159	11.6
160	10.3
161	8.6
162	7.3
163	6.5
164	6.2
165	6.0
166	5.9
167	5.9
168	5.6
169	4.8
170	3.8
171	2.9
172	2.3
173	2.0
174	1.8
175	1.5
176	1.0
177	.5
178	.1
179	.0
180	.0
181	.1
182	.2
183	.3
184	.3
185	.4
186	.7
187	1.4
188	2.2
189	2.8
190	2.8
191	2.9
192	3.6
193	5.1
194	6.8
195	7.5
196	7.3
197	7.2
198	7.6
199	8.3
200	9.0
201	9.9
202	11.0
203	12.0
204	12.0
205	11.5
206	11.4
207	12.4
208	14.7
209	18.0
210	17.6
211	14.4
212	12.4
213	11.9
214	12.9
215	15.2
216	17.4
217	17.2
218	16.1
219	15.9
220	16.9
221	18.6
222	20.8
223	22.5
224	21.6
225	19.8
226	19.7
227	22.3
228	29.8
229	28.5
230	21.9
231	19.2
232	18.2
233	18.4
234	19.7
235	22.4
236	25.0
237	23.2
238	20.3
239	18.6
240	18.0
241	18.4
242	19.7
243	21.8
244	24.5
245	27.5
246	29.8
247	29.2
248	25.7
249	21.7
250	18.5
251	16.0
252	14.1
253	12.5
254	11.2
255	10.3
256	9.8
257	9.7
258	10.3
259	11.3
260	12.8
261	14.5
262	16.0
263	17.4
264	19.1
265	21.6
266	25.3
267	26.7
268	23.8
269	21.4
270	20.2
271	19.5
272	19.2
273	19.6
274	21.0
275	23.8
276	28.9
277	38.3
278	30.9
279	24.8
280	20.8
281	18.0
282	15.8
283	14.0
284	12.5
285	11.4
286	10.7
287	10.6
288	10.9
289	11.4
290	12.0
291	12.7
292	13.9
293	16.0
294	19.3
295	23.6
296	27.0
297	27.3
298	26.0
299	24.2
300	22.1
301	19.8
302	17.8
303	16.8
304	17.1
305	19.1
306	22.4
307	24.8
308	23.2
309	21.1
310	20.0
311	19.7
312	20.3
313	20.9
314	20.3
315	19.1
316	18.8
317	19.8
318	22.1
319	25.7
320	25.8
321	21.5
322	19.0
323	18.6
324	19.5
325	19.9
326	19.1
327	19.3
328	22.4
329	28.7
330	21.5
331	17.2
332	16.1
333	17.3
334	19.3
335	19.9
336	19.4
337	19.4
338	19.3
339	18.6
340	18.1
341	17.7
342	16.5
343	14.0
344	11.4
345	9.6
346	8.8
347	8.8
348	9.0
349	8.7
350	7.3
351	5.9
352	4.8
353	4.4
354	4.4
355	4.6
356	4.5
357	4.1
358	3.5
359	3.0
