VERSION 2.0
NAME VVSSP-360S-F, Tilt 7, Freq 2535
GAIN 8.4
HOR_LOBE
0	.1
1	.2
2	.3
3	.4
4	.5
5	.5
6	.6
7	.6
8	.6
9	.7
10	.7
11	.6
12	.6
13	.6
14	.5
15	.5
16	.4
17	.3
18	.2
19	.2
20	.1
21	.0
22	.1
23	.2
24	.3
25	.4
26	.5
27	.5
28	.6
29	.7
30	.7
31	.8
32	.9
33	.9
34	1.0
35	1.0
36	1.0
37	1.1
38	1.1
39	1.1
40	1.2
41	1.2
42	1.2
43	1.2
44	1.2
45	1.3
46	1.3
47	1.3
48	1.3
49	1.4
50	1.4
51	1.4
52	1.5
53	1.5
54	1.6
55	1.7
56	1.7
57	1.8
58	1.9
59	2.0
60	2.1
61	2.2
62	2.3
63	2.4
64	2.5
65	2.7
66	2.8
67	2.9
68	3.0
69	3.1
70	3.1
71	3.2
72	3.2
73	3.2
74	3.3
75	3.3
76	3.3
77	3.2
78	3.2
79	3.1
80	3.1
81	3.0
82	2.9
83	2.8
84	2.6
85	2.5
86	2.4
87	2.2
88	2.1
89	1.9
90	1.8
91	1.6
92	1.5
93	1.4
94	1.2
95	1.1
96	1.0
97	.9
98	.8
99	.7
100	.6
101	.5
102	.5
103	.4
104	.3
105	.3
106	.2
107	.2
108	.2
109	.2
110	.2
111	.2
112	.2
113	.2
114	.3
115	.3
116	.4
117	.4
118	.5
119	.5
120	.6
121	.7
122	.8
123	.8
124	.9
125	1.0
126	1.1
127	1.3
128	1.4
129	1.5
130	1.6
131	1.7
132	1.9
133	2.0
134	2.1
135	2.2
136	2.3
137	2.4
138	2.5
139	2.6
140	2.7
141	2.8
142	3.0
143	3.1
144	3.2
145	3.3
146	3.4
147	3.6
148	3.7
149	3.8
150	3.9
151	4.0
152	4.2
153	4.2
154	4.3
155	4.4
156	4.4
157	4.5
158	4.5
159	4.5
160	4.5
161	4.5
162	4.5
163	4.4
164	4.4
165	4.3
166	4.2
167	4.0
168	3.9
169	3.8
170	3.7
171	3.6
172	3.4
173	3.3
174	3.2
175	3.1
176	2.9
177	2.8
178	2.7
179	2.6
180	2.5
181	2.5
182	2.4
183	2.4
184	2.3
185	2.3
186	2.2
187	2.2
188	2.1
189	2.1
190	2.1
191	2.0
192	2.0
193	2.0
194	2.0
195	2.0
196	2.0
197	2.0
198	2.0
199	2.0
200	2.0
201	2.0
202	2.1
203	2.1
204	2.1
205	2.1
206	2.2
207	2.2
208	2.2
209	2.2
210	2.2
211	2.3
212	2.3
213	2.3
214	2.4
215	2.4
216	2.5
217	2.6
218	2.6
219	2.7
220	2.7
221	2.8
222	2.9
223	3.0
224	3.1
225	3.2
226	3.3
227	3.4
228	3.5
229	3.6
230	3.7
231	3.8
232	4.0
233	4.1
234	4.2
235	4.4
236	4.5
237	4.6
238	4.7
239	4.9
240	5.0
241	5.1
242	5.2
243	5.2
244	5.2
245	5.3
246	5.2
247	5.2
248	5.1
249	5.0
250	4.9
251	4.8
252	4.6
253	4.5
254	4.3
255	4.1
256	3.9
257	3.8
258	3.6
259	3.5
260	3.3
261	3.2
262	3.0
263	2.9
264	2.7
265	2.6
266	2.5
267	2.4
268	2.3
269	2.2
270	2.1
271	2.1
272	2.0
273	2.0
274	2.0
275	1.9
276	1.9
277	1.9
278	1.9
279	1.9
280	1.9
281	1.9
282	1.9
283	1.9
284	1.9
285	2.0
286	2.0
287	2.0
288	2.0
289	2.0
290	2.0
291	1.9
292	1.9
293	1.9
294	1.8
295	1.8
296	1.7
297	1.6
298	1.5
299	1.4
300	1.3
301	1.2
302	1.1
303	.9
304	.8
305	.7
306	.5
307	.4
308	.3
309	.2
310	.0
311	.0
312	.1
313	.2
314	.3
315	.3
316	.4
317	.4
318	.4
319	.4
320	.4
321	.4
322	.3
323	.2
324	.2
325	.1
326	.0
327	.1
328	.2
329	.4
330	.5
331	.7
332	.9
333	1.0
334	1.2
335	1.3
336	1.5
337	1.6
338	1.7
339	1.8
340	1.9
341	2.0
342	2.0
343	2.1
344	2.1
345	2.0
346	1.9
347	1.8
348	1.7
349	1.6
350	1.4
351	1.3
352	1.1
353	.9
354	.8
355	.6
356	.4
357	.3
358	.1
359	.0
VER_LOBE
0	1.5
1	.9
2	.5
3	.2
4	.0
5	.0
6	.0
7	.2
8	.5
9	.9
10	1.3
11	1.9
12	2.6
13	3.5
14	4.5
15	5.6
16	7.0
17	8.6
18	10.4
19	12.6
20	15.1
21	17.8
22	20.1
23	20.1
24	18.2
25	16.1
26	14.2
27	12.7
28	11.6
29	10.7
30	10.0
31	9.5
32	9.2
33	9.0
34	8.9
35	9.0
36	9.1
37	9.3
38	9.6
39	9.9
40	10.3
41	10.7
42	11.1
43	11.5
44	11.9
45	12.4
46	13.0
47	13.6
48	14.4
49	15.3
50	16.2
51	17.3
52	18.4
53	19.6
54	20.7
55	21.8
56	22.9
57	23.7
58	24.4
59	24.8
60	25.1
61	25.2
62	25.2
63	24.9
64	24.3
65	23.5
66	22.6
67	21.9
68	21.5
69	21.4
70	21.6
71	22.3
72	23.1
73	24.0
74	24.7
75	25.2
76	25.6
77	26.0
78	26.5
79	27.2
80	27.9
81	28.4
82	28.2
83	27.5
84	26.8
85	26.5
86	26.5
87	27.0
88	27.7
89	28.3
90	28.9
91	29.3
92	29.5
93	29.4
94	29.3
95	29.5
96	30.0
97	30.7
98	31.5
99	32.3
100	33.4
101	35.1
102	36.5
103	36.1
104	34.4
105	32.9
106	31.8
107	30.6
108	29.1
109	27.5
110	26.3
111	25.4
112	24.9
113	24.7
114	24.6
115	24.5
116	24.4
117	24.2
118	24.0
119	23.6
120	23.3
121	23.0
122	22.8
123	22.8
124	23.0
125	23.3
126	23.4
127	23.0
128	21.9
129	20.3
130	18.6
131	17.0
132	15.6
133	14.5
134	13.7
135	12.9
136	12.3
137	11.6
138	11.0
139	10.3
140	9.8
141	9.3
142	9.0
143	9.0
144	9.2
145	9.6
146	10.1
147	10.8
148	11.4
149	12.1
150	12.8
151	13.9
152	15.5
153	17.9
154	21.1
155	21.4
156	17.6
157	14.1
158	11.5
159	9.5
160	8.0
161	6.7
162	5.6
163	4.5
164	3.5
165	2.6
166	1.7
167	1.1
168	.5
169	.1
170	.2
171	.3
172	.5
173	.5
174	.4
175	.3
176	.0
177	.3
178	.7
179	1.2
180	1.7
181	2.2
182	2.8
183	3.5
184	4.2
185	5.0
186	5.9
187	6.8
188	7.7
189	8.3
190	8.9
191	9.3
192	9.7
193	10.3
194	11.0
195	11.7
196	12.5
197	13.3
198	13.9
199	14.6
200	15.5
201	16.7
202	18.2
203	20.1
204	21.9
205	23.1
206	23.2
207	22.6
208	21.8
209	21.0
210	20.4
211	20.0
212	19.8
213	19.7
214	19.7
215	19.7
216	19.6
217	19.4
218	19.0
219	18.6
220	18.1
221	17.7
222	17.3
223	16.9
224	16.5
225	16.0
226	15.4
227	14.8
228	14.3
229	14.0
230	13.8
231	13.8
232	13.9
233	13.9
234	14.0
235	14.0
236	14.0
237	14.0
238	14.1
239	14.4
240	14.9
241	15.8
242	16.9
243	18.2
244	19.4
245	20.1
246	20.3
247	19.8
248	18.9
249	18.1
250	17.5
251	17.2
252	17.2
253	17.3
254	17.2
255	17.0
256	16.8
257	16.6
258	16.5
259	16.4
260	16.1
261	15.7
262	15.2
263	14.7
264	14.2
265	13.6
266	13.1
267	12.5
268	12.1
269	11.9
270	11.8
271	12.0
272	12.5
273	13.2
274	14.1
275	15.2
276	16.2
277	17.0
278	17.5
279	17.6
280	17.6
281	17.5
282	17.3
283	17.2
284	17.3
285	17.6
286	18.2
287	19.2
288	20.5
289	22.0
290	23.7
291	25.7
292	27.1
293	26.3
294	23.7
295	21.2
296	19.0
297	17.4
298	16.2
299	15.4
300	14.9
301	14.7
302	14.6
303	14.5
304	14.5
305	14.4
306	14.3
307	14.2
308	14.3
309	14.4
310	14.7
311	15.1
312	15.5
313	15.8
314	16.2
315	16.5
316	16.7
317	16.9
318	17.0
319	16.9
320	16.5
321	15.8
322	15.0
323	14.2
324	13.6
325	13.2
326	13.1
327	13.3
328	13.7
329	14.4
330	15.2
331	15.9
332	16.2
333	16.0
334	15.3
335	14.4
336	13.5
337	12.7
338	12.1
339	11.6
340	11.4
341	11.3
342	11.5
343	11.9
344	12.6
345	13.6
346	15.0
347	17.2
348	20.4
349	24.3
350	22.8
351	17.8
352	14.0
353	11.1
354	8.8
355	7.0
356	5.5
357	4.2
358	3.1
359	2.2
