VERSION 2.0
NAME VVSSP-360S-F, Tilt 0, Freq 5625
GAIN 4.2
HOR_LOBE
0	3.3
1	3.2
2	3.0
3	2.7
4	2.5
5	2.3
6	2.2
7	2.0
8	2.0
9	1.9
10	1.8
11	1.8
12	1.8
13	1.9
14	2.1
15	2.4
16	2.6
17	2.8
18	3.0
19	3.0
20	3.0
21	3.0
22	3.1
23	3.3
24	3.4
25	3.6
26	3.7
27	3.9
28	4.0
29	4.1
30	4.2
31	4.4
32	4.6
33	4.9
34	5.1
35	5.4
36	5.6
37	5.9
38	6.1
39	6.3
40	6.6
41	6.7
42	6.8
43	6.8
44	6.7
45	6.6
46	6.3
47	6.0
48	5.7
49	5.4
50	5.0
51	4.8
52	4.6
53	4.4
54	4.4
55	4.4
56	4.4
57	4.4
58	4.5
59	4.5
60	4.6
61	4.7
62	4.8
63	4.9
64	5.1
65	5.2
66	5.4
67	5.6
68	5.7
69	5.8
70	5.9
71	6.1
72	6.2
73	6.4
74	6.6
75	6.8
76	6.9
77	6.9
78	6.9
79	7.0
80	7.0
81	7.0
82	7.0
83	7.0
84	6.9
85	6.8
86	6.5
87	5.9
88	5.1
89	4.2
90	3.3
91	2.4
92	1.7
93	1.1
94	.7
95	.3
96	.1
97	.0
98	.1
99	.2
100	.5
101	.7
102	.9
103	1.0
104	1.0
105	1.1
106	1.1
107	1.3
108	1.6
109	1.9
110	2.2
111	2.4
112	2.5
113	2.6
114	2.6
115	2.7
116	2.9
117	3.1
118	3.4
119	3.8
120	4.2
121	4.6
122	5.0
123	5.6
124	6.3
125	7.2
126	8.3
127	9.6
128	11.2
129	13.2
130	15.4
131	17.2
132	17.1
133	15.2
134	13.0
135	11.0
136	9.5
137	8.4
138	7.5
139	6.9
140	6.5
141	6.2
142	6.0
143	5.9
144	5.8
145	5.8
146	5.7
147	5.6
148	5.4
149	5.1
150	4.7
151	4.5
152	4.3
153	4.1
154	4.0
155	3.9
156	3.7
157	3.6
158	3.4
159	3.3
160	3.2
161	3.2
162	3.3
163	3.4
164	3.6
165	3.8
166	3.9
167	4.1
168	4.3
169	4.5
170	4.7
171	4.8
172	4.7
173	4.6
174	4.4
175	4.1
176	3.8
177	3.5
178	3.1
179	2.8
180	2.4
181	2.2
182	1.9
183	1.8
184	1.7
185	1.6
186	1.6
187	1.6
188	1.6
189	1.6
190	1.7
191	1.8
192	2.0
193	2.3
194	2.5
195	2.7
196	2.8
197	2.9
198	3.0
199	3.1
200	3.2
201	3.2
202	3.3
203	3.3
204	3.4
205	3.4
206	3.5
207	3.6
208	3.8
209	4.0
210	4.3
211	4.6
212	5.0
213	5.4
214	5.8
215	6.3
216	6.7
217	7.0
218	7.2
219	7.2
220	7.2
221	7.2
222	7.2
223	7.1
224	7.0
225	6.8
226	6.5
227	6.2
228	5.9
229	5.7
230	5.7
231	5.7
232	5.9
233	6.0
234	6.1
235	6.3
236	6.3
237	6.3
238	6.3
239	6.3
240	6.2
241	6.0
242	5.9
243	5.7
244	5.5
245	5.3
246	5.2
247	5.1
248	5.1
249	5.2
250	5.3
251	5.3
252	5.4
253	5.5
254	5.6
255	5.8
256	6.0
257	6.2
258	6.3
259	6.2
260	5.9
261	5.3
262	4.6
263	3.9
264	3.3
265	2.8
266	2.5
267	2.3
268	2.2
269	2.1
270	2.0
271	2.0
272	2.0
273	1.9
274	1.9
275	1.7
276	1.4
277	1.1
278	.7
279	.4
280	.2
281	.2
282	.4
283	.7
284	1.1
285	1.4
286	1.7
287	2.0
288	2.1
289	2.4
290	2.7
291	3.2
292	3.7
293	4.3
294	4.8
295	5.1
296	5.2
297	5.2
298	5.1
299	5.0
300	5.0
301	5.1
302	5.3
303	5.5
304	5.8
305	6.1
306	6.5
307	7.1
308	7.8
309	8.7
310	9.7
311	11.0
312	12.5
313	14.5
314	16.6
315	18.4
316	18.3
317	16.6
318	14.6
319	12.9
320	11.4
321	10.1
322	9.0
323	7.9
324	7.1
325	6.4
326	5.9
327	5.5
328	5.2
329	5.0
330	4.7
331	4.4
332	4.0
333	3.7
334	3.5
335	3.4
336	3.3
337	3.2
338	3.0
339	2.9
340	2.7
341	2.5
342	2.4
343	2.3
344	2.2
345	2.2
346	2.3
347	2.3
348	2.4
349	2.5
350	2.6
351	2.7
352	2.8
353	2.9
354	3.0
355	3.1
356	3.2
357	3.2
358	3.3
359	3.3
VER_LOBE
0	.8
1	1.0
2	1.1
3	1.1
4	1.2
5	1.4
6	1.8
7	2.0
8	2.3
9	2.6
10	3.1
11	3.5
12	4.2
13	5.0
14	5.5
15	5.7
16	6.1
17	6.9
18	8.0
19	9.1
20	10.8
21	13.6
22	17.9
23	23.7
24	29.7
25	28.2
26	23.7
27	21.5
28	20.2
29	19.4
30	20.0
31	23.3
32	22.0
33	16.0
34	12.5
35	10.9
36	10.4
37	10.8
38	11.8
39	13.2
40	14.0
41	14.0
42	14.0
43	14.2
44	13.8
45	12.5
46	11.3
47	10.5
48	10.2
49	10.3
50	10.8
51	11.8
52	13.1
53	14.7
54	16.2
55	16.2
56	14.1
57	11.9
58	10.5
59	9.8
60	9.5
61	9.5
62	9.9
63	10.5
64	11.3
65	12.0
66	12.5
67	13.2
68	14.4
69	15.9
70	16.8
71	16.4
72	15.4
73	14.7
74	14.5
75	15.0
76	16.0
77	17.2
78	18.2
79	19.2
80	20.6
81	22.1
82	23.2
83	23.7
84	24.4
85	25.4
86	26.5
87	28.3
88	32.4
89	41.8
90	57.6
91	48.5
92	35.1
93	29.0
94	26.5
95	26.5
96	28.7
97	31.5
98	30.1
99	27.5
100	25.7
101	24.0
102	22.2
103	20.4
104	18.7
105	17.4
106	16.2
107	15.4
108	15.0
109	14.7
110	14.3
111	13.6
112	12.9
113	12.4
114	12.0
115	11.5
116	10.8
117	10.6
118	11.0
119	11.9
120	12.7
121	12.8
122	12.6
123	12.5
124	12.3
125	11.6
126	10.8
127	10.3
128	9.9
129	9.5
130	8.9
131	8.5
132	8.4
133	8.6
134	9.1
135	9.6
136	10.3
137	11.0
138	11.9
139	12.4
140	12.2
141	11.4
142	10.8
143	10.7
144	11.2
145	12.2
146	13.6
147	14.9
148	15.6
149	15.5
150	15.3
151	15.6
152	16.6
153	18.4
154	20.7
155	23.4
156	24.7
157	21.7
158	17.5
159	14.2
160	11.6
161	9.6
162	8.3
163	7.8
164	7.6
165	7.2
166	6.4
167	5.8
168	5.6
169	5.4
170	4.6
171	3.7
172	2.8
173	2.1
174	1.5
175	1.1
176	1.0
177	.9
178	.7
179	.4
180	.2
181	.3
182	.2
183	.1
184	.0
185	.2
186	.6
187	1.2
188	2.1
189	2.8
190	3.0
191	3.0
192	3.4
193	4.4
194	5.5
195	6.0
196	6.2
197	6.9
198	7.8
199	8.6
200	9.2
201	10.4
202	12.1
203	12.3
204	10.9
205	10.1
206	10.8
207	13.1
208	16.9
209	19.9
210	19.1
211	17.6
212	16.2
213	15.4
214	15.8
215	18.8
216	27.1
217	24.8
218	18.6
219	16.6
220	16.6
221	18.2
222	21.9
223	24.7
224	19.3
225	15.4
226	13.7
227	13.4
228	14.0
229	15.2
230	16.8
231	18.3
232	19.5
233	20.3
234	21.3
235	21.8
236	20.6
237	18.9
238	17.8
239	17.4
240	17.4
241	17.9
242	18.8
243	20.3
244	22.4
245	24.6
246	25.9
247	25.1
248	22.3
249	18.8
250	15.6
251	13.2
252	11.5
253	10.3
254	9.7
255	9.3
256	9.2
257	9.4
258	9.8
259	10.6
260	11.9
261	13.8
262	16.7
263	19.7
264	19.5
265	17.4
266	16.0
267	15.2
268	14.4
269	13.3
270	12.4
271	12.0
272	12.4
273	13.4
274	14.9
275	16.6
276	18.9
277	22.5
278	30.0
279	31.6
280	23.0
281	18.7
282	15.7
283	13.7
284	12.4
285	12.0
286	12.2
287	12.7
288	13.2
289	13.6
290	14.3
291	15.5
292	17.1
293	18.4
294	18.4
295	17.5
296	16.3
297	15.3
298	14.5
299	13.9
300	13.4
301	13.1
302	13.0
303	13.4
304	14.1
305	15.2
306	16.6
307	17.9
308	18.6
309	18.4
310	17.5
311	16.5
312	16.0
313	16.0
314	16.0
315	15.8
316	15.9
317	17.1
318	19.6
319	21.7
320	21.3
321	21.7
322	24.4
323	28.2
324	29.3
325	31.3
326	37.0
327	36.8
328	31.5
329	24.2
330	19.4
331	17.0
332	16.4
333	16.7
334	16.7
335	16.2
336	15.9
337	15.3
338	14.0
339	12.8
340	12.6
341	13.3
342	13.6
343	12.2
344	10.2
345	8.5
346	7.0
347	5.7
348	4.9
349	4.5
350	4.1
351	3.6
352	2.9
353	2.3
354	1.8
355	1.4
356	1.2
357	1.1
358	1.0
359	.8
