VERSION 2.0
NAME VVSSP-360S-F, Tilt 7, Freq 2400
GAIN 7.4
HOR_LOBE
0	.5
1	.5
2	.6
3	.6
4	.7
5	.7
6	.8
7	.8
8	.8
9	.8
10	.8
11	.7
12	.7
13	.6
14	.6
15	.5
16	.5
17	.4
18	.4
19	.3
20	.3
21	.2
22	.2
23	.1
24	.1
25	.0
26	.0
27	.1
28	.1
29	.1
30	.1
31	.2
32	.2
33	.2
34	.2
35	.2
36	.3
37	.3
38	.3
39	.3
40	.3
41	.3
42	.3
43	.3
44	.4
45	.4
46	.4
47	.4
48	.5
49	.5
50	.6
51	.7
52	.7
53	.8
54	.9
55	1.0
56	1.1
57	1.3
58	1.4
59	1.6
60	1.7
61	1.9
62	2.1
63	2.3
64	2.5
65	2.7
66	3.0
67	3.2
68	3.5
69	3.7
70	4.0
71	4.2
72	4.5
73	4.8
74	5.0
75	5.2
76	5.4
77	5.6
78	5.7
79	5.7
80	5.8
81	5.8
82	5.7
83	5.6
84	5.5
85	5.3
86	5.1
87	4.9
88	4.6
89	4.4
90	4.1
91	3.8
92	3.5
93	3.3
94	3.0
95	2.7
96	2.5
97	2.3
98	2.0
99	1.8
100	1.6
101	1.4
102	1.2
103	1.0
104	.9
105	.7
106	.6
107	.5
108	.3
109	.2
110	.1
111	.1
112	.0
113	.0
114	.1
115	.1
116	.1
117	.1
118	.1
119	.1
120	.1
121	.1
122	.1
123	.1
124	.0
125	.0
126	.1
127	.2
128	.2
129	.3
130	.4
131	.5
132	.6
133	.7
134	.7
135	.8
136	.9
137	1.0
138	1.1
139	1.2
140	1.4
141	1.5
142	1.6
143	1.7
144	1.9
145	2.0
146	2.2
147	2.3
148	2.4
149	2.5
150	2.7
151	2.8
152	2.9
153	3.0
154	3.1
155	3.2
156	3.3
157	3.4
158	3.4
159	3.5
160	3.5
161	3.5
162	3.5
163	3.5
164	3.5
165	3.5
166	3.5
167	3.4
168	3.3
169	3.3
170	3.2
171	3.1
172	3.0
173	2.9
174	2.8
175	2.7
176	2.6
177	2.5
178	2.4
179	2.3
180	2.2
181	2.1
182	2.0
183	1.9
184	1.8
185	1.7
186	1.6
187	1.5
188	1.4
189	1.3
190	1.3
191	1.2
192	1.1
193	1.0
194	1.0
195	.9
196	.9
197	.8
198	.7
199	.7
200	.6
201	.6
202	.5
203	.5
204	.4
205	.4
206	.4
207	.4
208	.3
209	.3
210	.3
211	.3
212	.3
213	.3
214	.3
215	.3
216	.4
217	.4
218	.5
219	.5
220	.6
221	.7
222	.8
223	.9
224	1.0
225	1.2
226	1.3
227	1.5
228	1.7
229	1.9
230	2.1
231	2.3
232	2.5
233	2.8
234	3.0
235	3.3
236	3.6
237	3.9
238	4.2
239	4.5
240	4.8
241	5.1
242	5.4
243	5.6
244	5.9
245	6.1
246	6.2
247	6.3
248	6.3
249	6.3
250	6.2
251	6.1
252	5.9
253	5.7
254	5.4
255	5.1
256	4.8
257	4.5
258	4.2
259	3.9
260	3.6
261	3.3
262	3.0
263	2.7
264	2.5
265	2.2
266	2.0
267	1.8
268	1.6
269	1.4
270	1.2
271	1.1
272	.9
273	.8
274	.7
275	.5
276	.5
277	.4
278	.3
279	.3
280	.2
281	.2
282	.2
283	.2
284	.1
285	.1
286	.1
287	.1
288	.1
289	.1
290	.1
291	.1
292	.1
293	.1
294	.1
295	.1
296	.1
297	.1
298	.1
299	.0
300	.0
301	.0
302	.1
303	.1
304	.2
305	.2
306	.3
307	.3
308	.4
309	.4
310	.4
311	.4
312	.5
313	.5
314	.5
315	.5
316	.5
317	.5
318	.4
319	.4
320	.4
321	.3
322	.2
323	.1
324	.1
325	.0
326	.1
327	.2
328	.4
329	.5
330	.6
331	.7
332	.8
333	.9
334	1.0
335	1.1
336	1.2
337	1.2
338	1.3
339	1.3
340	1.3
341	1.3
342	1.3
343	1.2
344	1.2
345	1.1
346	1.0
347	.9
348	.8
349	.7
350	.6
351	.5
352	.3
353	.2
354	.1
355	.0
356	.1
357	.2
358	.3
359	.4
VER_LOBE
0	2.7
1	2.0
2	1.5
3	1.0
4	.6
5	.4
6	.2
7	.2
8	.2
9	.4
10	.6
11	1.0
12	1.4
13	1.8
14	2.3
15	2.9
16	3.5
17	4.2
18	5.0
19	5.9
20	6.9
21	8.1
22	9.4
23	10.8
24	12.3
25	13.7
26	14.9
27	15.7
28	15.8
29	15.4
30	14.8
31	14.3
32	13.9
33	13.6
34	13.5
35	13.4
36	13.5
37	13.6
38	13.7
39	13.9
40	14.2
41	14.6
42	15.1
43	15.7
44	16.3
45	17.0
46	17.7
47	18.3
48	19.0
49	19.7
50	20.5
51	21.4
52	22.3
53	23.3
54	24.3
55	25.0
56	25.3
57	25.2
58	24.6
59	23.9
60	23.4
61	23.1
62	23.3
63	23.9
64	25.0
65	26.5
66	28.1
67	29.6
68	30.4
69	30.6
70	30.4
71	29.9
72	29.5
73	29.1
74	28.7
75	28.3
76	27.9
77	27.9
78	28.4
79	29.6
80	31.6
81	34.1
82	35.6
83	34.9
84	33.5
85	32.2
86	31.0
87	29.9
88	28.9
89	28.2
90	28.0
91	28.3
92	29.3
93	30.7
94	32.5
95	33.4
96	32.1
97	29.8
98	27.8
99	26.4
100	25.4
101	24.7
102	24.2
103	23.6
104	22.9
105	22.1
106	21.3
107	20.6
108	20.0
109	19.6
110	19.3
111	19.2
112	19.2
113	19.4
114	19.6
115	19.7
116	19.9
117	19.9
118	19.8
119	19.5
120	19.2
121	18.9
122	18.6
123	18.4
124	18.4
125	18.4
126	18.4
127	18.3
128	18.1
129	17.8
130	17.4
131	17.1
132	16.8
133	16.5
134	16.3
135	16.1
136	15.9
137	15.8
138	15.7
139	15.7
140	15.7
141	15.8
142	16.0
143	16.3
144	16.7
145	17.2
146	17.8
147	18.3
148	18.7
149	18.7
150	18.3
151	17.4
152	16.2
153	14.8
154	13.3
155	11.7
156	10.1
157	8.6
158	7.2
159	5.9
160	4.9
161	3.9
162	3.1
163	2.4
164	1.8
165	1.3
166	.9
167	.5
168	.2
169	.0
170	.1
171	.2
172	.1
173	.0
174	.3
175	.6
176	1.0
177	1.5
178	2.1
179	2.8
180	3.7
181	4.6
182	5.7
183	6.9
184	8.1
185	9.4
186	10.8
187	12.2
188	13.6
189	15.1
190	16.3
191	17.2
192	17.4
193	17.3
194	17.2
195	17.1
196	17.4
197	17.8
198	18.3
199	18.8
200	19.2
201	19.6
202	20.1
203	20.8
204	21.9
205	23.3
206	24.5
207	24.9
208	24.0
209	22.6
210	21.4
211	20.5
212	20.0
213	19.9
214	19.9
215	20.1
216	20.2
217	20.1
218	19.9
219	19.6
220	19.4
221	19.3
222	19.4
223	19.8
224	20.4
225	21.1
226	21.7
227	22.0
228	21.9
229	21.3
230	20.5
231	19.5
232	18.7
233	18.0
234	17.5
235	17.1
236	16.9
237	16.9
238	16.9
239	17.1
240	17.4
241	17.8
242	18.1
243	18.4
244	18.6
245	18.9
246	19.1
247	19.1
248	18.8
249	18.3
250	17.7
251	17.1
252	16.8
253	16.7
254	16.9
255	17.2
256	17.6
257	18.0
258	18.2
259	18.2
260	18.0
261	17.6
262	17.3
263	17.0
264	16.8
265	16.7
266	16.6
267	16.5
268	16.4
269	16.3
270	16.4
271	16.8
272	17.4
273	18.3
274	19.3
275	20.1
276	20.3
277	20.2
278	20.3
279	20.9
280	22.1
281	23.9
282	25.9
283	27.2
284	27.3
285	26.8
286	26.0
287	24.9
288	23.8
289	22.9
290	22.7
291	23.1
292	23.9
293	24.7
294	24.5
295	23.5
296	22.5
297	21.8
298	21.5
299	21.4
300	21.3
301	21.1
302	20.8
303	20.6
304	20.5
305	20.8
306	21.3
307	22.2
308	23.4
309	24.4
310	24.7
311	23.9
312	22.8
313	21.7
314	20.9
315	20.5
316	20.3
317	20.1
318	20.0
319	19.9
320	19.7
321	19.5
322	19.3
323	19.2
324	19.4
325	19.7
326	20.2
327	21.1
328	22.3
329	23.6
330	24.7
331	24.5
332	22.7
333	20.4
334	18.3
335	16.4
336	14.9
337	13.6
338	12.6
339	11.8
340	11.3
341	11.0
342	10.9
343	11.2
344	11.6
345	12.3
346	13.3
347	14.5
348	15.9
349	17.3
350	17.8
351	16.9
352	14.8
353	12.5
354	10.3
355	8.4
356	6.8
357	5.5
358	4.4
359	3.5
