VERSION 2.0
NAME VVSSP-360S-F, Tilt 7, Freq 2690
GAIN 8.1
HOR_LOBE
0	1.3
1	1.2
2	1.1
3	1.1
4	1.0
5	.9
6	.8
7	.7
8	.6
9	.5
10	.4
11	.4
12	.3
13	.3
14	.2
15	.2
16	.1
17	.1
18	.0
19	.1
20	.1
21	.1
22	.1
23	.1
24	.1
25	.1
26	.1
27	.1
28	.0
29	.0
30	.0
31	.0
32	.1
33	.1
34	.2
35	.2
36	.3
37	.4
38	.4
39	.5
40	.6
41	.7
42	.8
43	.9
44	1.0
45	1.1
46	1.2
47	1.3
48	1.5
49	1.6
50	1.7
51	1.8
52	2.0
53	2.1
54	2.2
55	2.4
56	2.5
57	2.6
58	2.8
59	2.9
60	3.0
61	3.2
62	3.3
63	3.4
64	3.5
65	3.6
66	3.7
67	3.8
68	3.8
69	3.9
70	4.0
71	4.0
72	4.0
73	4.0
74	4.0
75	4.0
76	3.9
77	3.8
78	3.7
79	3.6
80	3.5
81	3.4
82	3.2
83	3.1
84	2.9
85	2.8
86	2.6
87	2.4
88	2.3
89	2.1
90	1.9
91	1.8
92	1.6
93	1.5
94	1.3
95	1.2
96	1.0
97	.9
98	.8
99	.7
100	.7
101	.6
102	.5
103	.5
104	.4
105	.4
106	.4
107	.3
108	.3
109	.3
110	.4
111	.4
112	.5
113	.5
114	.6
115	.6
116	.7
117	.8
118	.9
119	1.0
120	1.1
121	1.2
122	1.3
123	1.4
124	1.6
125	1.7
126	1.9
127	2.0
128	2.1
129	2.2
130	2.3
131	2.4
132	2.5
133	2.6
134	2.7
135	2.8
136	2.8
137	2.9
138	3.0
139	3.1
140	3.1
141	3.2
142	3.2
143	3.2
144	3.2
145	3.3
146	3.3
147	3.3
148	3.3
149	3.3
150	3.3
151	3.3
152	3.4
153	3.4
154	3.3
155	3.3
156	3.2
157	3.2
158	3.1
159	3.0
160	2.9
161	2.8
162	2.6
163	2.5
164	2.4
165	2.3
166	2.2
167	2.0
168	1.9
169	1.7
170	1.6
171	1.4
172	1.2
173	1.1
174	.9
175	.8
176	.7
177	.6
178	.4
179	.3
180	.2
181	.1
182	.0
183	.0
184	.1
185	.2
186	.3
187	.3
188	.4
189	.4
190	.4
191	.5
192	.5
193	.6
194	.6
195	.7
196	.7
197	.8
198	.8
199	.8
200	.8
201	.8
202	.9
203	.9
204	.9
205	.9
206	.9
207	.9
208	.8
209	.8
210	.8
211	.8
212	.8
213	.8
214	.8
215	.8
216	.7
217	.7
218	.6
219	.6
220	.5
221	.5
222	.4
223	.3
224	.3
225	.2
226	.1
227	.0
228	.1
229	.2
230	.2
231	.3
232	.4
233	.5
234	.7
235	.8
236	.9
237	1.0
238	1.2
239	1.3
240	1.4
241	1.5
242	1.6
243	1.7
244	1.9
245	2.0
246	2.1
247	2.2
248	2.3
249	2.3
250	2.4
251	2.5
252	2.5
253	2.6
254	2.7
255	2.7
256	2.8
257	2.8
258	2.8
259	2.7
260	2.7
261	2.7
262	2.6
263	2.6
264	2.5
265	2.5
266	2.5
267	2.4
268	2.3
269	2.3
270	2.2
271	2.1
272	2.0
273	2.0
274	1.9
275	1.8
276	1.7
277	1.6
278	1.6
279	1.5
280	1.4
281	1.3
282	1.2
283	1.2
284	1.1
285	1.0
286	.9
287	.9
288	.8
289	.7
290	.6
291	.6
292	.5
293	.4
294	.4
295	.3
296	.3
297	.3
298	.3
299	.2
300	.2
301	.2
302	.2
303	.2
304	.1
305	.1
306	.1
307	.1
308	.0
309	.0
310	.0
311	.0
312	.1
313	.1
314	.1
315	.1
316	.1
317	.1
318	.1
319	.1
320	.1
321	.1
322	.0
323	.0
324	.0
325	.0
326	.1
327	.1
328	.1
329	.2
330	.2
331	.3
332	.3
333	.4
334	.5
335	.6
336	.7
337	.8
338	.8
339	.9
340	1.0
341	1.1
342	1.1
343	1.2
344	1.3
345	1.3
346	1.4
347	1.5
348	1.5
349	1.5
350	1.6
351	1.6
352	1.6
353	1.6
354	1.6
355	1.5
356	1.5
357	1.5
358	1.4
359	1.3
VER_LOBE
0	5.2
1	4.0
2	3.0
3	2.1
4	1.4
5	.9
6	.5
7	.2
8	.1
9	.0
10	.0
11	.0
12	.2
13	.5
14	.8
15	1.3
16	2.0
17	2.7
18	3.6
19	4.6
20	5.7
21	6.9
22	8.2
23	9.8
24	11.7
25	13.9
26	16.8
27	20.7
28	26.7
29	32.1
30	26.0
31	21.8
32	19.2
33	17.5
34	16.4
35	15.6
36	15.3
37	15.2
38	15.3
39	15.5
40	15.9
41	16.2
42	16.7
43	17.4
44	18.2
45	19.0
46	19.8
47	20.2
48	20.0
49	19.5
50	19.0
51	18.7
52	18.6
53	18.7
54	18.9
55	19.1
56	19.3
57	19.3
58	19.4
59	19.7
60	20.2
61	21.2
62	22.3
63	23.5
64	24.3
65	24.3
66	24.0
67	23.7
68	23.6
69	23.8
70	24.1
71	24.4
72	24.4
73	24.4
74	24.5
75	25.0
76	26.3
77	28.4
78	30.9
79	32.6
80	32.6
81	31.7
82	30.6
83	29.5
84	28.7
85	28.8
86	30.1
87	32.7
88	35.0
89	33.9
90	32.0
91	31.4
92	32.0
93	32.8
94	32.7
95	32.1
96	32.0
97	32.7
98	34.2
99	35.7
100	36.2
101	34.8
102	32.0
103	28.9
104	26.6
105	25.0
106	24.2
107	23.9
108	24.3
109	24.9
110	25.7
111	26.4
112	26.6
113	26.3
114	25.9
115	25.6
116	25.5
117	25.4
118	25.3
119	24.9
120	24.4
121	24.0
122	23.5
123	22.9
124	22.1
125	21.1
126	20.0
127	18.8
128	17.6
129	16.4
130	15.3
131	14.3
132	13.2
133	12.2
134	11.3
135	10.5
136	9.9
137	9.5
138	9.1
139	9.0
140	8.8
141	8.7
142	8.6
143	8.4
144	8.4
145	8.4
146	8.7
147	9.2
148	10.0
149	10.9
150	12.0
151	13.0
152	13.5
153	13.4
154	12.5
155	11.2
156	9.7
157	8.3
158	7.0
159	5.9
160	4.9
161	4.1
162	3.3
163	2.7
164	2.1
165	1.7
166	1.3
167	1.0
168	.8
169	.7
170	.7
171	.7
172	.9
173	1.1
174	1.4
175	1.8
176	2.4
177	3.1
178	3.9
179	4.8
180	5.9
181	7.0
182	8.2
183	9.5
184	10.8
185	12.2
186	13.6
187	15.1
188	16.6
189	18.2
190	19.7
191	20.9
192	21.5
193	21.2
194	20.1
195	18.7
196	17.5
197	16.5
198	15.9
199	15.6
200	15.6
201	15.8
202	16.1
203	16.5
204	16.7
205	16.9
206	16.9
207	16.7
208	16.1
209	15.1
210	14.1
211	13.0
212	12.2
213	11.5
214	11.0
215	10.7
216	10.5
217	10.3
218	10.2
219	10.2
220	10.1
221	10.1
222	10.2
223	10.4
224	10.6
225	10.9
226	11.2
227	11.4
228	11.8
229	12.2
230	12.8
231	13.7
232	14.8
233	16.1
234	17.2
235	17.7
236	17.4
237	16.7
238	16.0
239	15.2
240	14.5
241	13.7
242	12.9
243	12.3
244	12.0
245	12.3
246	13.0
247	14.1
248	15.4
249	16.0
250	15.3
251	13.7
252	11.9
253	10.4
254	9.3
255	8.8
256	8.8
257	9.2
258	9.9
259	10.5
260	10.7
261	10.4
262	9.8
263	9.1
264	8.5
265	8.2
266	8.1
267	8.2
268	8.6
269	9.0
270	9.6
271	10.3
272	11.1
273	12.0
274	12.9
275	14.0
276	15.2
277	16.6
278	17.7
279	17.9
280	17.3
281	16.6
282	15.9
283	15.3
284	14.9
285	15.1
286	15.9
287	17.3
288	18.4
289	18.5
290	18.0
291	17.7
292	17.9
293	18.7
294	19.8
295	21.2
296	23.5
297	27.7
298	35.4
299	31.6
300	26.5
301	24.0
302	22.8
303	22.0
304	21.2
305	20.5
306	19.9
307	19.5
308	19.3
309	19.1
310	18.9
311	18.3
312	17.5
313	16.7
314	16.2
315	15.9
316	16.1
317	16.4
318	16.7
319	16.9
320	17.2
321	17.4
322	17.8
323	18.0
324	17.9
325	17.2
326	16.3
327	15.3
328	14.6
329	14.1
330	13.8
331	13.7
332	13.7
333	13.7
334	13.7
335	13.8
336	14.0
337	14.5
338	15.2
339	16.3
340	17.7
341	19.2
342	20.8
343	22.0
344	22.5
345	21.9
346	20.6
347	19.2
348	18.2
349	17.8
350	18.0
351	18.9
352	20.1
353	20.2
354	17.8
355	14.8
356	12.1
357	9.9
358	8.1
359	6.6
