VERSION 2.0
NAME VVSSP-360S-F, Tilt 0, Freq 5225
GAIN 3.4
HOR_LOBE
0	.2
1	.3
2	.4
3	.4
4	.4
5	.4
6	.4
7	.5
8	.6
9	.8
10	.9
11	1.1
12	1.3
13	1.4
14	1.5
15	1.6
16	1.8
17	2.0
18	2.3
19	2.6
20	2.9
21	3.1
22	3.3
23	3.5
24	3.7
25	3.9
26	4.1
27	4.4
28	4.8
29	5.2
30	5.7
31	6.2
32	6.8
33	7.4
34	8.1
35	8.9
36	9.6
37	10.3
38	10.8
39	11.0
40	10.9
41	10.7
42	10.2
43	9.6
44	8.9
45	8.2
46	7.3
47	6.6
48	5.9
49	5.4
50	5.0
51	4.8
52	4.6
53	4.5
54	4.5
55	4.4
56	4.3
57	4.2
58	4.2
59	4.2
60	4.4
61	4.6
62	4.8
63	5.1
64	5.3
65	5.4
66	5.5
67	5.4
68	5.3
69	5.1
70	5.0
71	4.8
72	4.7
73	4.6
74	4.5
75	4.3
76	4.1
77	3.8
78	3.6
79	3.3
80	3.1
81	3.0
82	3.0
83	3.1
84	3.3
85	3.5
86	3.6
87	3.5
88	3.2
89	2.8
90	2.3
91	1.8
92	1.4
93	1.2
94	1.1
95	1.2
96	1.5
97	1.8
98	2.2
99	2.5
100	2.8
101	3.0
102	3.1
103	3.1
104	3.1
105	3.1
106	3.2
107	3.3
108	3.5
109	3.8
110	4.2
111	4.5
112	4.9
113	5.3
114	5.6
115	5.9
116	6.3
117	6.9
118	7.6
119	8.5
120	9.5
121	10.8
122	12.2
123	13.7
124	15.3
125	16.8
126	18.0
127	17.9
128	16.4
129	14.3
130	12.2
131	10.5
132	9.0
133	7.8
134	6.8
135	6.0
136	5.3
137	4.7
138	4.2
139	3.8
140	3.5
141	3.3
142	3.2
143	3.1
144	3.1
145	3.1
146	3.2
147	3.2
148	3.2
149	3.2
150	3.2
151	3.2
152	3.2
153	3.2
154	3.1
155	3.1
156	3.0
157	2.9
158	2.8
159	2.7
160	2.5
161	2.4
162	2.2
163	2.1
164	1.9
165	1.8
166	1.7
167	1.6
168	1.5
169	1.4
170	1.4
171	1.4
172	1.4
173	1.4
174	1.4
175	1.5
176	1.6
177	1.6
178	1.6
179	1.5
180	1.5
181	1.4
182	1.4
183	1.4
184	1.5
185	1.6
186	1.8
187	2.0
188	2.1
189	2.2
190	2.3
191	2.4
192	2.4
193	2.6
194	2.7
195	2.9
196	3.0
197	3.2
198	3.3
199	3.5
200	3.6
201	3.8
202	4.1
203	4.4
204	4.8
205	5.3
206	5.9
207	6.7
208	7.5
209	8.4
210	9.3
211	10.3
212	11.2
213	12.1
214	12.7
215	13.1
216	13.1
217	12.6
218	11.7
219	10.6
220	9.4
221	8.1
222	7.0
223	6.0
224	5.2
225	4.5
226	3.9
227	3.4
228	3.1
229	2.8
230	2.6
231	2.4
232	2.4
233	2.4
234	2.5
235	2.6
236	2.8
237	3.1
238	3.3
239	3.5
240	3.7
241	3.8
242	3.9
243	4.1
244	4.2
245	4.2
246	4.3
247	4.2
248	4.1
249	3.9
250	3.7
251	3.5
252	3.2
253	3.1
254	2.9
255	2.9
256	2.9
257	3.0
258	3.0
259	3.0
260	2.9
261	2.7
262	2.4
263	2.0
264	1.6
265	1.3
266	1.1
267	1.0
268	1.1
269	1.3
270	1.5
271	1.8
272	2.0
273	2.1
274	1.9
275	1.6
276	1.2
277	.8
278	.4
279	.2
280	.1
281	.1
282	.3
283	.4
284	.6
285	.7
286	.8
287	.8
288	.9
289	1.0
290	1.1
291	1.2
292	1.3
293	1.5
294	1.6
295	1.8
296	1.9
297	2.1
298	2.2
299	2.4
300	2.6
301	2.9
302	3.2
303	3.6
304	4.0
305	4.6
306	5.2
307	6.0
308	7.0
309	8.2
310	9.7
311	11.7
312	14.5
313	19.0
314	29.0
315	25.3
316	17.4
317	13.3
318	10.6
319	8.5
320	6.9
321	5.5
322	4.4
323	3.5
324	2.7
325	2.0
326	1.6
327	1.2
328	.9
329	.7
330	.5
331	.4
332	.3
333	.2
334	.1
335	.1
336	.1
337	.2
338	.2
339	.3
340	.4
341	.5
342	.5
343	.4
344	.3
345	.2
346	.2
347	.1
348	.1
349	.1
350	.2
351	.2
352	.2
353	.2
354	.1
355	.0
356	.0
357	.0
358	.0
359	.1
VER_LOBE
0	.2
1	.3
2	.5
3	.7
4	1.0
5	1.2
6	1.4
7	1.8
8	2.2
9	2.7
10	3.2
11	3.6
12	3.9
13	4.2
14	4.4
15	4.8
16	5.1
17	5.4
18	5.4
19	5.6
20	6.0
21	6.4
22	6.7
23	6.9
24	7.1
25	7.7
26	8.4
27	9.4
28	10.8
29	12.3
30	13.4
31	13.8
32	14.2
33	15.3
34	16.7
35	18.1
36	19.6
37	21.7
38	25.8
39	37.9
40	30.0
41	22.2
42	18.6
43	16.9
44	16.2
45	15.8
46	15.0
47	14.0
48	13.2
49	12.7
50	12.2
51	11.5
52	10.8
53	10.4
54	10.4
55	10.6
56	10.9
57	11.3
58	11.7
59	12.0
60	12.2
61	12.4
62	12.7
63	13.0
64	12.9
65	12.6
66	12.3
67	12.4
68	13.1
69	14.5
70	16.3
71	18.3
72	20.0
73	21.0
74	21.3
75	21.3
76	21.5
77	21.9
78	22.4
79	22.9
80	23.9
81	25.6
82	28.1
83	31.1
84	33.8
85	35.2
86	35.0
87	33.6
88	31.9
89	30.7
90	30.3
91	31.0
92	33.3
93	36.3
94	34.2
95	31.6
96	31.5
97	32.8
98	31.3
99	28.7
100	27.7
101	27.7
102	27.1
103	25.4
104	23.6
105	22.4
106	21.6
107	20.6
108	19.2
109	18.0
110	17.0
111	16.5
112	16.3
113	16.1
114	16.1
115	16.0
116	15.7
117	15.0
118	14.1
119	13.2
120	12.4
121	11.9
122	11.4
123	11.1
124	10.9
125	10.9
126	11.1
127	11.4
128	11.6
129	11.7
130	11.9
131	12.3
132	12.7
133	13.2
134	13.5
135	13.8
136	14.4
137	15.5
138	17.1
139	19.0
140	21.3
141	24.4
142	28.6
143	29.1
144	25.5
145	23.4
146	23.1
147	23.3
148	22.4
149	20.3
150	18.6
151	17.5
152	16.6
153	15.7
154	14.8
155	14.3
156	14.1
157	13.8
158	12.9
159	11.6
160	10.3
161	9.1
162	8.1
163	7.5
164	7.2
165	6.9
166	6.2
167	5.3
168	4.5
169	3.9
170	3.5
171	3.2
172	2.7
173	2.2
174	1.7
175	1.3
176	1.0
177	1.0
178	1.2
179	1.5
180	1.6
181	1.5
182	1.3
183	1.2
184	1.4
185	1.8
186	2.1
187	2.1
188	2.0
189	1.8
190	2.0
191	2.5
192	3.2
193	3.9
194	4.3
195	4.4
196	4.6
197	4.9
198	5.3
199	5.8
200	6.5
201	7.5
202	8.9
203	10.5
204	11.7
205	12.0
206	12.4
207	13.6
208	15.5
209	17.1
210	16.7
211	15.6
212	15.1
213	15.1
214	15.3
215	15.6
216	16.2
217	16.7
218	17.2
219	17.9
220	19.0
221	20.7
222	22.3
223	22.7
224	21.4
225	19.5
226	18.1
227	17.5
228	17.7
229	18.4
230	19.2
231	19.7
232	20.2
233	21.0
234	22.0
235	22.6
236	22.1
237	20.8
238	19.0
239	17.3
240	16.0
241	15.3
242	15.2
243	15.5
244	16.0
245	16.4
246	16.8
247	17.2
248	17.6
249	18.0
250	18.1
251	18.1
252	17.9
253	17.6
254	17.3
255	17.3
256	17.6
257	18.3
258	19.2
259	19.8
260	19.6
261	18.5
262	17.1
263	16.1
264	15.7
265	15.7
266	16.0
267	16.1
268	16.1
269	16.1
270	16.3
271	16.9
272	17.8
273	18.6
274	19.3
275	19.8
276	20.4
277	21.0
278	21.8
279	22.9
280	24.3
281	25.5
282	26.1
283	25.7
284	24.8
285	24.0
286	23.4
287	22.5
288	21.5
289	20.3
290	19.3
291	18.7
292	18.5
293	18.4
294	18.1
295	17.5
296	16.7
297	15.9
298	15.5
299	15.4
300	15.6
301	16.1
302	16.7
303	17.3
304	18.1
305	18.9
306	19.7
307	20.4
308	20.6
309	20.5
310	19.9
311	19.4
312	19.1
313	19.2
314	19.4
315	19.5
316	19.2
317	18.8
318	18.6
319	18.7
320	18.9
321	19.1
322	19.1
323	19.1
324	19.2
325	19.6
326	20.6
327	22.7
328	25.5
329	25.5
330	22.2
331	19.4
332	17.4
333	16.1
334	15.1
335	14.1
336	12.4
337	9.9
338	7.5
339	5.7
340	4.6
341	4.2
342	4.0
343	3.7
344	3.2
345	2.8
346	2.4
347	2.0
348	1.6
349	1.4
350	1.2
351	1.2
352	1.0
353	.7
354	.5
355	.3
356	.1
357	.0
358	.0
359	.1
