VERSION 2.0
NAME VVSSP-360S-F, Tilt 0, Freq 5875
GAIN 4.7
HOR_LOBE
0	5.0
1	4.2
2	3.5
3	3.0
4	2.7
5	2.5
6	2.3
7	2.1
8	1.9
9	1.8
10	1.7
11	1.7
12	1.9
13	2.1
14	2.4
15	2.8
16	3.3
17	3.8
18	4.5
19	5.1
20	5.8
21	6.6
22	7.4
23	8.3
24	9.4
25	10.5
26	11.4
27	11.8
28	11.7
29	11.2
30	10.5
31	10.0
32	9.6
33	9.3
34	9.1
35	8.9
36	8.8
37	8.8
38	8.8
39	8.8
40	8.9
41	9.0
42	9.2
43	9.6
44	10.1
45	10.6
46	11.1
47	11.4
48	11.8
49	12.2
50	12.8
51	13.4
52	14.0
53	14.2
54	13.9
55	13.4
56	13.0
57	12.8
58	12.7
59	12.4
60	11.8
61	11.0
62	10.2
63	9.6
64	9.4
65	9.4
66	9.6
67	9.8
68	9.8
69	9.5
70	9.1
71	8.9
72	8.8
73	9.0
74	9.5
75	10.0
76	10.5
77	10.8
78	10.9
79	10.8
80	10.4
81	9.8
82	9.3
83	9.1
84	9.0
85	8.8
86	8.5
87	7.7
88	6.7
89	5.6
90	4.6
91	3.8
92	3.1
93	2.6
94	2.2
95	1.9
96	1.7
97	1.6
98	1.6
99	1.6
100	1.8
101	2.0
102	2.2
103	2.5
104	2.9
105	3.4
106	4.0
107	4.6
108	5.2
109	5.7
110	6.1
111	6.4
112	6.7
113	7.0
114	7.3
115	7.7
116	8.0
117	8.1
118	8.1
119	7.9
120	7.6
121	7.4
122	7.3
123	7.4
124	7.7
125	8.0
126	8.1
127	8.2
128	8.1
129	8.1
130	8.3
131	8.7
132	9.2
133	9.6
134	9.9
135	9.9
136	9.8
137	9.7
138	9.9
139	10.2
140	10.6
141	10.8
142	10.8
143	10.5
144	10.2
145	10.0
146	10.0
147	10.1
148	10.1
149	10.0
150	9.5
151	8.9
152	8.3
153	8.0
154	7.9
155	8.0
156	8.0
157	8.0
158	7.9
159	7.9
160	8.1
161	8.5
162	9.1
163	9.5
164	9.7
165	9.7
166	9.5
167	9.3
168	9.3
169	9.4
170	9.5
171	9.3
172	9.0
173	8.5
174	7.8
175	7.1
176	6.5
177	5.9
178	5.4
179	5.0
180	4.7
181	4.4
182	4.0
183	3.6
184	3.2
185	2.8
186	2.5
187	2.2
188	2.1
189	2.1
190	2.1
191	2.2
192	2.4
193	2.7
194	3.0
195	3.5
196	4.1
197	4.7
198	5.4
199	6.2
200	7.2
201	8.2
202	9.4
203	10.4
204	11.3
205	11.7
206	11.9
207	12.1
208	12.4
209	12.7
210	12.9
211	12.8
212	12.4
213	11.9
214	11.5
215	11.3
216	11.5
217	12.1
218	12.9
219	13.6
220	13.7
221	13.2
222	12.4
223	11.7
224	11.3
225	11.4
226	11.8
227	12.1
228	12.0
229	11.5
230	10.7
231	10.0
232	9.4
233	9.0
234	8.7
235	8.5
236	8.3
237	8.2
238	8.2
239	8.4
240	8.6
241	8.6
242	8.4
243	7.8
244	7.1
245	6.6
246	6.2
247	6.1
248	6.2
249	6.2
250	6.2
251	6.0
252	5.7
253	5.5
254	5.3
255	5.3
256	5.4
257	5.6
258	5.8
259	5.9
260	6.0
261	5.9
262	5.6
263	5.1
264	4.5
265	3.9
266	3.6
267	3.4
268	3.4
269	3.3
270	3.0
271	2.7
272	2.3
273	1.9
274	1.6
275	1.4
276	1.1
277	.8
278	.5
279	.2
280	.1
281	.0
282	.1
283	.3
284	.6
285	.9
286	1.3
287	1.7
288	2.1
289	2.7
290	3.3
291	4.0
292	4.8
293	5.6
294	6.4
295	7.3
296	8.1
297	8.8
298	9.5
299	10.0
300	10.3
301	10.2
302	9.8
303	9.4
304	9.0
305	8.9
306	8.8
307	8.7
308	8.6
309	8.2
310	7.8
311	7.5
312	7.4
313	7.5
314	7.7
315	7.9
316	8.0
317	8.1
318	8.1
319	8.3
320	8.6
321	9.0
322	9.2
323	9.3
324	9.1
325	8.7
326	8.4
327	8.1
328	8.1
329	8.1
330	8.2
331	8.1
332	8.0
333	7.9
334	7.8
335	7.8
336	7.8
337	7.6
338	7.3
339	7.0
340	6.8
341	6.7
342	6.7
343	6.9
344	7.1
345	7.2
346	7.3
347	7.5
348	7.7
349	8.1
350	8.5
351	8.7
352	8.7
353	8.4
354	8.0
355	7.6
356	7.3
357	7.0
358	6.5
359	5.8
VER_LOBE
0	2.3
1	2.4
2	1.6
3	.6
4	.1
5	.1
6	.7
7	1.3
8	1.6
9	1.3
10	.9
11	1.1
12	2.2
13	4.2
14	6.8
15	9.0
16	9.9
17	9.7
18	9.3
19	9.5
20	11.2
21	14.7
22	17.2
23	16.3
24	17.8
25	26.9
26	24.9
27	17.9
28	16.4
29	16.1
30	16.1
31	17.1
32	18.3
33	15.2
34	11.9
35	10.7
36	11.0
37	11.7
38	11.3
39	10.5
40	10.3
41	10.5
42	10.2
43	9.0
44	7.6
45	6.8
46	6.6
47	6.9
48	7.8
49	9.2
50	11.4
51	15.0
52	19.9
53	17.8
54	13.4
55	11.0
56	9.9
57	9.4
58	9.1
59	9.0
60	9.1
61	9.3
62	9.4
63	9.5
64	9.9
65	11.1
66	13.0
67	14.9
68	16.4
69	17.9
70	20.5
71	23.5
72	23.2
73	21.1
74	20.1
75	19.8
76	19.4
77	18.8
78	18.6
79	19.1
80	20.3
81	21.6
82	21.6
83	21.3
84	22.1
85	24.5
86	28.3
87	29.4
88	27.4
89	27.1
90	28.3
91	26.7
92	23.4
93	21.5
94	21.4
95	22.4
96	23.0
97	22.4
98	22.0
99	21.4
100	20.0
101	19.2
102	19.9
103	21.5
104	21.4
105	19.1
106	16.6
107	15.1
108	14.4
109	14.0
110	13.6
111	13.7
112	14.7
113	16.3
114	16.7
115	15.4
116	14.7
117	15.2
118	15.3
119	13.9
120	12.6
121	12.4
122	12.7
123	12.7
124	12.8
125	14.2
126	18.0
127	27.5
128	22.8
129	16.6
130	13.1
131	10.7
132	9.2
133	8.7
134	9.0
135	9.6
136	9.9
137	10.4
138	11.1
139	11.6
140	11.3
141	11.3
142	12.4
143	15.2
144	20.7
145	29.4
146	23.5
147	19.1
148	17.3
149	17.6
150	19.9
151	23.2
152	23.5
153	23.7
154	25.8
155	22.0
156	17.0
157	14.0
158	12.1
159	11.0
160	10.8
161	11.5
162	12.5
163	11.2
164	8.0
165	5.6
166	4.3
167	3.8
168	3.7
169	3.2
170	2.4
171	1.9
172	1.8
173	1.8
174	1.6
175	1.6
176	2.0
177	2.4
178	2.2
179	1.7
180	1.5
181	1.9
182	2.3
183	2.3
184	2.1
185	1.9
186	2.0
187	2.5
188	3.5
189	4.6
190	4.6
191	3.9
192	3.6
193	4.3
194	5.7
195	7.0
196	7.8
197	8.4
198	9.3
199	10.4
200	11.0
201	11.2
202	11.5
203	12.2
204	12.6
205	12.4
206	12.6
207	14.0
208	16.7
209	20.3
210	23.1
211	21.0
212	17.6
213	15.5
214	14.6
215	14.9
216	15.9
217	17.0
218	17.3
219	17.1
220	16.7
221	16.0
222	14.7
223	13.0
224	11.8
225	11.6
226	12.1
227	12.9
228	13.0
229	12.4
230	11.6
231	11.1
232	11.2
233	12.1
234	13.6
235	14.8
236	14.7
237	14.4
238	14.9
239	16.3
240	18.0
241	19.3
242	19.3
243	18.4
244	16.8
245	14.9
246	13.7
247	13.6
248	14.8
249	16.8
250	18.6
251	18.8
252	17.6
253	15.9
254	14.3
255	13.0
256	12.0
257	11.4
258	11.3
259	12.1
260	14.1
261	17.2
262	20.6
263	21.1
264	19.4
265	18.0
266	17.3
267	17.2
268	17.8
269	19.2
270	20.7
271	20.9
272	19.4
273	17.4
274	16.2
275	16.2
276	17.1
277	17.9
278	17.6
279	16.3
280	15.0
281	14.4
282	14.7
283	15.7
284	16.6
285	17.0
286	17.2
287	17.4
288	17.9
289	18.7
290	19.3
291	19.1
292	18.2
293	17.3
294	17.0
295	17.2
296	17.8
297	18.5
298	19.2
299	19.7
300	19.7
301	19.4
302	18.7
303	17.7
304	16.6
305	15.7
306	15.1
307	14.8
308	14.9
309	15.2
310	15.2
311	14.8
312	14.0
313	13.2
314	12.8
315	12.7
316	13.0
317	13.1
318	12.9
319	12.6
320	13.0
321	14.2
322	15.8
323	16.1
324	15.0
325	14.5
326	15.1
327	16.6
328	18.7
329	21.5
330	26.9
331	30.7
332	22.8
333	19.3
334	18.3
335	18.6
336	19.1
337	18.6
338	18.7
339	21.8
340	28.1
341	20.1
342	15.8
343	13.2
344	10.3
345	7.5
346	6.0
347	5.9
348	6.8
349	7.2
350	6.0
351	4.5
352	3.4
353	2.7
354	2.3
355	1.9
356	1.6
357	1.3
358	1.2
359	1.6
