VERSION 2.0
NAME VVSSP-360S-F, Tilt 7, Freq 2620
GAIN 7.6
HOR_LOBE
0	1.0
1	.9
2	.8
3	.6
4	.5
5	.4
6	.3
7	.2
8	.2
9	.1
10	.1
11	.0
12	.0
13	.0
14	.0
15	.0
16	.0
17	.0
18	.1
19	.1
20	.1
21	.2
22	.2
23	.3
24	.3
25	.4
26	.4
27	.5
28	.6
29	.6
30	.7
31	.8
32	.8
33	.9
34	.9
35	1.0
36	1.1
37	1.1
38	1.2
39	1.3
40	1.3
41	1.4
42	1.5
43	1.5
44	1.6
45	1.6
46	1.7
47	1.7
48	1.7
49	1.8
50	1.8
51	1.8
52	1.9
53	1.9
54	1.9
55	1.9
56	2.0
57	2.0
58	2.1
59	2.1
60	2.2
61	2.2
62	2.2
63	2.2
64	2.3
65	2.3
66	2.3
67	2.3
68	2.3
69	2.3
70	2.3
71	2.2
72	2.2
73	2.2
74	2.1
75	2.1
76	2.0
77	1.9
78	1.9
79	1.8
80	1.6
81	1.5
82	1.4
83	1.3
84	1.2
85	1.1
86	1.0
87	.9
88	.8
89	.7
90	.6
91	.4
92	.3
93	.2
94	.1
95	.0
96	.0
97	.1
98	.2
99	.2
100	.2
101	.3
102	.3
103	.3
104	.4
105	.4
106	.4
107	.4
108	.4
109	.4
110	.4
111	.4
112	.4
113	.3
114	.3
115	.2
116	.2
117	.1
118	.0
119	.1
120	.2
121	.2
122	.3
123	.4
124	.5
125	.6
126	.7
127	.8
128	.9
129	1.0
130	1.2
131	1.3
132	1.3
133	1.4
134	1.5
135	1.5
136	1.6
137	1.6
138	1.7
139	1.7
140	1.8
141	1.9
142	1.9
143	2.0
144	2.1
145	2.1
146	2.2
147	2.3
148	2.3
149	2.4
150	2.4
151	2.5
152	2.5
153	2.6
154	2.6
155	2.7
156	2.7
157	2.8
158	2.8
159	2.8
160	2.8
161	2.8
162	2.8
163	2.8
164	2.8
165	2.7
166	2.7
167	2.6
168	2.6
169	2.5
170	2.5
171	2.4
172	2.3
173	2.2
174	2.1
175	2.0
176	2.0
177	1.9
178	1.8
179	1.7
180	1.7
181	1.6
182	1.5
183	1.5
184	1.4
185	1.4
186	1.3
187	1.3
188	1.2
189	1.2
190	1.2
191	1.1
192	1.1
193	1.1
194	1.0
195	1.0
196	1.0
197	1.0
198	1.0
199	.9
200	.9
201	.9
202	.8
203	.8
204	.8
205	.8
206	.8
207	.8
208	.8
209	.8
210	.8
211	.8
212	.8
213	.8
214	.8
215	.9
216	.9
217	.9
218	.9
219	1.0
220	1.0
221	1.1
222	1.1
223	1.2
224	1.3
225	1.3
226	1.4
227	1.5
228	1.6
229	1.7
230	1.8
231	1.9
232	2.1
233	2.2
234	2.3
235	2.4
236	2.6
237	2.7
238	2.9
239	3.0
240	3.2
241	3.4
242	3.5
243	3.7
244	3.9
245	4.0
246	4.2
247	4.3
248	4.5
249	4.6
250	4.7
251	4.8
252	4.9
253	5.0
254	5.0
255	5.1
256	5.1
257	5.1
258	5.1
259	5.1
260	5.0
261	5.0
262	5.0
263	5.0
264	4.9
265	4.9
266	4.8
267	4.7
268	4.6
269	4.6
270	4.5
271	4.4
272	4.3
273	4.3
274	4.2
275	4.1
276	4.1
277	4.0
278	4.0
279	3.9
280	3.8
281	3.8
282	3.7
283	3.7
284	3.6
285	3.6
286	3.6
287	3.5
288	3.5
289	3.4
290	3.4
291	3.3
292	3.3
293	3.2
294	3.1
295	3.1
296	3.0
297	3.0
298	2.9
299	2.9
300	2.8
301	2.7
302	2.7
303	2.6
304	2.5
305	2.4
306	2.3
307	2.3
308	2.2
309	2.1
310	2.0
311	2.0
312	1.9
313	1.8
314	1.7
315	1.6
316	1.5
317	1.5
318	1.4
319	1.4
320	1.4
321	1.4
322	1.4
323	1.4
324	1.4
325	1.5
326	1.5
327	1.5
328	1.6
329	1.6
330	1.7
331	1.8
332	1.8
333	1.9
334	2.0
335	2.1
336	2.2
337	2.4
338	2.5
339	2.6
340	2.6
341	2.7
342	2.7
343	2.7
344	2.7
345	2.7
346	2.7
347	2.6
348	2.6
349	2.5
350	2.4
351	2.3
352	2.1
353	2.0
354	1.9
355	1.7
356	1.6
357	1.4
358	1.3
359	1.2
VER_LOBE
0	6.9
1	5.7
2	4.8
3	4.0
4	3.3
5	2.9
6	2.6
7	2.4
8	2.4
9	2.5
10	2.7
11	3.0
12	3.4
13	3.9
14	4.5
15	5.3
16	6.1
17	7.0
18	7.9
19	8.9
20	10.0
21	11.2
22	12.6
23	14.2
24	16.0
25	17.8
26	19.2
27	19.8
28	19.3
29	18.2
30	16.9
31	15.6
32	14.4
33	13.5
34	12.7
35	12.3
36	12.0
37	12.0
38	12.3
39	12.6
40	13.0
41	13.5
42	14.0
43	14.6
44	15.3
45	16.3
46	17.4
47	18.7
48	20.0
49	21.0
50	21.6
51	21.8
52	21.7
53	21.5
54	21.3
55	21.2
56	21.4
57	21.9
58	22.5
59	23.3
60	23.8
61	23.9
62	23.5
63	22.7
64	21.7
65	20.9
66	20.4
67	20.1
68	20.1
69	20.4
70	20.7
71	21.1
72	21.6
73	22.1
74	22.8
75	23.6
76	24.5
77	25.6
78	26.6
79	27.2
80	27.3
81	27.4
82	27.9
83	29.0
84	30.6
85	32.3
86	33.3
87	33.5
88	33.5
89	33.7
90	33.9
91	34.1
92	34.0
93	33.2
94	31.7
95	30.2
96	29.2
97	28.9
98	29.3
99	30.2
100	30.6
101	30.0
102	29.1
103	28.5
104	28.4
105	28.5
106	28.8
107	29.2
108	29.4
109	29.4
110	28.7
111	27.8
112	26.9
113	26.6
114	27.0
115	28.3
116	30.2
117	32.3
118	33.7
119	34.2
120	34.6
121	35.6
122	35.7
123	33.3
124	29.9
125	26.8
126	24.3
127	22.1
128	20.1
129	18.3
130	16.5
131	15.0
132	13.6
133	12.4
134	11.4
135	10.7
136	10.1
137	9.7
138	9.2
139	8.8
140	8.5
141	8.2
142	8.0
143	7.9
144	8.0
145	8.3
146	8.8
147	9.5
148	10.2
149	11.0
150	12.0
151	12.9
152	13.9
153	14.8
154	15.1
155	14.5
156	13.1
157	11.4
158	9.8
159	8.3
160	7.0
161	5.8
162	4.8
163	3.8
164	3.0
165	2.2
166	1.6
167	1.0
168	.6
169	.2
170	.0
171	.2
172	.3
173	.2
174	.1
175	.1
176	.4
177	.7
178	1.2
179	1.7
180	2.3
181	3.0
182	3.7
183	4.5
184	5.3
185	6.2
186	7.1
187	8.1
188	9.1
189	10.2
190	11.2
191	12.4
192	13.6
193	14.9
194	16.3
195	17.8
196	19.3
197	20.7
198	21.7
199	22.2
200	21.9
201	21.0
202	20.0
203	19.2
204	18.6
205	18.4
206	18.4
207	18.6
208	18.9
209	19.1
210	18.9
211	18.4
212	17.7
213	16.9
214	16.1
215	15.3
216	14.6
217	13.9
218	13.3
219	12.7
220	12.3
221	11.9
222	11.7
223	11.6
224	11.4
225	11.3
226	11.0
227	10.8
228	10.6
229	10.4
230	10.5
231	10.7
232	11.2
233	11.9
234	12.6
235	13.3
236	13.9
237	14.4
238	14.7
239	15.2
240	15.9
241	16.7
242	17.4
243	17.9
244	17.9
245	17.7
246	17.7
247	18.0
248	18.1
249	17.8
250	16.8
251	15.5
252	14.0
253	12.8
254	11.9
255	11.3
256	11.2
257	11.4
258	11.8
259	12.3
260	12.5
261	12.4
262	11.9
263	11.4
264	10.9
265	10.6
266	10.4
267	10.3
268	10.3
269	10.3
270	10.4
271	10.6
272	11.0
273	11.9
274	13.1
275	14.8
276	17.0
277	19.3
278	21.2
279	22.3
280	22.7
281	22.7
282	22.0
283	21.0
284	20.4
285	20.5
286	21.5
287	23.5
288	25.4
289	25.4
290	24.7
291	24.9
292	26.5
293	28.1
294	26.8
295	24.1
296	22.2
297	21.0
298	20.3
299	19.8
300	19.6
301	19.7
302	20.1
303	20.8
304	21.4
305	21.7
306	21.7
307	21.7
308	21.6
309	21.4
310	20.8
311	19.7
312	18.4
313	17.2
314	16.3
315	15.9
316	16.0
317	16.6
318	17.5
319	18.7
320	19.8
321	20.4
322	20.4
323	19.7
324	18.6
325	17.5
326	16.5
327	15.7
328	15.2
329	15.0
330	14.9
331	15.1
332	15.4
333	15.7
334	16.0
335	16.1
336	16.0
337	15.7
338	15.4
339	15.0
340	14.8
341	14.8
342	14.8
343	14.9
344	15.0
345	15.1
346	15.1
347	15.2
348	15.5
349	16.0
350	17.2
351	19.4
352	23.7
353	32.3
354	24.5
355	18.2
356	14.5
357	11.8
358	9.9
359	8.2
