VERSION 2.0
NAME VVSSP-360S-F, Tilt 0, Freq 5600
GAIN 5.0
HOR_LOBE
0	2.5
1	2.4
2	2.3
3	2.2
4	2.2
5	2.1
6	2.0
7	1.9
8	1.9
9	1.8
10	1.8
11	1.9
12	2.0
13	2.1
14	2.3
15	2.4
16	2.5
17	2.6
18	2.8
19	3.1
20	3.4
21	3.9
22	4.4
23	4.9
24	5.5
25	6.0
26	6.5
27	7.0
28	7.5
29	8.0
30	8.3
31	8.6
32	8.8
33	9.0
34	9.2
35	9.3
36	9.3
37	9.1
38	8.9
39	8.6
40	8.3
41	8.0
42	7.9
43	7.8
44	7.6
45	7.5
46	7.3
47	7.1
48	6.8
49	6.7
50	6.6
51	6.6
52	6.8
53	6.9
54	7.2
55	7.3
56	7.4
57	7.4
58	7.2
59	6.9
60	6.7
61	6.5
62	6.3
63	6.3
64	6.4
65	6.5
66	6.6
67	6.7
68	6.8
69	6.9
70	7.1
71	7.2
72	7.4
73	7.6
74	7.8
75	7.9
76	7.9
77	7.9
78	7.9
79	7.8
80	7.7
81	7.5
82	7.2
83	7.0
84	6.8
85	6.6
86	6.4
87	6.1
88	5.7
89	5.0
90	4.3
91	3.5
92	2.8
93	2.2
94	1.9
95	1.7
96	1.7
97	1.9
98	2.1
99	2.3
100	2.6
101	2.8
102	3.0
103	3.1
104	3.2
105	3.3
106	3.6
107	3.9
108	4.2
109	4.6
110	4.9
111	5.2
112	5.5
113	5.7
114	6.0
115	6.4
116	6.9
117	7.5
118	8.1
119	8.7
120	9.3
121	10.0
122	10.9
123	11.9
124	13.0
125	14.0
126	14.4
127	14.1
128	13.4
129	12.5
130	11.4
131	10.3
132	9.1
133	8.0
134	7.1
135	6.3
136	5.7
137	5.4
138	5.2
139	5.1
140	5.1
141	5.0
142	4.9
143	4.9
144	4.8
145	4.6
146	4.4
147	4.3
148	4.1
149	4.0
150	3.8
151	3.7
152	3.6
153	3.4
154	3.2
155	2.9
156	2.7
157	2.6
158	2.6
159	2.6
160	2.6
161	2.7
162	2.7
163	2.7
164	2.6
165	2.6
166	2.6
167	2.6
168	2.5
169	2.4
170	2.2
171	2.0
172	1.8
173	1.6
174	1.4
175	1.2
176	1.0
177	.9
178	.7
179	.6
180	.4
181	.2
182	.1
183	.0
184	.0
185	.0
186	.1
187	.1
188	.2
189	.2
190	.3
191	.4
192	.6
193	.7
194	1.0
195	1.2
196	1.5
197	1.7
198	1.9
199	2.2
200	2.4
201	2.7
202	3.1
203	3.4
204	3.8
205	4.2
206	4.6
207	5.0
208	5.5
209	5.9
210	6.3
211	6.6
212	6.8
213	7.0
214	7.0
215	7.1
216	7.2
217	7.4
218	7.5
219	7.6
220	7.6
221	7.5
222	7.4
223	7.2
224	7.0
225	6.9
226	7.0
227	7.1
228	7.2
229	7.4
230	7.7
231	7.8
232	8.0
233	8.0
234	8.1
235	8.1
236	8.2
237	8.2
238	8.3
239	8.4
240	8.6
241	8.9
242	9.1
243	9.2
244	9.2
245	9.2
246	9.1
247	9.2
248	9.4
249	9.8
250	10.2
251	10.6
252	10.9
253	11.1
254	11.3
255	11.6
256	12.0
257	12.4
258	12.6
259	12.6
260	12.2
261	11.4
262	10.4
263	9.4
264	8.6
265	7.8
266	7.2
267	6.6
268	6.2
269	5.8
270	5.5
271	5.3
272	5.1
273	5.0
274	4.9
275	4.7
276	4.4
277	4.1
278	3.8
279	3.6
280	3.4
281	3.4
282	3.6
283	3.8
284	4.2
285	4.6
286	5.0
287	5.4
288	5.7
289	6.0
290	6.2
291	6.6
292	7.0
293	7.4
294	7.8
295	8.2
296	8.5
297	8.8
298	9.2
299	9.7
300	10.3
301	11.1
302	12.0
303	13.0
304	14.1
305	15.3
306	16.8
307	18.6
308	20.2
309	20.3
310	18.7
311	16.8
312	15.1
313	13.8
314	12.7
315	11.7
316	10.8
317	10.0
318	9.2
319	8.5
320	7.9
321	7.4
322	7.0
323	6.7
324	6.4
325	6.2
326	6.0
327	5.9
328	5.7
329	5.5
330	5.4
331	5.2
332	5.1
333	5.0
334	4.8
335	4.7
336	4.5
337	4.3
338	4.1
339	3.9
340	3.7
341	3.6
342	3.6
343	3.6
344	3.7
345	3.7
346	3.8
347	3.8
348	3.8
349	3.8
350	3.8
351	3.7
352	3.7
353	3.6
354	3.5
355	3.3
356	3.2
357	3.0
358	2.8
359	2.6
VER_LOBE
0	2.2
1	2.6
2	2.8
3	2.7
4	2.5
5	2.6
6	2.8
7	3.1
8	3.2
9	3.2
10	3.4
11	3.9
12	4.7
13	5.5
14	6.1
15	6.7
16	7.4
17	8.2
18	9.0
19	10.1
20	11.7
21	13.5
22	14.9
23	15.7
24	16.8
25	18.7
26	20.8
27	22.8
28	25.8
29	30.2
30	33.4
31	36.3
32	37.4
33	30.4
34	26.5
35	24.3
36	22.4
37	20.6
38	19.4
39	19.3
40	20.2
41	20.9
42	20.0
43	18.2
44	17.2
45	17.2
46	17.4
47	16.9
48	16.1
49	15.8
50	16.1
51	16.3
52	15.7
53	14.7
54	14.0
55	13.8
56	13.7
57	13.8
58	14.0
59	14.5
60	15.1
61	15.9
62	17.1
63	19.0
64	21.5
65	24.3
66	27.0
67	29.4
68	31.3
69	32.8
70	35.3
71	38.7
72	41.1
73	41.9
74	39.4
75	37.3
76	37.4
77	37.7
78	35.9
79	35.0
80	36.7
81	41.0
82	44.6
83	42.6
84	41.4
85	42.5
86	50.5
87	40.4
88	31.9
89	27.9
90	26.4
91	27.0
92	29.2
93	32.5
94	36.9
95	46.4
96	46.1
97	38.4
98	36.8
99	38.0
100	36.9
101	31.6
102	28.4
103	27.4
104	28.0
105	29.0
106	30.2
107	31.6
108	31.3
109	29.2
110	27.6
111	26.3
112	25.3
113	24.1
114	22.8
115	21.3
116	19.5
117	17.5
118	15.8
119	14.9
120	14.5
121	14.3
122	13.9
123	13.4
124	13.2
125	13.4
126	13.9
127	14.6
128	15.3
129	16.1
130	16.6
131	16.4
132	15.6
133	14.8
134	14.4
135	14.4
136	15.1
137	16.5
138	18.1
139	18.7
140	18.3
141	17.9
142	17.6
143	17.6
144	18.4
145	21.5
146	29.3
147	25.1
148	19.6
149	18.1
150	19.5
151	24.4
152	35.1
153	23.4
154	18.0
155	15.0
156	13.4
157	12.6
158	11.8
159	10.7
160	9.5
161	8.3
162	7.2
163	6.4
164	6.1
165	6.0
166	5.4
167	4.3
168	3.3
169	2.9
170	2.8
171	2.6
172	2.1
173	1.3
174	.7
175	.2
176	.1
177	.2
178	.4
179	.3
180	.1
181	.0
182	.1
183	.3
184	.7
185	.9
186	.7
187	.3
188	.1
189	.4
190	1.2
191	1.9
192	2.0
193	1.9
194	2.3
195	3.0
196	3.9
197	4.8
198	5.6
199	6.1
200	6.3
201	6.5
202	7.3
203	8.4
204	9.0
205	8.7
206	8.5
207	8.7
208	9.2
209	9.9
210	10.5
211	10.9
212	10.9
213	10.5
214	10.3
215	10.8
216	11.9
217	12.9
218	13.7
219	14.5
220	15.8
221	17.2
222	17.8
223	17.6
224	17.5
225	18.3
226	20.5
227	24.5
228	25.3
229	21.3
230	19.5
231	20.4
232	24.4
233	34.7
234	33.8
235	28.5
236	25.5
237	21.8
238	18.7
239	17.1
240	16.7
241	17.4
242	18.2
243	18.4
244	18.3
245	19.1
246	21.5
247	25.8
248	32.5
249	33.5
250	32.0
251	34.7
252	41.4
253	33.3
254	28.4
255	26.0
256	24.8
257	24.5
258	25.1
259	26.2
260	26.4
261	25.2
262	23.6
263	22.0
264	20.5
265	19.1
266	18.2
267	17.6
268	17.2
269	16.7
270	16.0
271	15.3
272	14.8
273	14.7
274	15.2
275	16.3
276	17.8
277	19.3
278	20.7
279	22.2
280	24.5
281	28.0
282	30.9
283	28.1
284	24.8
285	22.7
286	21.4
287	20.8
288	21.1
289	22.4
290	24.2
291	25.5
292	25.0
293	23.7
294	22.7
295	22.2
296	22.2
297	22.1
298	21.8
299	21.1
300	19.8
301	18.1
302	16.5
303	15.5
304	15.6
305	17.2
306	21.0
307	30.2
308	29.6
309	21.4
310	18.0
311	16.5
312	16.4
313	17.9
314	21.2
315	24.4
316	23.2
317	21.5
318	21.2
319	21.8
320	22.5
321	22.6
322	21.4
323	19.4
324	17.4
325	15.8
326	15.1
327	15.1
328	15.8
329	16.4
330	16.4
331	15.9
332	15.6
333	15.6
334	15.9
335	16.9
336	18.6
337	19.6
338	17.5
339	14.8
340	13.1
341	12.3
342	12.0
343	11.3
344	9.8
345	8.1
346	7.0
347	6.6
348	6.5
349	6.2
350	5.5
351	4.8
352	4.3
353	3.9
354	3.5
355	3.2
356	3.0
357	2.8
358	2.4
359	2.1
