VERSION 2.0
NAME VVSSP-360S-F, Tilt 0, Freq 5650
GAIN 5.3
HOR_LOBE
0	5.6
1	5.4
2	5.2
3	5.0
4	4.7
5	4.4
6	4.1
7	3.9
8	3.7
9	3.5
10	3.5
11	3.4
12	3.5
13	3.5
14	3.6
15	3.7
16	3.8
17	4.1
18	4.3
19	4.5
20	4.6
21	4.6
22	4.7
23	4.8
24	4.9
25	5.0
26	5.2
27	5.3
28	5.5
29	5.6
30	5.7
31	5.9
32	6.1
33	6.5
34	6.9
35	7.4
36	7.8
37	8.2
38	8.6
39	8.9
40	9.3
41	9.5
42	9.5
43	9.4
44	9.2
45	8.9
46	8.7
47	8.5
48	8.2
49	7.9
50	7.5
51	7.1
52	6.7
53	6.5
54	6.4
55	6.5
56	6.6
57	6.8
58	7.0
59	7.0
60	7.1
61	7.1
62	7.1
63	7.3
64	7.4
65	7.6
66	7.7
67	7.7
68	7.5
69	7.4
70	7.2
71	7.2
72	7.3
73	7.6
74	7.8
75	8.0
76	8.1
77	8.1
78	8.0
79	7.9
80	8.0
81	8.0
82	8.1
83	8.2
84	8.1
85	7.8
86	7.3
87	6.7
88	6.0
89	5.3
90	4.7
91	4.1
92	3.5
93	3.0
94	2.6
95	2.3
96	2.1
97	2.1
98	2.1
99	2.3
100	2.4
101	2.6
102	2.7
103	2.8
104	2.9
105	3.0
106	3.1
107	3.2
108	3.4
109	3.6
110	3.7
111	3.9
112	4.0
113	4.2
114	4.3
115	4.3
116	4.4
117	4.4
118	4.5
119	4.7
120	5.0
121	5.3
122	5.8
123	6.2
124	6.7
125	7.3
126	7.9
127	8.6
128	9.5
129	10.7
130	12.2
131	13.9
132	15.7
133	17.0
134	17.2
135	16.4
136	15.4
137	14.2
138	13.0
139	11.8
140	10.8
141	9.9
142	9.3
143	8.9
144	8.8
145	8.7
146	8.7
147	8.5
148	8.3
149	8.0
150	7.8
151	7.6
152	7.4
153	7.2
154	6.9
155	6.6
156	6.3
157	6.0
158	5.8
159	5.7
160	5.8
161	6.0
162	6.2
163	6.5
164	6.8
165	7.1
166	7.3
167	7.5
168	7.6
169	7.7
170	7.6
171	7.5
172	7.4
173	7.3
174	7.1
175	6.9
176	6.6
177	6.2
178	5.8
179	5.3
180	4.9
181	4.5
182	4.2
183	4.1
184	4.0
185	3.9
186	3.9
187	3.9
188	3.9
189	4.0
190	4.1
191	4.4
192	4.8
193	5.1
194	5.5
195	5.8
196	6.0
197	6.2
198	6.3
199	6.4
200	6.6
201	6.7
202	6.7
203	6.6
204	6.4
205	6.3
206	6.3
207	6.4
208	6.7
209	7.1
210	7.6
211	8.1
212	8.7
213	9.2
214	9.8
215	10.3
216	10.7
217	11.1
218	11.2
219	11.2
220	10.9
221	10.5
222	10.0
223	9.4
224	8.8
225	8.2
226	7.8
227	7.4
228	7.1
229	6.9
230	6.8
231	6.6
232	6.5
233	6.4
234	6.2
235	6.1
236	6.0
237	5.9
238	5.8
239	5.8
240	5.8
241	5.7
242	5.6
243	5.4
244	5.0
245	4.7
246	4.3
247	4.1
248	4.0
249	4.0
250	4.1
251	4.1
252	4.1
253	4.1
254	4.0
255	4.0
256	4.0
257	4.1
258	4.2
259	4.2
260	3.9
261	3.6
262	3.1
263	2.6
264	2.2
265	1.8
266	1.6
267	1.4
268	1.3
269	1.3
270	1.3
271	1.4
272	1.5
273	1.5
274	1.5
275	1.3
276	1.1
277	.7
278	.4
279	.1
280	.0
281	.0
282	.1
283	.3
284	.6
285	.8
286	1.0
287	1.2
288	1.4
289	1.7
290	2.1
291	2.6
292	3.1
293	3.6
294	4.0
295	4.2
296	4.3
297	4.4
298	4.4
299	4.5
300	4.6
301	4.8
302	5.0
303	5.2
304	5.4
305	5.6
306	5.8
307	6.2
308	6.7
309	7.4
310	8.1
311	9.0
312	9.9
313	11.0
314	12.4
315	14.0
316	15.7
317	17.1
318	17.3
319	16.0
320	14.3
321	12.6
322	11.3
323	10.1
324	9.3
325	8.6
326	8.2
327	7.8
328	7.4
329	7.1
330	6.8
331	6.4
332	6.1
333	5.9
334	5.7
335	5.6
336	5.4
337	5.1
338	4.9
339	4.6
340	4.3
341	4.1
342	4.1
343	4.2
344	4.3
345	4.5
346	4.7
347	4.8
348	4.9
349	5.0
350	5.1
351	5.3
352	5.5
353	5.7
354	5.9
355	5.9
356	5.9
357	5.9
358	5.8
359	5.7
VER_LOBE
0	.6
1	.7
2	.8
3	.8
4	1.0
5	1.1
6	1.2
7	1.4
8	1.8
9	2.5
10	3.1
11	3.6
12	4.5
13	5.7
14	6.5
15	6.6
16	7.0
17	8.1
18	9.5
19	10.5
20	11.6
21	14.1
22	19.7
23	31.6
24	29.9
25	25.1
26	19.6
27	16.2
28	15.2
29	15.8
30	16.3
31	15.6
32	14.7
33	14.0
34	12.9
35	11.4
36	10.3
37	9.8
38	9.9
39	10.0
40	10.2
41	10.4
42	10.6
43	10.8
44	10.9
45	11.2
46	11.4
47	11.2
48	10.5
49	10.0
50	10.1
51	10.8
52	11.8
53	12.7
54	13.7
55	14.9
56	15.9
57	15.5
58	14.0
59	12.4
60	11.2
61	10.5
62	10.2
63	10.6
64	11.3
65	12.3
66	13.0
67	13.7
68	14.9
69	16.8
70	18.8
71	19.4
72	18.2
73	17.0
74	16.3
75	16.2
76	16.3
77	16.5
78	16.9
79	17.8
80	19.3
81	21.3
82	23.7
83	26.2
84	27.8
85	27.5
86	27.1
87	27.9
88	30.1
89	31.9
90	31.6
91	31.3
92	28.9
93	26.3
94	26.2
95	29.5
96	33.3
97	28.7
98	26.0
99	25.1
100	24.7
101	23.9
102	22.5
103	21.2
104	20.2
105	19.4
106	18.8
107	18.3
108	18.2
109	18.0
110	17.0
111	15.1
112	13.3
113	12.2
114	11.8
115	11.7
116	11.6
117	11.5
118	11.7
119	12.0
120	12.1
121	12.1
122	12.0
123	12.2
124	12.6
125	13.0
126	12.9
127	12.2
128	11.2
129	10.3
130	9.7
131	9.2
132	8.8
133	8.8
134	9.5
135	10.8
136	12.5
137	13.3
138	12.9
139	12.6
140	12.7
141	12.6
142	11.7
143	10.9
144	10.9
145	11.7
146	12.8
147	13.2
148	13.0
149	12.7
150	12.8
151	13.4
152	14.9
153	17.5
154	21.4
155	23.6
156	20.7
157	17.5
158	15.5
159	14.3
160	13.0
161	11.1
162	9.6
163	9.2
164	9.8
165	9.4
166	7.4
167	5.8
168	5.3
169	5.5
170	5.4
171	4.5
172	3.5
173	2.9
174	2.5
175	2.3
176	2.1
177	1.7
178	1.2
179	.6
180	.2
181	.0
182	.1
183	.5
184	1.0
185	1.3
186	1.5
187	2.0
188	2.8
189	3.7
190	3.6
191	3.1
192	3.1
193	3.8
194	5.0
195	6.0
196	6.8
197	8.0
198	9.4
199	10.4
200	10.8
201	10.9
202	11.1
203	11.0
204	10.8
205	11.4
206	12.9
207	14.9
208	16.2
209	16.4
210	16.6
211	16.8
212	16.8
213	17.6
214	20.3
215	25.4
216	22.8
217	18.8
218	17.8
219	19.2
220	24.1
221	55.2
222	23.1
223	17.2
224	14.3
225	12.7
226	12.1
227	12.3
228	12.9
229	13.8
230	14.8
231	15.8
232	16.8
233	17.7
234	18.2
235	18.4
236	18.5
237	18.5
238	18.6
239	19.2
240	20.9
241	23.9
242	27.2
243	27.2
244	26.8
245	27.5
246	27.5
247	24.9
248	20.9
249	17.3
250	14.6
251	12.7
252	11.5
253	10.8
254	10.3
255	10.1
256	10.3
257	10.9
258	12.0
259	13.5
260	15.5
261	17.7
262	19.2
263	18.2
264	15.9
265	14.2
266	13.2
267	12.5
268	12.1
269	11.7
270	11.4
271	11.5
272	12.0
273	12.9
274	14.2
275	16.2
276	19.1
277	23.4
278	27.7
279	26.1
280	23.0
281	20.5
282	18.1
283	16.0
284	14.4
285	13.3
286	12.7
287	12.6
288	12.6
289	12.7
290	12.8
291	13.0
292	12.9
293	12.7
294	12.2
295	11.9
296	12.1
297	12.9
298	14.2
299	15.0
300	15.0
301	14.5
302	14.4
303	14.8
304	15.5
305	16.2
306	17.2
307	18.9
308	20.3
309	18.9
310	16.3
311	14.3
312	13.3
313	13.2
314	13.7
315	14.5
316	15.2
317	15.2
318	14.9
319	14.8
320	15.9
321	18.4
322	20.3
323	18.3
324	16.6
325	16.6
326	18.1
327	20.3
328	21.5
329	21.5
330	21.4
331	21.6
332	21.1
333	18.9
334	16.5
335	15.4
336	16.0
337	17.2
338	15.7
339	13.0
340	11.6
341	11.6
342	12.1
343	11.7
344	10.4
345	9.1
346	7.8
347	6.3
348	5.1
349	4.5
350	4.4
351	4.2
352	3.5
353	2.5
354	1.6
355	1.0
356	.6
357	.4
358	.3
359	.4
