VERSION 2.0
NAME VVSSP-360S-F, Tilt 0, Freq 5625
GAIN 4.7
HOR_LOBE
0	1.9
1	1.8
2	1.6
3	1.5
4	1.5
5	1.4
6	1.4
7	1.4
8	1.5
9	1.4
10	1.4
11	1.4
12	1.4
13	1.5
14	1.6
15	1.8
16	2.0
17	2.2
18	2.4
19	2.6
20	2.9
21	3.2
22	3.6
23	4.1
24	4.6
25	5.1
26	5.7
27	6.3
28	6.9
29	7.5
30	7.9
31	8.3
32	8.5
33	8.7
34	8.9
35	9.2
36	9.4
37	9.4
38	9.1
39	8.7
40	8.1
41	7.5
42	7.0
43	6.7
44	6.5
45	6.5
46	6.4
47	6.4
48	6.3
49	6.2
50	6.1
51	6.2
52	6.3
53	6.4
54	6.6
55	6.7
56	6.8
57	6.7
58	6.6
59	6.4
60	6.2
61	6.1
62	5.9
63	5.6
64	5.4
65	5.3
66	5.2
67	5.2
68	5.2
69	5.3
70	5.4
71	5.6
72	5.7
73	5.9
74	6.1
75	6.3
76	6.5
77	6.6
78	6.5
79	6.4
80	6.1
81	6.0
82	5.8
83	5.8
84	5.7
85	5.6
86	5.4
87	5.0
88	4.4
89	3.8
90	3.1
91	2.5
92	2.0
93	1.5
94	1.1
95	.8
96	.7
97	.7
98	.9
99	1.1
100	1.4
101	1.6
102	1.7
103	1.8
104	1.9
105	2.1
106	2.4
107	2.7
108	3.1
109	3.6
110	4.0
111	4.4
112	4.9
113	5.3
114	5.7
115	6.1
116	6.4
117	6.8
118	7.1
119	7.6
120	8.1
121	8.7
122	9.6
123	10.6
124	11.8
125	12.9
126	13.8
127	14.1
128	13.7
129	12.7
130	11.5
131	10.3
132	9.1
133	8.1
134	7.2
135	6.5
136	6.0
137	5.6
138	5.3
139	5.1
140	5.0
141	5.1
142	5.1
143	5.2
144	5.2
145	5.1
146	4.9
147	4.8
148	4.7
149	4.7
150	4.7
151	4.8
152	4.7
153	4.5
154	4.3
155	4.0
156	3.8
157	3.7
158	3.6
159	3.5
160	3.4
161	3.3
162	3.1
163	3.0
164	2.9
165	2.9
166	2.9
167	2.8
168	2.7
169	2.5
170	2.3
171	2.1
172	1.9
173	1.7
174	1.5
175	1.3
176	1.1
177	.9
178	.8
179	.6
180	.5
181	.3
182	.2
183	.1
184	.0
185	.0
186	.1
187	.2
188	.4
189	.6
190	.8
191	.9
192	1.1
193	1.3
194	1.5
195	1.8
196	2.1
197	2.5
198	2.8
199	3.2
200	3.5
201	3.9
202	4.2
203	4.6
204	4.9
205	5.2
206	5.4
207	5.7
208	6.1
209	6.7
210	7.3
211	8.0
212	8.5
213	8.8
214	8.9
215	8.7
216	8.3
217	8.0
218	7.7
219	7.4
220	7.1
221	6.8
222	6.6
223	6.4
224	6.1
225	5.9
226	5.8
227	5.9
228	6.1
229	6.5
230	7.0
231	7.3
232	7.5
233	7.5
234	7.3
235	7.1
236	7.1
237	7.1
238	7.2
239	7.3
240	7.3
241	7.3
242	7.3
243	7.4
244	7.5
245	7.7
246	7.9
247	8.0
248	8.1
249	8.2
250	8.4
251	8.7
252	8.9
253	9.1
254	9.1
255	8.9
256	8.7
257	8.6
258	8.6
259	8.7
260	8.7
261	8.6
262	8.2
263	7.5
264	6.8
265	6.1
266	5.5
267	5.1
268	4.9
269	4.7
270	4.7
271	4.8
272	4.9
273	5.0
274	5.0
275	4.9
276	4.6
277	4.2
278	3.8
279	3.5
280	3.3
281	3.3
282	3.6
283	4.0
284	4.4
285	4.7
286	4.9
287	5.1
288	5.3
289	5.5
290	6.0
291	6.5
292	7.0
293	7.4
294	7.7
295	7.8
296	7.8
297	7.9
298	8.1
299	8.6
300	9.3
301	10.0
302	10.9
303	11.9
304	13.0
305	14.5
306	16.5
307	19.1
308	22.2
309	24.6
310	23.8
311	21.5
312	19.2
313	17.1
314	15.3
315	13.6
316	12.2
317	11.0
318	10.0
319	9.2
320	8.4
321	7.8
322	7.2
323	6.7
324	6.3
325	6.0
326	5.8
327	5.7
328	5.5
329	5.3
330	5.1
331	4.9
332	4.7
333	4.5
334	4.4
335	4.1
336	3.9
337	3.6
338	3.4
339	3.2
340	3.0
341	3.0
342	2.9
343	2.9
344	2.9
345	2.9
346	2.9
347	2.9
348	2.9
349	2.9
350	2.9
351	2.9
352	2.8
353	2.7
354	2.7
355	2.6
356	2.4
357	2.3
358	2.2
359	2.0
VER_LOBE
0	1.5
1	1.8
2	1.9
3	1.7
4	1.5
5	1.5
6	1.9
7	2.4
8	2.7
9	2.9
10	3.0
11	3.2
12	3.7
13	4.4
14	5.2
15	5.8
16	6.3
17	7.1
18	8.3
19	9.8
20	11.4
21	12.9
22	14.1
23	14.5
24	14.3
25	14.6
26	16.2
27	19.8
28	25.1
29	28.1
30	30.0
31	34.8
32	27.9
33	23.8
34	23.0
35	23.3
36	21.9
37	19.8
38	18.7
39	19.0
40	19.4
41	18.5
42	16.8
43	15.6
44	15.3
45	15.8
46	16.8
47	17.0
48	16.2
49	15.5
50	15.4
51	15.1
52	14.3
53	13.5
54	13.2
55	13.3
56	13.4
57	13.5
58	13.9
59	14.8
60	16.1
61	17.5
62	18.7
63	20.3
64	22.6
65	25.5
66	27.5
67	27.3
68	26.1
69	25.3
70	25.1
71	25.7
72	26.8
73	28.1
74	29.8
75	31.5
76	32.3
77	32.1
78	32.5
79	35.0
80	38.9
81	41.2
82	42.9
83	43.4
84	40.5
85	40.1
86	42.6
87	36.8
88	30.8
89	27.7
90	26.6
91	27.1
92	29.0
93	33.1
94	43.4
95	42.8
96	38.0
97	39.8
98	41.5
99	42.3
100	67.4
101	37.3
102	32.4
103	31.9
104	33.8
105	34.7
106	33.5
107	33.0
108	32.6
109	31.6
110	30.4
111	29.1
112	27.4
113	25.5
114	24.0
115	22.9
116	22.0
117	20.5
118	18.8
119	17.4
120	16.2
121	15.1
122	14.2
123	13.9
124	14.2
125	14.5
126	14.4
127	14.1
128	14.3
129	15.4
130	16.6
131	16.3
132	15.0
133	14.1
134	13.9
135	14.3
136	15.0
137	16.3
138	17.8
139	18.8
140	17.6
141	15.8
142	14.9
143	15.4
144	17.4
145	21.2
146	26.7
147	29.1
148	26.8
149	26.2
150	28.3
151	35.3
152	30.2
153	22.0
154	17.4
155	14.6
156	13.0
157	12.3
158	11.6
159	10.5
160	9.3
161	8.3
162	7.1
163	5.9
164	5.2
165	5.0
166	4.8
167	4.2
168	3.4
169	3.0
170	2.8
171	2.4
172	1.7
173	1.0
174	.5
175	.2
176	.3
177	.5
178	.6
179	.4
180	.1
181	.0
182	.3
183	.8
184	1.1
185	1.0
186	.7
187	.4
188	.5
189	1.1
190	1.7
191	1.9
192	1.9
193	2.0
194	2.5
195	3.3
196	4.1
197	4.8
198	5.2
199	5.3
200	5.6
201	6.4
202	7.5
203	8.4
204	8.6
205	8.6
206	9.0
207	9.6
208	10.3
209	11.3
210	12.5
211	13.0
212	12.2
213	11.4
214	11.5
215	12.6
216	14.1
217	15.2
218	16.2
219	17.3
220	18.5
221	19.0
222	18.8
223	18.6
224	19.1
225	20.7
226	24.0
227	29.9
228	30.1
229	25.6
230	24.0
231	24.5
232	26.7
233	31.1
234	35.9
235	28.4
236	23.3
237	20.3
238	18.5
239	17.7
240	17.4
241	17.6
242	18.0
243	18.7
244	20.0
245	22.5
246	26.9
247	35.5
248	37.7
249	32.3
250	30.0
251	26.6
252	23.2
253	20.8
254	19.8
255	19.6
256	20.1
257	21.1
258	22.5
259	24.2
260	25.9
261	26.5
262	25.5
263	23.5
264	21.5
265	19.7
266	18.2
267	17.1
268	16.1
269	15.3
270	14.6
271	14.1
272	13.8
273	13.8
274	14.1
275	15.0
276	16.5
277	18.6
278	21.1
279	23.8
280	26.5
281	28.4
282	28.9
283	27.8
284	25.7
285	23.2
286	20.9
287	19.4
288	19.0
289	19.9
290	21.8
291	24.2
292	25.8
293	25.5
294	23.9
295	22.4
296	21.6
297	21.5
298	21.0
299	19.4
300	17.6
301	16.1
302	14.9
303	13.9
304	13.3
305	13.7
306	15.5
307	19.1
308	23.6
309	22.9
310	20.8
311	20.2
312	20.7
313	21.9
314	23.9
315	27.5
316	30.7
317	26.0
318	22.3
319	20.4
320	19.3
321	18.7
322	18.6
323	19.5
324	20.9
325	19.7
326	16.7
327	14.7
328	14.3
329	15.3
330	17.7
331	20.0
332	19.1
333	16.7
334	15.4
335	15.4
336	16.8
337	18.9
338	18.2
339	15.3
340	13.0
341	11.7
342	11.0
343	10.4
344	9.3
345	7.7
346	6.2
347	5.4
348	5.2
349	5.1
350	4.5
351	3.7
352	3.1
353	2.9
354	2.6
355	2.2
356	1.8
357	1.7
358	1.6
359	1.4
