VERSION 2.0
NAME VVSSP-360S-F, Tilt 7, Freq 2500
GAIN 8.0
HOR_LOBE
0	.8
1	.9
2	.9
3	1.0
4	1.0
5	1.0
6	1.0
7	1.1
8	1.0
9	1.0
10	1.0
11	1.0
12	.9
13	.8
14	.8
15	.7
16	.6
17	.5
18	.4
19	.3
20	.2
21	.1
22	.0
23	.1
24	.2
25	.3
26	.4
27	.5
28	.5
29	.6
30	.7
31	.7
32	.8
33	.8
34	.8
35	.9
36	.9
37	.9
38	.9
39	.9
40	.9
41	.9
42	.9
43	.9
44	.9
45	.9
46	.9
47	1.0
48	1.0
49	1.0
50	1.0
51	1.0
52	1.1
53	1.1
54	1.1
55	1.2
56	1.3
57	1.4
58	1.5
59	1.6
60	1.7
61	1.8
62	2.0
63	2.1
64	2.2
65	2.4
66	2.5
67	2.6
68	2.8
69	2.9
70	3.1
71	3.2
72	3.4
73	3.5
74	3.6
75	3.6
76	3.7
77	3.7
78	3.7
79	3.7
80	3.7
81	3.6
82	3.5
83	3.4
84	3.3
85	3.2
86	3.1
87	2.9
88	2.7
89	2.6
90	2.4
91	2.2
92	2.0
93	1.8
94	1.6
95	1.5
96	1.3
97	1.2
98	1.0
99	.9
100	.7
101	.6
102	.4
103	.3
104	.2
105	.1
106	.0
107	.1
108	.1
109	.2
110	.3
111	.3
112	.4
113	.4
114	.4
115	.4
116	.4
117	.4
118	.3
119	.3
120	.3
121	.3
122	.3
123	.2
124	.2
125	.1
126	.0
127	.1
128	.2
129	.3
130	.4
131	.5
132	.6
133	.7
134	.8
135	.9
136	1.0
137	1.1
138	1.2
139	1.4
140	1.5
141	1.6
142	1.8
143	1.9
144	2.1
145	2.2
146	2.4
147	2.5
148	2.7
149	2.8
150	2.9
151	3.1
152	3.2
153	3.3
154	3.4
155	3.5
156	3.6
157	3.6
158	3.6
159	3.7
160	3.7
161	3.7
162	3.6
163	3.6
164	3.5
165	3.5
166	3.4
167	3.3
168	3.2
169	3.1
170	3.0
171	2.9
172	2.7
173	2.6
174	2.5
175	2.4
176	2.3
177	2.1
178	2.0
179	1.9
180	1.8
181	1.7
182	1.6
183	1.6
184	1.5
185	1.4
186	1.4
187	1.3
188	1.3
189	1.2
190	1.2
191	1.2
192	1.1
193	1.1
194	1.1
195	1.1
196	1.1
197	1.1
198	1.1
199	1.1
200	1.1
201	1.1
202	1.2
203	1.2
204	1.2
205	1.2
206	1.2
207	1.3
208	1.3
209	1.3
210	1.3
211	1.4
212	1.4
213	1.4
214	1.5
215	1.5
216	1.6
217	1.6
218	1.7
219	1.7
220	1.8
221	1.9
222	2.0
223	2.1
224	2.2
225	2.4
226	2.5
227	2.6
228	2.8
229	2.9
230	3.1
231	3.2
232	3.4
233	3.6
234	3.9
235	4.1
236	4.3
237	4.4
238	4.6
239	4.8
240	4.9
241	5.0
242	5.2
243	5.3
244	5.3
245	5.4
246	5.4
247	5.4
248	5.3
249	5.2
250	5.1
251	5.0
252	4.8
253	4.6
254	4.4
255	4.1
256	3.9
257	3.7
258	3.5
259	3.3
260	3.2
261	3.0
262	2.8
263	2.6
264	2.4
265	2.3
266	2.2
267	2.1
268	2.0
269	1.9
270	1.8
271	1.8
272	1.7
273	1.7
274	1.6
275	1.6
276	1.6
277	1.6
278	1.6
279	1.6
280	1.6
281	1.7
282	1.7
283	1.8
284	1.8
285	1.8
286	1.8
287	1.9
288	1.9
289	1.8
290	1.8
291	1.8
292	1.8
293	1.7
294	1.7
295	1.6
296	1.5
297	1.5
298	1.4
299	1.2
300	1.1
301	1.0
302	.9
303	.7
304	.6
305	.4
306	.3
307	.2
308	.0
309	.1
310	.2
311	.3
312	.3
313	.4
314	.5
315	.5
316	.5
317	.6
318	.6
319	.6
320	.6
321	.5
322	.5
323	.4
324	.3
325	.3
326	.2
327	.0
328	.1
329	.2
330	.4
331	.5
332	.6
333	.8
334	.9
335	1.0
336	1.1
337	1.2
338	1.2
339	1.3
340	1.3
341	1.3
342	1.3
343	1.3
344	1.2
345	1.1
346	1.0
347	.9
348	.8
349	.6
350	.5
351	.3
352	.2
353	.0
354	.1
355	.2
356	.4
357	.5
358	.6
359	.7
VER_LOBE
0	1.7
1	1.3
2	.9
3	.7
4	.7
5	.7
6	.8
7	1.0
8	1.3
9	1.7
10	2.2
11	2.8
12	3.5
13	4.3
14	5.4
15	6.6
16	8.0
17	9.7
18	11.7
19	14.0
20	16.9
21	20.1
22	22.1
23	20.8
24	18.2
25	16.0
26	14.3
27	13.1
28	12.1
29	11.4
30	10.9
31	10.6
32	10.3
33	10.2
34	10.1
35	10.1
36	10.3
37	10.4
38	10.7
39	11.0
40	11.3
41	11.7
42	12.0
43	12.5
44	13.0
45	13.6
46	14.3
47	15.1
48	16.1
49	17.2
50	18.4
51	19.8
52	21.3
53	22.8
54	24.5
55	26.4
56	28.3
57	30.1
58	31.1
59	31.0
60	30.0
61	28.8
62	27.9
63	27.0
64	26.1
65	25.1
66	24.1
67	23.2
68	22.4
69	21.9
70	21.6
71	21.5
72	21.6
73	21.7
74	21.8
75	22.0
76	22.2
77	22.5
78	22.8
79	23.4
80	24.3
81	25.7
82	27.5
83	29.8
84	32.3
85	34.1
86	33.9
87	32.3
88	30.7
89	29.6
90	29.3
91	29.9
92	31.5
93	34.5
94	39.0
95	42.5
96	39.6
97	36.1
98	33.2
99	30.7
100	28.7
101	27.3
102	26.3
103	25.7
104	25.4
105	25.1
106	24.8
107	24.4
108	24.1
109	23.6
110	23.1
111	22.6
112	22.1
113	21.7
114	21.5
115	21.4
116	21.3
117	21.1
118	20.9
119	20.8
120	20.7
121	20.7
122	20.8
123	21.0
124	21.2
125	21.2
126	21.0
127	20.5
128	19.6
129	18.5
130	17.3
131	16.2
132	15.2
133	14.4
134	13.7
135	13.1
136	12.6
137	12.1
138	11.6
139	11.2
140	10.7
141	10.3
142	10.1
143	10.0
144	10.1
145	10.5
146	11.0
147	11.6
148	12.3
149	13.1
150	13.7
151	14.5
152	15.3
153	16.3
154	16.8
155	16.2
156	14.3
157	12.1
158	10.1
159	8.3
160	6.9
161	5.6
162	4.6
163	3.7
164	2.9
165	2.1
166	1.5
167	.9
168	.4
169	.1
170	.2
171	.3
172	.4
173	.4
174	.3
175	.2
176	.0
177	.4
178	.8
179	1.3
180	1.8
181	2.5
182	3.1
183	3.9
184	4.6
185	5.4
186	6.3
187	7.1
188	7.9
189	8.5
190	9.0
191	9.4
192	9.8
193	10.3
194	10.8
195	11.5
196	12.1
197	12.8
198	13.4
199	14.0
200	14.8
201	15.7
202	16.9
203	18.5
204	20.4
205	22.4
206	24.1
207	25.0
208	25.2
209	25.1
210	24.9
211	25.0
212	25.1
213	25.1
214	25.0
215	24.6
216	24.0
217	23.4
218	22.7
219	22.0
220	21.4
221	20.7
222	20.1
223	19.5
224	19.0
225	18.3
226	17.6
227	16.9
228	16.1
229	15.4
230	14.8
231	14.4
232	14.1
233	14.0
234	14.0
235	14.1
236	14.3
237	14.5
238	14.6
239	14.8
240	15.0
241	15.3
242	15.7
243	16.1
244	16.6
245	17.0
246	17.4
247	17.6
248	17.4
249	17.1
250	16.7
251	16.5
252	16.6
253	16.6
254	16.6
255	16.4
256	16.2
257	16.2
258	16.3
259	16.5
260	16.7
261	16.7
262	16.4
263	16.1
264	15.8
265	15.4
266	14.8
267	14.3
268	13.8
269	13.5
270	13.5
271	13.8
272	14.4
273	15.2
274	16.2
275	17.2
276	18.1
277	18.7
278	19.2
279	19.5
280	19.6
281	19.6
282	19.4
283	19.3
284	19.3
285	19.7
286	20.3
287	21.2
288	22.3
289	23.6
290	25.0
291	25.7
292	24.4
293	21.9
294	19.6
295	17.8
296	16.5
297	15.7
298	15.1
299	14.7
300	14.4
301	14.2
302	14.0
303	14.0
304	14.0
305	14.1
306	14.4
307	14.8
308	15.4
309	16.2
310	17.0
311	17.9
312	18.8
313	19.5
314	20.2
315	20.7
316	21.0
317	21.1
318	20.8
319	20.3
320	19.4
321	18.5
322	17.7
323	16.9
324	16.2
325	15.8
326	15.5
327	15.5
328	15.6
329	16.0
330	16.4
331	16.8
332	16.8
333	16.4
334	15.6
335	14.7
336	13.9
337	13.2
338	12.7
339	12.3
340	12.0
341	11.9
342	12.0
343	12.3
344	12.9
345	13.9
346	15.4
347	17.5
348	20.1
349	21.2
350	18.5
351	15.1
352	12.3
353	10.0
354	8.1
355	6.5
356	5.2
357	4.1
358	3.1
359	2.4
