VERSION 2.0
NAME VVSSP-360S-F, Tilt 0, Freq 5800
GAIN 4.2
HOR_LOBE
0	3.4
1	3.1
2	2.6
3	2.3
4	1.9
5	1.7
6	1.5
7	1.4
8	1.4
9	1.4
10	1.5
11	1.7
12	1.9
13	2.2
14	2.5
15	3.0
16	3.4
17	3.9
18	4.4
19	4.9
20	5.4
21	5.9
22	6.4
23	6.8
24	7.0
25	6.9
26	6.7
27	6.4
28	6.1
29	6.0
30	6.0
31	6.0
32	6.0
33	6.0
34	6.0
35	6.1
36	6.3
37	6.6
38	6.9
39	7.3
40	7.6
41	7.9
42	8.3
43	8.6
44	8.9
45	9.0
46	9.0
47	8.8
48	8.5
49	8.2
50	8.1
51	8.2
52	8.3
53	8.3
54	8.2
55	7.8
56	7.3
57	6.9
58	6.5
59	6.2
60	6.1
61	6.1
62	6.1
63	6.0
64	5.8
65	5.6
66	5.5
67	5.5
68	5.6
69	5.6
70	5.6
71	5.5
72	5.5
73	5.6
74	5.9
75	6.2
76	6.4
77	6.3
78	6.0
79	5.6
80	5.2
81	4.9
82	4.9
83	4.9
84	5.1
85	5.1
86	4.8
87	4.3
88	3.6
89	2.9
90	2.3
91	1.8
92	1.4
93	.9
94	.5
95	.2
96	.2
97	.4
98	.8
99	1.3
100	1.7
101	1.9
102	1.9
103	2.0
104	2.1
105	2.6
106	3.3
107	4.1
108	4.7
109	5.1
110	5.2
111	5.3
112	5.5
113	5.8
114	6.3
115	6.6
116	6.8
117	6.7
118	6.6
119	6.5
120	6.4
121	6.5
122	6.5
123	6.6
124	6.8
125	7.1
126	7.7
127	8.4
128	9.3
129	10.1
130	10.8
131	11.2
132	11.5
133	11.7
134	11.9
135	11.7
136	11.2
137	10.4
138	9.5
139	8.8
140	8.3
141	7.9
142	7.7
143	7.5
144	7.3
145	7.0
146	6.6
147	6.1
148	5.6
149	5.2
150	4.8
151	4.5
152	4.2
153	4.0
154	3.8
155	3.7
156	3.5
157	3.5
158	3.4
159	3.4
160	3.5
161	3.6
162	3.7
163	4.0
164	4.3
165	4.7
166	5.2
167	5.7
168	6.1
169	6.4
170	6.4
171	6.3
172	6.0
173	5.8
174	5.5
175	5.2
176	4.8
177	4.2
178	3.7
179	3.1
180	2.6
181	2.2
182	1.9
183	1.7
184	1.5
185	1.3
186	1.1
187	1.0
188	.8
189	.8
190	.9
191	1.1
192	1.3
193	1.5
194	1.7
195	1.8
196	2.0
197	2.3
198	2.7
199	3.2
200	3.7
201	3.9
202	4.0
203	3.9
204	3.9
205	4.2
206	4.6
207	5.1
208	5.6
209	5.8
210	5.9
211	6.0
212	6.3
213	6.8
214	7.4
215	7.9
216	8.1
217	8.1
218	8.0
219	8.1
220	8.2
221	8.3
222	8.2
223	8.0
224	7.6
225	7.3
226	7.3
227	7.4
228	7.8
229	8.2
230	8.6
231	8.8
232	9.1
233	9.3
234	9.7
235	10.3
236	10.9
237	11.4
238	11.5
239	11.3
240	10.8
241	10.4
242	10.3
243	10.4
244	10.6
245	10.6
246	10.3
247	9.9
248	9.5
249	9.3
250	9.5
251	10.0
252	10.4
253	10.5
254	10.3
255	9.8
256	9.4
257	9.1
258	9.1
259	9.1
260	9.0
261	8.4
262	7.6
263	6.6
264	5.6
265	4.9
266	4.4
267	4.0
268	3.6
269	3.3
270	2.9
271	2.6
272	2.3
273	2.1
274	1.9
275	1.7
276	1.4
277	1.0
278	.6
279	.2
280	.0
281	.0
282	.2
283	.5
284	.8
285	1.1
286	1.4
287	1.7
288	2.0
289	2.5
290	3.2
291	3.9
292	4.7
293	5.5
294	6.3
295	7.2
296	8.0
297	8.9
298	9.7
299	10.2
300	10.4
301	10.4
302	10.3
303	10.2
304	10.2
305	10.3
306	10.4
307	10.7
308	11.0
309	11.4
310	11.6
311	11.8
312	11.9
313	12.1
314	12.7
315	13.6
316	14.8
317	16.2
318	16.9
319	16.8
320	16.0
321	14.9
322	13.8
323	12.9
324	12.0
325	11.2
326	10.6
327	9.9
328	9.2
329	8.6
330	7.9
331	7.2
332	6.5
333	5.9
334	5.5
335	5.1
336	4.7
337	4.4
338	4.0
339	3.7
340	3.5
341	3.2
342	3.1
343	3.0
344	3.1
345	3.2
346	3.4
347	3.6
348	3.9
349	4.2
350	4.4
351	4.7
352	4.8
353	4.9
354	4.9
355	4.7
356	4.6
357	4.3
358	4.1
359	3.8
VER_LOBE
0	1.3
1	1.2
2	.5
3	.0
4	.2
5	.9
6	1.4
7	1.5
8	1.5
9	1.8
10	2.2
11	2.8
12	3.9
13	5.8
14	7.5
15	7.8
16	7.7
17	8.1
18	9.0
19	10.2
20	11.6
21	14.2
22	18.6
23	27.1
24	29.0
25	21.2
26	17.4
27	15.7
28	15.6
29	16.9
30	18.5
31	19.1
32	19.2
33	19.4
34	18.2
35	16.1
36	14.5
37	13.2
38	12.3
39	12.5
40	14.2
41	16.7
42	15.7
43	12.8
44	11.0
45	10.1
46	9.7
47	9.7
48	10.4
49	12.0
50	14.8
51	18.1
52	18.8
53	16.4
54	14.0
55	12.6
56	11.7
57	11.1
58	10.4
59	9.8
60	9.5
61	9.5
62	9.8
63	10.4
64	11.7
65	13.7
66	15.5
67	15.9
68	16.0
69	17.1
70	19.7
71	22.5
72	22.6
73	21.6
74	21.6
75	22.5
76	23.3
77	24.2
78	25.8
79	27.9
80	28.8
81	27.5
82	26.6
83	27.2
84	28.5
85	28.5
86	28.2
87	30.0
88	34.6
89	39.5
90	39.5
91	33.0
92	28.1
93	26.2
94	26.7
95	28.7
96	30.3
97	29.1
98	26.8
99	24.9
100	23.7
101	23.2
102	23.0
103	22.5
104	21.4
105	20.1
106	18.9
107	17.9
108	17.1
109	16.5
110	16.2
111	15.9
112	15.6
113	15.0
114	14.6
115	14.5
116	14.5
117	14.0
118	13.3
119	12.9
120	12.8
121	12.4
122	11.1
123	9.7
124	8.9
125	8.9
126	9.8
127	11.5
128	13.7
129	16.4
130	19.8
131	20.3
132	16.4
133	13.0
134	11.0
135	10.2
136	10.1
137	10.4
138	11.0
139	11.8
140	12.4
141	12.5
142	12.4
143	12.6
144	13.6
145	15.1
146	16.3
147	15.7
148	14.0
149	12.4
150	11.6
151	12.0
152	13.5
153	16.3
154	20.5
155	26.0
156	30.3
157	28.0
158	22.2
159	18.0
160	15.7
161	14.4
162	13.3
163	11.9
164	10.3
165	8.8
166	7.5
167	6.6
168	6.1
169	5.6
170	5.0
171	4.3
172	3.7
173	3.0
174	2.1
175	1.4
176	1.2
177	1.4
178	1.3
179	.9
180	.6
181	.7
182	.8
183	.9
184	1.1
185	1.5
186	1.9
187	2.2
188	2.7
189	3.3
190	3.8
191	3.9
192	3.9
193	4.2
194	4.8
195	5.8
196	7.1
197	8.6
198	9.8
199	10.4
200	10.9
201	11.4
202	12.2
203	13.2
204	14.2
205	14.5
206	13.7
207	12.4
208	11.9
209	12.3
210	13.9
211	16.6
212	20.2
213	24.2
214	25.9
215	23.2
216	19.4
217	16.9
218	15.8
219	16.1
220	17.1
221	17.4
222	16.0
223	14.0
224	12.0
225	10.3
226	9.3
227	9.2
228	9.9
229	11.1
230	11.7
231	11.0
232	9.8
233	9.0
234	8.9
235	9.7
236	11.1
237	12.7
238	13.8
239	14.4
240	15.0
241	16.5
242	18.5
243	18.3
244	15.9
245	14.0
246	12.7
247	12.1
248	12.0
249	12.4
250	13.3
251	14.6
252	16.3
253	18.2
254	20.1
255	22.2
256	24.6
257	26.2
258	24.4
259	21.3
260	18.7
261	17.0
262	16.0
263	15.4
264	15.0
265	14.6
266	14.2
267	13.5
268	12.6
269	11.8
270	11.5
271	11.5
272	11.9
273	12.3
274	12.8
275	13.5
276	14.6
277	16.2
278	18.6
279	21.7
280	25.3
281	27.7
282	28.7
283	30.6
284	31.0
285	26.2
286	22.8
287	21.3
288	21.2
289	21.4
290	20.5
291	19.3
292	18.9
293	19.4
294	19.9
295	19.5
296	18.7
297	18.3
298	18.6
299	18.9
300	17.9
301	16.0
302	14.4
303	14.0
304	14.9
305	16.3
306	16.4
307	15.4
308	14.5
309	14.0
310	13.6
311	12.9
312	12.3
313	11.9
314	11.7
315	11.6
316	11.7
317	12.1
318	13.2
319	14.9
320	16.3
321	16.7
322	16.4
323	16.0
324	15.5
325	15.5
326	16.8
327	20.7
328	32.3
329	26.7
330	20.7
331	19.6
332	21.4
333	26.0
334	26.9
335	23.7
336	23.3
337	26.0
338	20.7
339	14.6
340	11.5
341	10.2
342	9.9
343	9.8
344	9.9
345	10.2
346	10.2
347	8.8
348	6.6
349	4.8
350	4.0
351	3.9
352	3.9
353	3.3
354	2.3
355	1.7
356	1.5
357	1.4
358	1.3
359	1.3
