VERSION 2.0
NAME VVSSP-360S-F, Tilt 0, Freq 5650
GAIN 3.5
HOR_LOBE
0	1.3
1	1.2
2	1.1
3	1.0
4	1.0
5	1.0
6	1.0
7	1.0
8	1.0
9	1.1
10	1.1
11	1.0
12	1.0
13	.9
14	.9
15	.9
16	1.1
17	1.4
18	1.7
19	2.0
20	2.3
21	2.7
22	3.0
23	3.5
24	4.0
25	4.5
26	5.0
27	5.6
28	6.1
29	6.6
30	7.0
31	7.5
32	7.9
33	8.3
34	8.6
35	8.9
36	9.1
37	9.1
38	8.9
39	8.6
40	8.1
41	7.5
42	7.1
43	6.7
44	6.4
45	6.1
46	5.9
47	5.7
48	5.5
49	5.3
50	5.3
51	5.4
52	5.4
53	5.4
54	5.4
55	5.3
56	5.2
57	5.0
58	4.9
59	4.8
60	4.6
61	4.3
62	4.0
63	3.8
64	3.7
65	3.6
66	3.6
67	3.6
68	3.6
69	3.4
70	3.3
71	3.3
72	3.5
73	3.8
74	4.2
75	4.5
76	4.7
77	4.7
78	4.5
79	4.4
80	4.3
81	4.3
82	4.3
83	4.3
84	4.2
85	4.1
86	3.8
87	3.4
88	2.9
89	2.5
90	2.0
91	1.5
92	1.1
93	.7
94	.3
95	.1
96	.0
97	.1
98	.3
99	.6
100	.9
101	1.2
102	1.4
103	1.5
104	1.5
105	1.7
106	1.9
107	2.2
108	2.5
109	2.9
110	3.1
111	3.4
112	3.6
113	4.0
114	4.5
115	5.0
116	5.6
117	6.1
118	6.5
119	6.8
120	7.2
121	7.8
122	8.7
123	9.8
124	11.1
125	12.3
126	13.0
127	13.2
128	13.0
129	12.6
130	12.1
131	11.6
132	10.9
133	10.1
134	9.3
135	8.6
136	8.0
137	7.5
138	7.3
139	7.2
140	7.2
141	7.4
142	7.4
143	7.3
144	7.0
145	6.7
146	6.5
147	6.4
148	6.6
149	6.8
150	7.1
151	7.2
152	7.0
153	6.7
154	6.2
155	5.8
156	5.4
157	5.1
158	4.9
159	4.7
160	4.5
161	4.4
162	4.4
163	4.3
164	4.3
165	4.2
166	4.0
167	3.9
168	3.7
169	3.6
170	3.5
171	3.4
172	3.2
173	2.9
174	2.6
175	2.2
176	1.9
177	1.6
178	1.4
179	1.3
180	1.2
181	1.0
182	.9
183	.8
184	.7
185	.7
186	.7
187	.9
188	1.1
189	1.4
190	1.6
191	1.8
192	2.1
193	2.4
194	2.7
195	3.1
196	3.5
197	3.9
198	4.2
199	4.6
200	5.0
201	5.5
202	6.0
203	6.7
204	7.3
205	8.0
206	8.7
207	9.2
208	9.6
209	9.8
210	10.1
211	10.3
212	10.5
213	10.7
214	10.8
215	10.6
216	10.2
217	9.4
218	8.6
219	7.9
220	7.3
221	6.9
222	6.6
223	6.3
224	6.0
225	5.7
226	5.4
227	5.1
228	4.9
229	4.9
230	5.0
231	5.2
232	5.2
233	5.2
234	5.0
235	4.8
236	4.6
237	4.5
238	4.4
239	4.3
240	4.3
241	4.2
242	4.1
243	4.0
244	3.9
245	3.7
246	3.6
247	3.6
248	3.7
249	3.8
250	3.9
251	4.0
252	4.1
253	4.0
254	4.0
255	3.9
256	4.0
257	4.1
258	4.2
259	4.3
260	4.3
261	4.0
262	3.6
263	3.1
264	2.5
265	2.1
266	1.9
267	1.8
268	1.8
269	1.9
270	2.1
271	2.3
272	2.4
273	2.4
274	2.2
275	1.9
276	1.6
277	1.4
278	1.2
279	1.2
280	1.2
281	1.4
282	1.5
283	1.7
284	1.8
285	1.9
286	2.0
287	2.1
288	2.2
289	2.5
290	2.7
291	3.0
292	3.4
293	3.7
294	3.9
295	4.2
296	4.4
297	4.7
298	4.9
299	5.2
300	5.6
301	6.0
302	6.6
303	7.2
304	8.0
305	9.0
306	10.2
307	11.7
308	13.4
309	15.2
310	16.7
311	17.4
312	17.0
313	15.8
314	14.4
315	13.0
316	11.6
317	10.4
318	9.4
319	8.6
320	7.8
321	7.1
322	6.4
323	5.7
324	5.2
325	4.7
326	4.5
327	4.3
328	4.3
329	4.4
330	4.5
331	4.4
332	4.3
333	4.0
334	3.8
335	3.5
336	3.3
337	3.2
338	3.1
339	3.0
340	2.9
341	2.8
342	2.7
343	2.5
344	2.4
345	2.4
346	2.3
347	2.2
348	2.1
349	2.1
350	2.0
351	2.0
352	2.0
353	2.1
354	2.1
355	2.1
356	2.0
357	1.9
358	1.6
359	1.5
VER_LOBE
0	.2
1	.6
2	.9
3	.7
4	.3
5	.2
6	.4
7	.8
8	1.2
9	1.5
10	1.6
11	1.8
12	2.4
13	3.4
14	4.5
15	5.5
16	6.2
17	6.6
18	6.7
19	7.1
20	8.5
21	11.3
22	14.6
23	14.5
24	12.9
25	13.0
26	14.9
27	19.1
28	25.7
29	26.6
30	25.3
31	28.2
32	42.9
33	30.8
34	24.7
35	21.8
36	20.1
37	19.2
38	18.9
39	18.9
40	19.1
41	19.4
42	19.0
43	17.0
44	15.2
45	14.4
46	14.7
47	15.5
48	15.7
49	15.0
50	14.3
51	14.0
52	13.9
53	13.6
54	13.0
55	12.3
56	11.9
57	12.2
58	13.2
59	14.5
60	15.3
61	15.6
62	16.4
63	18.1
64	20.4
65	22.4
66	23.2
67	22.8
68	22.0
69	21.1
70	20.4
71	19.9
72	19.8
73	20.4
74	21.9
75	23.8
76	25.0
77	26.0
78	28.3
79	33.3
80	36.4
81	35.0
82	36.7
83	41.2
84	45.7
85	57.9
86	40.6
87	33.8
88	29.4
89	26.4
90	24.8
91	24.9
92	27.6
93	36.2
94	38.5
95	30.8
96	30.4
97	32.4
98	32.3
99	31.9
100	33.7
101	37.2
102	37.5
103	37.0
104	40.0
105	42.6
106	38.0
107	38.2
108	39.8
109	34.1
110	31.2
111	31.4
112	34.2
113	35.6
114	30.8
115	26.9
116	24.6
117	23.2
118	21.7
119	20.3
120	19.1
121	18.2
122	17.5
123	16.9
124	16.5
125	16.3
126	16.7
127	17.7
128	19.3
129	20.2
130	19.1
131	17.4
132	16.1
133	15.3
134	14.8
135	14.7
136	15.4
137	17.1
138	18.0
139	16.6
140	15.0
141	14.4
142	14.9
143	16.1
144	18.2
145	22.0
146	30.4
147	29.4
148	24.0
149	24.4
150	32.1
151	30.5
152	21.1
153	16.7
154	13.9
155	12.1
156	11.3
157	11.3
158	11.1
159	10.2
160	8.9
161	7.6
162	6.4
163	5.5
164	5.2
165	5.3
166	5.0
167	4.1
168	3.2
169	2.7
170	2.3
171	1.8
172	1.3
173	1.0
174	.8
175	.7
176	.6
177	.5
178	.4
179	.2
180	.1
181	.3
182	.7
183	1.1
184	1.0
185	.5
186	.1
187	.0
188	.3
189	.8
190	1.4
191	1.6
192	1.5
193	1.6
194	2.1
195	2.9
196	3.7
197	4.2
198	4.5
199	5.0
200	5.8
201	6.7
202	7.6
203	8.0
204	8.1
205	8.1
206	8.4
207	9.0
208	10.0
209	11.0
210	11.6
211	10.9
212	10.1
213	10.0
214	10.9
215	12.6
216	14.4
217	15.4
218	16.3
219	17.4
220	18.2
221	18.5
222	18.5
223	19.1
224	20.7
225	23.8
226	29.6
227	30.9
228	24.3
229	21.2
230	20.5
231	22.2
232	27.0
233	41.6
234	27.1
235	21.6
236	18.8
237	17.2
238	16.4
239	16.6
240	18.1
241	20.9
242	23.7
243	23.6
244	23.1
245	23.9
246	25.3
247	25.3
248	24.8
249	25.2
250	24.8
251	22.1
252	19.4
253	17.8
254	17.2
255	17.0
256	16.9
257	17.2
258	17.8
259	19.0
260	20.7
261	22.1
262	22.2
263	20.9
264	19.1
265	17.8
266	17.1
267	16.4
268	15.5
269	14.3
270	13.3
271	12.7
272	12.7
273	13.2
274	14.2
275	15.5
276	17.2
277	19.4
278	22.1
279	24.8
280	27.2
281	27.2
282	25.0
283	23.3
284	22.3
285	21.9
286	21.9
287	21.8
288	21.4
289	21.6
290	23.2
291	25.0
292	25.6
293	25.0
294	23.9
295	22.0
296	20.1
297	19.0
298	19.2
299	19.6
300	18.3
301	16.1
302	14.4
303	13.5
304	13.0
305	12.8
306	13.2
307	14.5
308	17.6
309	24.4
310	38.8
311	23.9
312	20.6
313	19.8
314	20.4
315	21.9
316	24.6
317	30.6
318	35.9
319	25.4
320	20.7
321	18.4
322	17.5
323	17.7
324	19.4
325	22.0
326	19.7
327	15.8
328	13.8
329	13.6
330	14.8
331	16.5
332	17.5
333	16.9
334	15.7
335	14.9
336	15.2
337	16.6
338	17.9
339	16.3
340	13.8
341	12.4
342	11.8
343	11.0
344	9.2
345	7.3
346	5.9
347	5.2
348	4.9
349	4.5
350	3.5
351	2.6
352	2.2
353	2.0
354	1.7
355	1.2
356	.6
357	.3
358	.1
359	.0
