NAME AW3828
MAKE Alpha Wireless
FREQUENCY 3550
H_WIDTH 65
V_WIDTH 7
FRONT_TO_BACK 30
GAIN 17.3 dBi
TILT ELECTRICAL
HORIZONTAL  360
0.0 0.1
1.0 0.1
2.0 0.2
3.0 0.3
4.0 0.3
5.0 0.4
6.0 0.5
7.0 0.5
8.0 0.6
9.0 0.7
10.0 0.8
11.0 0.8
12.0 0.9
13.0 1.0
14.0 1.1
15.0 1.3
16.0 1.4
17.0 1.5
18.0 1.6
19.0 1.7
20.0 1.9
21.0 2.0
22.0 2.1
23.0 2.3
24.0 2.4
25.0 2.5
26.0 2.7
27.0 2.8
28.0 3.0
29.0 3.2
30.0 3.4
31.0 3.6
32.0 3.7
33.0 3.9
34.0 4.1
35.0 4.3
36.0 4.5
37.0 4.7
38.0 4.9
39.0 5.2
40.0 5.4
41.0 5.6
42.0 5.8
43.0 6.1
44.0 6.3
45.0 6.5
46.0 6.8
47.0 7.0
48.0 7.3
49.0 7.5
50.0 7.8
51.0 8.0
52.0 8.3
53.0 8.5
54.0 8.7
55.0 9.0
56.0 9.2
57.0 9.5
58.0 9.7
59.0 10.0
60.0 10.3
61.0 10.5
62.0 10.8
63.0 11.1
64.0 11.5
65.0 11.8
66.0 12.1
67.0 12.4
68.0 12.8
69.0 13.1
70.0 13.5
71.0 13.9
72.0 14.3
73.0 14.6
74.0 15.0
75.0 15.3
76.0 15.7
77.0 16.1
78.0 16.5
79.0 16.8
80.0 17.2
81.0 17.5
82.0 17.8
83.0 18.1
84.0 18.2
85.0 18.5
86.0 18.6
87.0 18.8
88.0 18.9
89.0 19.0
90.0 19.1
91.0 19.2
92.0 19.3
93.0 19.4
94.0 19.6
95.0 19.8
96.0 20.1
97.0 20.5
98.0 20.9
99.0 21.4
100.0 21.9
101.0 22.5
102.0 23.1
103.0 23.7
104.0 24.3
105.0 24.8
106.0 25.3
107.0 25.8
108.0 26.0
109.0 26.2
110.0 26.3
111.0 26.4
112.0 26.6
113.0 26.8
114.0 27.1
115.0 27.7
116.0 28.3
117.0 29.2
118.0 30.3
119.0 31.4
120.0 32.5
121.0 33.2
122.0 33.3
123.0 32.7
124.0 31.8
125.0 30.9
126.0 30.1
127.0 29.4
128.0 29.0
129.0 28.7
130.0 28.6
131.0 28.7
132.0 28.9
133.0 29.3
134.0 29.7
135.0 30.2
136.0 30.7
137.0 31.2
138.0 31.6
139.0 32.0
140.0 32.4
141.0 32.9
142.0 33.6
143.0 34.6
144.0 35.9
145.0 37.6
146.0 39.9
147.0 42.5
148.0 43.8
149.0 42.1
150.0 39.5
151.0 37.0
152.0 35.2
153.0 33.7
154.0 32.6
155.0 31.9
156.0 31.5
157.0 31.3
158.0 31.4
159.0 31.8
160.0 32.4
161.0 33.3
162.0 34.7
163.0 36.4
164.0 38.9
165.0 42.6
166.0 49.2
167.0 54.6
168.0 46.1
169.0 41.5
170.0 38.9
171.0 37.1
172.0 36.0
173.0 35.3
174.0 34.9
175.0 34.9
176.0 35.0
177.0 35.3
178.0 35.6
179.0 35.9
180.0 35.9
181.0 35.6
182.0 35.1
183.0 34.3
184.0 33.5
185.0 32.5
186.0 31.8
187.0 31.1
188.0 30.6
189.0 30.2
190.0 29.9
191.0 29.8
192.0 29.9
193.0 30.1
194.0 30.5
195.0 31.0
196.0 31.6
197.0 32.2
198.0 32.8
199.0 33.4
200.0 33.9
201.0 34.3
202.0 34.5
203.0 34.6
204.0 34.6
205.0 34.6
206.0 34.5
207.0 34.5
208.0 34.6
209.0 34.7
210.0 35.0
211.0 35.3
212.0 35.6
213.0 35.8
214.0 36.0
215.0 35.9
216.0 35.7
217.0 35.5
218.0 35.0
219.0 34.6
220.0 34.1
221.0 33.6
222.0 33.2
223.0 32.7
224.0 32.4
225.0 32.2
226.0 32.1
227.0 32.0
228.0 31.9
229.0 31.8
230.0 31.5
231.0 31.2
232.0 31.0
233.0 30.6
234.0 30.4
235.0 30.2
236.0 30.1
237.0 30.0
238.0 29.9
239.0 29.7
240.0 29.5
241.0 29.2
242.0 28.9
243.0 28.7
244.0 28.5
245.0 28.5
246.0 28.4
247.0 28.4
248.0 28.2
249.0 28.0
250.0 27.7
251.0 27.3
252.0 27.0
253.0 26.7
254.0 26.5
255.0 26.4
256.0 26.3
257.0 26.1
258.0 25.9
259.0 25.6
260.0 25.2
261.0 24.9
262.0 24.7
263.0 24.5
264.0 24.5
265.0 24.4
266.0 24.3
267.0 24.1
268.0 23.7
269.0 23.3
270.0 22.9
271.0 22.5
272.0 22.1
273.0 21.7
274.0 21.4
275.0 21.1
276.0 20.8
277.0 20.5
278.0 20.2
279.0 19.9
280.0 19.6
281.0 19.2
282.0 18.8
283.0 18.4
284.0 17.9
285.0 17.4
286.0 16.9
287.0 16.4
288.0 15.9
289.0 15.4
290.0 14.9
291.0 14.5
292.0 14.0
293.0 13.6
294.0 13.2
295.0 12.8
296.0 12.4
297.0 12.0
298.0 11.6
299.0 11.2
300.0 10.8
301.0 10.4
302.0 10.1
303.0 9.7
304.0 9.3
305.0 8.9
306.0 8.5
307.0 8.2
308.0 7.9
309.0 7.5
310.0 7.2
311.0 7.0
312.0 6.7
313.0 6.4
314.0 6.1
315.0 5.9
316.0 5.6
317.0 5.3
318.0 5.0
319.0 4.8
320.0 4.5
321.0 4.3
322.0 4.0
323.0 3.8
324.0 3.6
325.0 3.4
326.0 3.2
327.0 3.1
328.0 2.9
329.0 2.7
330.0 2.6
331.0 2.4
332.0 2.3
333.0 2.1
334.0 2.0
335.0 1.8
336.0 1.7
337.0 1.6
338.0 1.5
339.0 1.3
340.0 1.2
341.0 1.1
342.0 1.0
343.0 0.8
344.0 0.7
345.0 0.6
346.0 0.5
347.0 0.4
348.0 0.3
349.0 0.2
350.0 0.2
351.0 0.1
352.0 0.1
353.0 0.0
354.0 0.0
355.0 0.0
356.0 0.0
357.0 0.0
358.0 0.0
359.0 0.1
VERTICAL  360
0.0 24.2
1.0 16.7
2.0 11.0
3.0 7.1
4.0 4.4
5.0 2.4
6.0 1.1
7.0 0.3
8.0 0.0
9.0 0.1
10.0 0.7
11.0 1.8
12.0 3.5
13.0 5.8
14.0 8.8
15.0 12.2
16.0 16.1
17.0 18.4
18.0 18.5
19.0 18.5
20.0 19.1
21.0 20.6
22.0 22.0
23.0 22.3
24.0 21.3
25.0 20.7
26.0 21.0
27.0 22.3
28.0 24.7
29.0 27.9
30.0 28.9
31.0 27.4
32.0 24.4
33.0 22.6
34.0 22.2
35.0 22.6
36.0 24.2
37.0 27.3
38.0 31.1
39.0 33.9
40.0 31.4
41.0 27.6
42.0 25.7
43.0 25.2
44.0 26.0
45.0 28.2
46.0 33.1
47.0 33.0
48.0 32.4
49.0 31.7
50.0 31.0
51.0 30.3
52.0 29.1
53.0 28.0
54.0 27.7
55.0 28.1
56.0 28.9
57.0 30.2
58.0 31.3
59.0 33.2
60.0 36.2
61.0 41.0
62.0 47.8
63.0 40.1
64.0 37.9
65.0 36.8
66.0 35.5
67.0 33.5
68.0 32.4
69.0 32.1
70.0 32.9
71.0 34.0
72.0 34.7
73.0 35.2
74.0 35.0
75.0 34.4
76.0 34.1
77.0 34.5
78.0 34.3
79.0 34.6
80.0 35.1
81.0 35.6
82.0 36.6
83.0 37.5
84.0 39.1
85.0 41.1
86.0 44.8
87.0 47.6
88.0 41.6
89.0 39.5
90.0 38.6
91.0 38.3
92.0 39.0
93.0 38.5
94.0 38.3
95.0 38.9
96.0 40.4
97.0 42.4
98.0 46.2
99.0 47.3
100.0 43.9
101.0 41.7
102.0 40.6
103.0 40.0
104.0 39.6
105.0 39.7
106.0 39.7
107.0 40.4
108.0 41.6
109.0 44.7
110.0 48.0
111.0 46.2
112.0 45.4
113.0 46.5
114.0 47.2
115.0 45.1
116.0 44.9
117.0 47.6
118.0 45.6
119.0 45.0
120.0 44.0
121.0 44.2
122.0 43.6
123.0 41.9
124.0 40.7
125.0 40.0
126.0 40.3
127.0 40.6
128.0 41.5
129.0 42.2
130.0 43.5
131.0 44.4
132.0 42.6
133.0 41.4
134.0 42.0
135.0 43.6
136.0 45.9
137.0 49.2
138.0 48.6
139.0 45.9
140.0 48.3
141.0 51.2
142.0 52.0
143.0 58.3
144.0 49.6
145.0 50.9
146.0 44.9
147.0 41.5
148.0 40.5
149.0 42.6
150.0 42.3
151.0 41.4
152.0 38.6
153.0 37.6
154.0 37.3
155.0 36.8
156.0 36.5
157.0 36.5
158.0 37.1
159.0 38.4
160.0 40.8
161.0 40.7
162.0 39.1
163.0 38.6
164.0 37.8
165.0 38.8
166.0 40.4
167.0 42.6
168.0 38.9
169.0 36.2
170.0 35.6
171.0 36.2
172.0 37.9
173.0 40.3
174.0 44.1
175.0 47.5
176.0 41.2
177.0 38.6
178.0 37.9
179.0 39.7
180.0 44.6
181.0 52.9
182.0 42.3
183.0 38.4
184.0 37.8
185.0 38.5
186.0 41.9
187.0 50.6
188.0 41.8
189.0 40.1
190.0 40.5
191.0 40.4
192.0 36.4
193.0 35.3
194.0 35.3
195.0 36.5
196.0 38.2
197.0 39.5
198.0 41.7
199.0 44.5
200.0 46.9
201.0 52.9
202.0 44.2
203.0 41.1
204.0 41.4
205.0 43.2
206.0 44.7
207.0 43.1
208.0 42.5
209.0 43.8
210.0 46.6
211.0 51.3
212.0 42.5
213.0 39.7
214.0 37.9
215.0 36.8
216.0 36.4
217.0 36.1
218.0 36.1
219.0 35.6
220.0 35.1
221.0 34.9
222.0 34.9
223.0 34.5
224.0 34.3
225.0 34.4
226.0 34.8
227.0 35.1
228.0 35.9
229.0 37.4
230.0 35.6
231.0 34.2
232.0 33.7
233.0 33.4
234.0 33.6
235.0 34.0
236.0 35.3
237.0 37.1
238.0 41.2
239.0 38.9
240.0 35.6
241.0 34.4
242.0 33.8
243.0 32.8
244.0 33.0
245.0 36.0
246.0 36.4
247.0 30.8
248.0 29.0
249.0 27.7
250.0 27.3
251.0 27.4
252.0 27.2
253.0 27.2
254.0 27.3
255.0 26.6
256.0 26.1
257.0 25.1
258.0 24.6
259.0 24.2
260.0 23.9
261.0 23.8
262.0 23.8
263.0 23.8
264.0 23.8
265.0 23.8
266.0 23.3
267.0 22.6
268.0 21.9
269.0 21.4
270.0 21.1
271.0 20.8
272.0 20.6
273.0 20.7
274.0 20.7
275.0 20.8
276.0 20.9
277.0 20.9
278.0 20.8
279.0 20.6
280.0 20.4
281.0 20.3
282.0 20.3
283.0 20.4
284.0 20.5
285.0 20.8
286.0 21.1
287.0 21.6
288.0 22.1
289.0 22.4
290.0 22.7
291.0 23.1
292.0 23.8
293.0 24.7
294.0 25.8
295.0 27.1
296.0 28.8
297.0 30.7
298.0 32.7
299.0 33.4
300.0 31.9
301.0 30.5
302.0 29.5
303.0 28.6
304.0 28.1
305.0 27.9
306.0 27.3
307.0 26.7
308.0 25.9
309.0 25.5
310.0 25.4
311.0 25.6
312.0 26.5
313.0 27.7
314.0 28.8
315.0 29.9
316.0 30.7
317.0 29.8
318.0 27.1
319.0 25.1
320.0 23.8
321.0 23.7
322.0 24.8
323.0 27.1
324.0 31.1
325.0 33.8
326.0 34.3
327.0 27.0
328.0 24.2
329.0 23.1
330.0 23.7
331.0 25.8
332.0 30.7
333.0 32.7
334.0 31.3
335.0 26.3
336.0 23.2
337.0 22.1
338.0 22.3
339.0 24.2
340.0 28.0
341.0 30.6
342.0 28.7
343.0 24.8
344.0 22.7
345.0 22.3
346.0 23.7
347.0 27.7
348.0 34.4
349.0 33.8
350.0 25.7
351.0 23.1
352.0 22.8
353.0 24.9
354.0 30.8
355.0 40.6
356.0 27.2
357.0 23.5
358.0 23.2
359.0 25.3
