************************************************************************************
****** PROPERTIES OF COMPONENT REPORTS *********************************************
************************************************************************************
COMPONENT_REPORT OUTPUT_CSV y
COMPONENT_REPORT OUTPUT_PDF y
COMPONENT_REPORT OUTPUT_TXT y
COMPONENT_REPORT RESULT_TYPE 0


