NAME AW3828
MAKE Alpha Wireless
FREQUENCY 3950
H_WIDTH 65
V_WIDTH 7
FRONT_TO_BACK 30
GAIN 17.5 dBi
TILT ELECTRICAL
HORIZONTAL  360
0.0 0.2
1.0 0.2
2.0 0.3
3.0 0.4
4.0 0.4
5.0 0.5
6.0 0.5
7.0 0.6
8.0 0.7
9.0 0.7
10.0 0.8
11.0 0.8
12.0 0.9
13.0 1.0
14.0 1.1
15.0 1.2
16.0 1.3
17.0 1.4
18.0 1.5
19.0 1.6
20.0 1.7
21.0 1.8
22.0 1.9
23.0 2.0
24.0 2.2
25.0 2.3
26.0 2.5
27.0 2.7
28.0 2.8
29.0 3.0
30.0 3.2
31.0 3.4
32.0 3.6
33.0 3.8
34.0 4.1
35.0 4.3
36.0 4.5
37.0 4.7
38.0 4.9
39.0 5.1
40.0 5.3
41.0 5.5
42.0 5.7
43.0 5.9
44.0 6.1
45.0 6.3
46.0 6.5
47.0 6.7
48.0 6.9
49.0 7.2
50.0 7.4
51.0 7.7
52.0 7.9
53.0 8.2
54.0 8.5
55.0 8.8
56.0 9.0
57.0 9.3
58.0 9.7
59.0 10.0
60.0 10.3
61.0 10.7
62.0 11.1
63.0 11.4
64.0 11.8
65.0 12.2
66.0 12.5
67.0 12.8
68.0 13.1
69.0 13.4
70.0 13.6
71.0 13.8
72.0 14.1
73.0 14.3
74.0 14.6
75.0 14.8
76.0 15.1
77.0 15.3
78.0 15.6
79.0 15.9
80.0 16.2
81.0 16.6
82.0 16.9
83.0 17.2
84.0 17.5
85.0 17.8
86.0 18.1
87.0 18.3
88.0 18.5
89.0 18.7
90.0 19.0
91.0 19.2
92.0 19.4
93.0 19.6
94.0 19.8
95.0 20.1
96.0 20.4
97.0 20.8
98.0 21.4
99.0 22.1
100.0 22.9
101.0 23.8
102.0 24.8
103.0 25.9
104.0 26.8
105.0 27.7
106.0 28.2
107.0 28.5
108.0 28.5
109.0 28.4
110.0 28.2
111.0 28.0
112.0 28.0
113.0 27.9
114.0 27.9
115.0 28.0
116.0 28.2
117.0 28.5
118.0 28.9
119.0 29.3
120.0 29.6
121.0 29.7
122.0 29.6
123.0 29.3
124.0 28.8
125.0 28.2
126.0 27.8
127.0 27.4
128.0 27.2
129.0 27.1
130.0 27.1
131.0 27.3
132.0 27.6
133.0 28.0
134.0 28.5
135.0 29.1
136.0 29.7
137.0 30.2
138.0 30.7
139.0 31.0
140.0 31.2
141.0 31.3
142.0 31.3
143.0 31.4
144.0 31.5
145.0 31.6
146.0 31.8
147.0 32.0
148.0 32.4
149.0 32.8
150.0 33.5
151.0 34.2
152.0 35.1
153.0 36.0
154.0 37.0
155.0 38.1
156.0 39.3
157.0 40.7
158.0 42.0
159.0 43.6
160.0 45.2
161.0 46.0
162.0 45.7
163.0 43.8
164.0 41.7
165.0 39.7
166.0 38.0
167.0 36.6
168.0 35.5
169.0 34.6
170.0 33.9
171.0 33.4
172.0 33.1
173.0 32.8
174.0 32.8
175.0 32.8
176.0 33.0
177.0 33.4
178.0 33.8
179.0 34.3
180.0 34.7
181.0 35.4
182.0 35.9
183.0 36.3
184.0 36.4
185.0 36.0
186.0 35.3
187.0 34.4
188.0 33.5
189.0 32.7
190.0 32.0
191.0 31.5
192.0 31.1
193.0 30.8
194.0 30.6
195.0 30.6
196.0 30.7
197.0 30.8
198.0 30.9
199.0 31.1
200.0 31.4
201.0 31.7
202.0 32.1
203.0 32.7
204.0 33.4
205.0 34.1
206.0 35.0
207.0 35.7
208.0 36.2
209.0 36.3
210.0 36.1
211.0 35.6
212.0 35.0
213.0 34.3
214.0 33.6
215.0 33.0
216.0 32.4
217.0 31.9
218.0 31.5
219.0 31.0
220.0 30.5
221.0 30.1
222.0 29.4
223.0 28.8
224.0 28.2
225.0 27.5
226.0 26.8
227.0 26.2
228.0 25.7
229.0 25.3
230.0 24.9
231.0 24.7
232.0 24.7
233.0 24.8
234.0 24.9
235.0 25.3
236.0 25.8
237.0 26.3
238.0 26.8
239.0 27.4
240.0 27.9
241.0 28.3
242.0 28.7
243.0 29.2
244.0 29.9
245.0 30.6
246.0 31.4
247.0 32.1
248.0 32.5
249.0 32.3
250.0 31.7
251.0 31.0
252.0 30.3
253.0 29.8
254.0 29.4
255.0 29.1
256.0 28.8
257.0 28.4
258.0 27.9
259.0 27.2
260.0 26.5
261.0 25.8
262.0 25.3
263.0 24.8
264.0 24.5
265.0 24.1
266.0 23.8
267.0 23.4
268.0 23.1
269.0 22.8
270.0 22.7
271.0 22.5
272.0 22.3
273.0 22.1
274.0 21.8
275.0 21.3
276.0 20.8
277.0 20.2
278.0 19.6
279.0 19.1
280.0 18.6
281.0 18.2
282.0 17.7
283.0 17.2
284.0 16.6
285.0 16.1
286.0 15.6
287.0 15.1
288.0 14.7
289.0 14.3
290.0 13.9
291.0 13.6
292.0 13.2
293.0 12.8
294.0 12.4
295.0 12.0
296.0 11.7
297.0 11.3
298.0 10.9
299.0 10.6
300.0 10.2
301.0 9.8
302.0 9.5
303.0 9.1
304.0 8.8
305.0 8.4
306.0 8.1
307.0 7.8
308.0 7.5
309.0 7.2
310.0 6.9
311.0 6.6
312.0 6.3
313.0 6.0
314.0 5.7
315.0 5.5
316.0 5.2
317.0 5.0
318.0 4.8
319.0 4.6
320.0 4.3
321.0 4.1
322.0 3.9
323.0 3.7
324.0 3.5
325.0 3.3
326.0 3.1
327.0 3.0
328.0 2.8
329.0 2.6
330.0 2.4
331.0 2.3
332.0 2.1
333.0 1.9
334.0 1.7
335.0 1.6
336.0 1.4
337.0 1.3
338.0 1.1
339.0 1.0
340.0 0.9
341.0 0.8
342.0 0.6
343.0 0.5
344.0 0.4
345.0 0.4
346.0 0.3
347.0 0.2
348.0 0.1
349.0 0.1
350.0 0.1
351.0 0.0
352.0 0.0
353.0 0.0
354.0 0.0
355.0 0.0
356.0 0.0
357.0 0.1
358.0 0.1
359.0 0.1
VERTICAL  360
0.0 17.3
1.0 11.4
2.0 7.3
3.0 4.5
4.0 2.4
5.0 1.0
6.0 0.3
7.0 0.0
8.0 0.2
9.0 1.1
10.0 2.5
11.0 4.3
12.0 7.1
13.0 10.4
14.0 14.1
15.0 16.6
16.0 17.4
17.0 17.5
18.0 18.2
19.0 19.8
20.0 21.1
21.0 20.6
22.0 19.6
23.0 19.0
24.0 19.4
25.0 20.9
26.0 24.1
27.0 30.8
28.0 33.0
29.0 29.6
30.0 24.7
31.0 22.9
32.0 22.5
33.0 23.2
34.0 25.7
35.0 29.6
36.0 36.2
37.0 33.3
38.0 29.1
39.0 26.9
40.0 25.9
41.0 26.2
42.0 27.0
43.0 29.0
44.0 33.6
45.0 35.8
46.0 36.9
47.0 34.1
48.0 30.3
49.0 28.6
50.0 28.2
51.0 28.1
52.0 28.7
53.0 29.9
54.0 32.2
55.0 35.0
56.0 37.7
57.0 37.4
58.0 36.1
59.0 34.4
60.0 34.0
61.0 33.8
62.0 34.9
63.0 35.2
64.0 36.2
65.0 38.0
66.0 39.0
67.0 40.0
68.0 39.6
69.0 35.7
70.0 34.0
71.0 33.4
72.0 33.1
73.0 32.7
74.0 32.2
75.0 31.6
76.0 31.1
77.0 31.2
78.0 31.5
79.0 32.9
80.0 34.3
81.0 35.5
82.0 37.7
83.0 39.5
84.0 42.5
85.0 44.3
86.0 45.3
87.0 43.3
88.0 41.2
89.0 39.6
90.0 39.9
91.0 40.1
92.0 39.7
93.0 39.6
94.0 38.0
95.0 37.9
96.0 38.7
97.0 39.3
98.0 40.3
99.0 40.2
100.0 38.9
101.0 38.0
102.0 37.5
103.0 38.1
104.0 39.5
105.0 41.3
106.0 43.6
107.0 45.3
108.0 51.1
109.0 53.1
110.0 56.3
111.0 56.5
112.0 60.7
113.0 56.9
114.0 53.6
115.0 49.6
116.0 47.9
117.0 48.5
118.0 49.9
119.0 46.2
120.0 47.4
121.0 52.5
122.0 52.7
123.0 45.2
124.0 41.5
125.0 40.2
126.0 39.5
127.0 40.7
128.0 43.2
129.0 46.1
130.0 50.8
131.0 50.2
132.0 43.2
133.0 39.5
134.0 37.8
135.0 36.3
136.0 35.7
137.0 35.7
138.0 36.5
139.0 36.5
140.0 35.8
141.0 35.5
142.0 35.5
143.0 35.9
144.0 37.0
145.0 38.8
146.0 41.1
147.0 40.4
148.0 37.2
149.0 35.2
150.0 34.7
151.0 35.1
152.0 36.4
153.0 38.7
154.0 43.8
155.0 36.9
156.0 35.3
157.0 35.3
158.0 36.3
159.0 37.5
160.0 39.9
161.0 43.6
162.0 49.7
163.0 50.3
164.0 45.3
165.0 43.0
166.0 42.4
167.0 40.6
168.0 39.0
169.0 37.6
170.0 37.3
171.0 38.3
172.0 38.5
173.0 37.3
174.0 35.7
175.0 35.7
176.0 36.6
177.0 37.9
178.0 37.3
179.0 35.0
180.0 34.7
181.0 35.9
182.0 37.7
183.0 40.8
184.0 43.4
185.0 40.6
186.0 36.7
187.0 34.6
188.0 33.6
189.0 33.8
190.0 34.9
191.0 36.3
192.0 37.0
193.0 37.4
194.0 40.0
195.0 35.3
196.0 33.6
197.0 33.9
198.0 36.8
199.0 43.5
200.0 41.9
201.0 38.9
202.0 37.8
203.0 37.8
204.0 37.9
205.0 37.5
206.0 36.8
207.0 36.3
208.0 35.2
209.0 34.4
210.0 33.7
211.0 34.5
212.0 36.8
213.0 41.8
214.0 36.9
215.0 33.7
216.0 31.9
217.0 31.8
218.0 32.9
219.0 35.6
220.0 43.1
221.0 39.7
222.0 36.8
223.0 37.3
224.0 39.0
225.0 37.8
226.0 36.2
227.0 36.1
228.0 38.2
229.0 39.5
230.0 35.8
231.0 34.3
232.0 33.9
233.0 34.7
234.0 35.6
235.0 34.6
236.0 33.2
237.0 32.3
238.0 31.8
239.0 31.8
240.0 31.4
241.0 30.8
242.0 30.3
243.0 29.9
244.0 29.3
245.0 28.8
246.0 28.4
247.0 28.1
248.0 28.0
249.0 28.4
250.0 28.6
251.0 28.1
252.0 27.0
253.0 26.0
254.0 25.3
255.0 24.6
256.0 23.7
257.0 23.1
258.0 22.6
259.0 22.4
260.0 22.2
261.0 22.1
262.0 22.1
263.0 21.9
264.0 21.8
265.0 21.5
266.0 21.1
267.0 20.7
268.0 20.2
269.0 19.8
270.0 19.5
271.0 19.1
272.0 18.8
273.0 18.6
274.0 18.5
275.0 18.4
276.0 18.3
277.0 18.3
278.0 18.3
279.0 18.2
280.0 18.1
281.0 17.7
282.0 17.3
283.0 17.0
284.0 16.4
285.0 16.5
286.0 16.5
287.0 16.6
288.0 17.2
289.0 17.9
290.0 19.0
291.0 20.6
292.0 21.7
293.0 22.3
294.0 22.1
295.0 22.0
296.0 22.1
297.0 23.3
298.0 25.0
299.0 27.8
300.0 33.3
301.0 34.3
302.0 33.1
303.0 31.9
304.0 30.6
305.0 29.1
306.0 27.9
307.0 26.7
308.0 26.0
309.0 25.4
310.0 24.9
311.0 24.5
312.0 24.6
313.0 24.9
314.0 26.3
315.0 28.4
316.0 29.1
317.0 28.2
318.0 26.9
319.0 25.3
320.0 24.0
321.0 23.2
322.0 23.3
323.0 24.3
324.0 27.0
325.0 33.5
326.0 34.2
327.0 29.7
328.0 26.1
329.0 24.1
330.0 23.8
331.0 25.0
332.0 28.3
333.0 32.1
334.0 30.7
335.0 26.7
336.0 23.3
337.0 21.8
338.0 21.8
339.0 23.6
340.0 27.4
341.0 32.0
342.0 29.3
343.0 24.1
344.0 22.1
345.0 22.1
346.0 23.6
347.0 27.7
348.0 38.6
349.0 33.0
350.0 26.0
351.0 23.8
352.0 24.8
353.0 29.8
354.0 35.0
355.0 28.4
356.0 22.8
357.0 21.4
358.0 22.8
359.0 23.2
