NAME AW3828
MAKE Alpha Wireless
FREQUENCY 3950
H_WIDTH 65
V_WIDTH 7
FRONT_TO_BACK 30
GAIN 17.5 dBi
TILT ELECTRICAL
HORIZONTAL  360
0.0 0.2
1.0 0.2
2.0 0.3
3.0 0.4
4.0 0.4
5.0 0.5
6.0 0.5
7.0 0.6
8.0 0.7
9.0 0.7
10.0 0.8
11.0 0.8
12.0 0.9
13.0 1.0
14.0 1.1
15.0 1.2
16.0 1.3
17.0 1.4
18.0 1.5
19.0 1.6
20.0 1.7
21.0 1.8
22.0 1.9
23.0 2.0
24.0 2.2
25.0 2.3
26.0 2.5
27.0 2.7
28.0 2.8
29.0 3.0
30.0 3.2
31.0 3.4
32.0 3.6
33.0 3.8
34.0 4.1
35.0 4.3
36.0 4.5
37.0 4.7
38.0 4.9
39.0 5.1
40.0 5.3
41.0 5.5
42.0 5.7
43.0 5.9
44.0 6.1
45.0 6.3
46.0 6.5
47.0 6.7
48.0 6.9
49.0 7.2
50.0 7.4
51.0 7.7
52.0 7.9
53.0 8.2
54.0 8.5
55.0 8.8
56.0 9.0
57.0 9.3
58.0 9.7
59.0 10.0
60.0 10.3
61.0 10.7
62.0 11.1
63.0 11.4
64.0 11.8
65.0 12.2
66.0 12.5
67.0 12.8
68.0 13.1
69.0 13.4
70.0 13.6
71.0 13.8
72.0 14.1
73.0 14.3
74.0 14.6
75.0 14.8
76.0 15.1
77.0 15.3
78.0 15.6
79.0 15.9
80.0 16.2
81.0 16.6
82.0 16.9
83.0 17.2
84.0 17.5
85.0 17.8
86.0 18.1
87.0 18.3
88.0 18.5
89.0 18.7
90.0 19.0
91.0 19.2
92.0 19.4
93.0 19.6
94.0 19.8
95.0 20.1
96.0 20.4
97.0 20.8
98.0 21.4
99.0 22.1
100.0 22.9
101.0 23.8
102.0 24.8
103.0 25.9
104.0 26.8
105.0 27.7
106.0 28.2
107.0 28.5
108.0 28.5
109.0 28.4
110.0 28.2
111.0 28.0
112.0 28.0
113.0 27.9
114.0 27.9
115.0 28.0
116.0 28.2
117.0 28.5
118.0 28.9
119.0 29.3
120.0 29.6
121.0 29.7
122.0 29.6
123.0 29.3
124.0 28.8
125.0 28.2
126.0 27.8
127.0 27.4
128.0 27.2
129.0 27.1
130.0 27.1
131.0 27.3
132.0 27.6
133.0 28.0
134.0 28.5
135.0 29.1
136.0 29.7
137.0 30.2
138.0 30.7
139.0 31.0
140.0 31.2
141.0 31.3
142.0 31.3
143.0 31.4
144.0 31.5
145.0 31.6
146.0 31.8
147.0 32.0
148.0 32.4
149.0 32.8
150.0 33.5
151.0 34.2
152.0 35.1
153.0 36.0
154.0 37.0
155.0 38.1
156.0 39.3
157.0 40.7
158.0 42.0
159.0 43.6
160.0 45.2
161.0 46.0
162.0 45.7
163.0 43.8
164.0 41.7
165.0 39.7
166.0 38.0
167.0 36.6
168.0 35.5
169.0 34.6
170.0 33.9
171.0 33.4
172.0 33.1
173.0 32.8
174.0 32.8
175.0 32.8
176.0 33.0
177.0 33.4
178.0 33.8
179.0 34.3
180.0 34.7
181.0 35.4
182.0 35.9
183.0 36.3
184.0 36.4
185.0 36.0
186.0 35.3
187.0 34.4
188.0 33.5
189.0 32.7
190.0 32.0
191.0 31.5
192.0 31.1
193.0 30.8
194.0 30.6
195.0 30.6
196.0 30.7
197.0 30.8
198.0 30.9
199.0 31.1
200.0 31.4
201.0 31.7
202.0 32.1
203.0 32.7
204.0 33.4
205.0 34.1
206.0 35.0
207.0 35.7
208.0 36.2
209.0 36.3
210.0 36.1
211.0 35.6
212.0 35.0
213.0 34.3
214.0 33.6
215.0 33.0
216.0 32.4
217.0 31.9
218.0 31.5
219.0 31.0
220.0 30.5
221.0 30.1
222.0 29.4
223.0 28.8
224.0 28.2
225.0 27.5
226.0 26.8
227.0 26.2
228.0 25.7
229.0 25.3
230.0 24.9
231.0 24.7
232.0 24.7
233.0 24.8
234.0 24.9
235.0 25.3
236.0 25.8
237.0 26.3
238.0 26.8
239.0 27.4
240.0 27.9
241.0 28.3
242.0 28.7
243.0 29.2
244.0 29.9
245.0 30.6
246.0 31.4
247.0 32.1
248.0 32.5
249.0 32.3
250.0 31.7
251.0 31.0
252.0 30.3
253.0 29.8
254.0 29.4
255.0 29.1
256.0 28.8
257.0 28.4
258.0 27.9
259.0 27.2
260.0 26.5
261.0 25.8
262.0 25.3
263.0 24.8
264.0 24.5
265.0 24.1
266.0 23.8
267.0 23.4
268.0 23.1
269.0 22.8
270.0 22.7
271.0 22.5
272.0 22.3
273.0 22.1
274.0 21.8
275.0 21.3
276.0 20.8
277.0 20.2
278.0 19.6
279.0 19.1
280.0 18.6
281.0 18.2
282.0 17.7
283.0 17.2
284.0 16.6
285.0 16.1
286.0 15.6
287.0 15.1
288.0 14.7
289.0 14.3
290.0 13.9
291.0 13.6
292.0 13.2
293.0 12.8
294.0 12.4
295.0 12.0
296.0 11.7
297.0 11.3
298.0 10.9
299.0 10.6
300.0 10.2
301.0 9.8
302.0 9.5
303.0 9.1
304.0 8.8
305.0 8.4
306.0 8.1
307.0 7.8
308.0 7.5
309.0 7.2
310.0 6.9
311.0 6.6
312.0 6.3
313.0 6.0
314.0 5.7
315.0 5.5
316.0 5.2
317.0 5.0
318.0 4.8
319.0 4.6
320.0 4.3
321.0 4.1
322.0 3.9
323.0 3.7
324.0 3.5
325.0 3.3
326.0 3.1
327.0 3.0
328.0 2.8
329.0 2.6
330.0 2.4
331.0 2.3
332.0 2.1
333.0 1.9
334.0 1.7
335.0 1.6
336.0 1.4
337.0 1.3
338.0 1.1
339.0 1.0
340.0 0.9
341.0 0.8
342.0 0.6
343.0 0.5
344.0 0.4
345.0 0.4
346.0 0.3
347.0 0.2
348.0 0.1
349.0 0.1
350.0 0.1
351.0 0.0
352.0 0.0
353.0 0.0
354.0 0.0
355.0 0.0
356.0 0.0
357.0 0.1
358.0 0.1
359.0 0.1
VERTICAL  360
0.0 24.6
1.0 18.9
2.0 12.6
3.0 8.2
4.0 5.1
5.0 2.8
6.0 1.3
7.0 0.3
8.0 0.0
9.0 0.0
10.0 0.7
11.0 1.9
12.0 3.5
13.0 5.9
14.0 8.9
15.0 12.5
16.0 16.0
17.0 18.0
18.0 18.2
19.0 18.6
20.0 19.8
21.0 20.9
22.0 20.8
23.0 20.0
24.0 19.4
25.0 19.7
26.0 20.7
27.0 23.1
28.0 27.8
29.0 33.2
30.0 33.4
31.0 26.4
32.0 23.9
33.0 22.7
34.0 22.8
35.0 24.5
36.0 27.7
37.0 32.3
38.0 32.3
39.0 29.1
40.0 26.9
41.0 25.8
42.0 25.8
43.0 26.6
44.0 28.2
45.0 31.4
46.0 35.7
47.0 42.9
48.0 40.1
49.0 33.7
50.0 30.7
51.0 29.3
52.0 28.7
53.0 29.1
54.0 30.1
55.0 32.0
56.0 34.4
57.0 37.3
58.0 38.8
59.0 39.7
60.0 38.6
61.0 39.1
62.0 39.0
63.0 40.1
64.0 39.4
65.0 39.3
66.0 40.2
67.0 41.8
68.0 45.8
69.0 46.2
70.0 39.5
71.0 36.1
72.0 34.0
73.0 33.1
74.0 32.2
75.0 32.1
76.0 32.0
77.0 31.9
78.0 32.6
79.0 33.3
80.0 35.7
81.0 38.0
82.0 39.7
83.0 42.3
84.0 44.3
85.0 47.3
86.0 47.7
87.0 48.1
88.0 44.1
89.0 40.8
90.0 38.1
91.0 38.0
92.0 37.3
93.0 36.1
94.0 35.8
95.0 35.7
96.0 36.5
97.0 38.7
98.0 40.9
99.0 43.1
100.0 42.2
101.0 39.9
102.0 38.2
103.0 37.3
104.0 37.1
105.0 38.2
106.0 40.1
107.0 43.0
108.0 46.1
109.0 54.7
110.0 56.1
111.0 58.1
112.0 55.3
113.0 59.9
114.0 61.5
115.0 58.9
116.0 54.1
117.0 52.5
118.0 55.5
119.0 58.8
120.0 51.2
121.0 51.4
122.0 57.2
123.0 52.6
124.0 45.0
125.0 42.2
126.0 40.4
127.0 40.3
128.0 41.3
129.0 44.9
130.0 46.9
131.0 51.4
132.0 52.1
133.0 42.4
134.0 39.1
135.0 37.4
136.0 35.8
137.0 35.6
138.0 35.7
139.0 37.2
140.0 38.1
141.0 37.2
142.0 36.9
143.0 36.4
144.0 36.3
145.0 36.7
146.0 37.6
147.0 38.4
148.0 38.4
149.0 36.8
150.0 35.0
151.0 34.7
152.0 35.3
153.0 37.8
154.0 42.4
155.0 52.8
156.0 39.7
157.0 37.3
158.0 36.6
159.0 36.9
160.0 37.1
161.0 38.8
162.0 41.4
163.0 45.3
164.0 45.1
165.0 42.7
166.0 41.2
167.0 40.6
168.0 38.5
169.0 37.0
170.0 36.6
171.0 36.7
172.0 36.9
173.0 36.7
174.0 36.0
175.0 34.8
176.0 35.7
177.0 38.0
178.0 41.3
179.0 41.1
180.0 36.1
181.0 34.7
182.0 35.1
183.0 36.3
184.0 38.9
185.0 42.0
186.0 42.2
187.0 38.5
188.0 36.4
189.0 35.0
190.0 34.8
191.0 35.9
192.0 37.3
193.0 38.3
194.0 40.8
195.0 48.0
196.0 39.9
197.0 36.0
198.0 34.7
199.0 35.6
200.0 38.9
201.0 38.7
202.0 38.7
203.0 39.0
204.0 39.8
205.0 39.5
206.0 37.9
207.0 36.6
208.0 35.7
209.0 35.0
210.0 34.4
211.0 33.7
212.0 34.7
213.0 37.8
214.0 46.8
215.0 37.5
216.0 32.9
217.0 30.7
218.0 30.6
219.0 31.3
220.0 33.0
221.0 35.9
222.0 34.9
223.0 34.6
224.0 37.1
225.0 41.1
226.0 38.4
227.0 34.8
228.0 32.7
229.0 32.6
230.0 32.9
231.0 31.5
232.0 31.3
233.0 31.7
234.0 32.7
235.0 33.4
236.0 33.2
237.0 33.0
238.0 32.9
239.0 32.6
240.0 31.9
241.0 30.2
242.0 28.8
243.0 27.7
244.0 27.3
245.0 27.1
246.0 27.0
247.0 27.0
248.0 26.3
249.0 25.4
250.0 24.8
251.0 24.4
252.0 24.0
253.0 23.8
254.0 23.8
255.0 23.9
256.0 23.8
257.0 23.1
258.0 22.3
259.0 21.6
260.0 21.2
261.0 20.8
262.0 20.8
263.0 20.9
264.0 20.9
265.0 21.0
266.0 20.8
267.0 20.4
268.0 19.7
269.0 19.2
270.0 18.6
271.0 18.1
272.0 17.7
273.0 17.4
274.0 17.0
275.0 16.7
276.0 16.5
277.0 16.1
278.0 15.9
279.0 15.7
280.0 15.4
281.0 15.0
282.0 14.3
283.0 13.8
284.0 13.6
285.0 13.0
286.0 13.1
287.0 13.1
288.0 13.0
289.0 13.6
290.0 13.9
291.0 14.5
292.0 15.4
293.0 16.1
294.0 16.7
295.0 17.1
296.0 17.8
297.0 18.7
298.0 20.6
299.0 23.2
300.0 27.4
301.0 35.7
302.0 34.9
303.0 29.6
304.0 27.3
305.0 26.0
306.0 25.1
307.0 24.9
308.0 24.9
309.0 25.0
310.0 25.1
311.0 24.9
312.0 24.3
313.0 23.8
314.0 23.4
315.0 23.5
316.0 24.3
317.0 25.1
318.0 26.0
319.0 26.3
320.0 25.3
321.0 23.9
322.0 23.0
323.0 23.1
324.0 23.8
325.0 25.7
326.0 29.4
327.0 32.2
328.0 31.1
329.0 26.9
330.0 23.9
331.0 22.6
332.0 22.7
333.0 25.0
334.0 28.7
335.0 31.3
336.0 27.9
337.0 23.7
338.0 21.6
339.0 21.2
340.0 22.5
341.0 25.8
342.0 31.6
343.0 31.3
344.0 24.7
345.0 22.1
346.0 21.8
347.0 22.8
348.0 26.1
349.0 34.4
350.0 36.8
351.0 27.2
352.0 24.0
353.0 24.0
354.0 27.2
355.0 34.4
356.0 31.8
357.0 24.0
358.0 21.8
359.0 22.6
