Description,X-coordinate,Y-coordinate,UTM_Zone,Height,Yaw,Pitch,Roll,Velocity,Power,FieldStrength,PathLoss,Throughput
Wasatch Express,429475.8117056654,4513937.599334663,12.0,1.5,0,0,0,0,0,0,0,0
Wasatch Express,429488.3116519079,4513920.827727777,12.0,1.5,0,0,0,0,0,0,0,0
Wasatch Express,429527.4996550254,4513870.49697418,12.0,1.5,0,0,0,0,0,0,0,0
Wasatch Express,429527.4996550254,4513870.49697418,12.0,1.5,0,0,0,0,0,0,0,0
Wasatch Express,429533.1957095825,4513848.2393732825,12.0,1.5,0,0,0,0,0,0,0,0
Wasatch Express,429535.6957512648,4513844.885070682,12.0,1.5,0,0,0,0,0,0,0,0
Wasatch Express,429539.060838407,4513843.742874174,12.0,1.5,0,0,0,0,0,0,0,0
Wasatch Express,429542.4259265598,4513842.600679211,12.0,1.5,0,0,0,0,0,0,0,0
Wasatch Express,429544.96823034296,4513843.686653919,12.0,1.5,0,0,0,0,0,0,0,0
Wasatch Express,429547.510533365,4513844.77262949,12.0,1.5,0,0,0,0,0,0,0,0
Wasatch Express,429547.510533365,4513844.77262949,12.0,1.5,0,0,0,0,0,0,0,0
Wasatch Express,429550.0633988796,4513846.968674454,12.0,1.5,0,0,0,0,0,0,0,0
Wasatch Express,429550.9284378866,4513849.18078101,12.0,1.5,0,0,0,0,0,0,0,0
Wasatch Express,429551.8040394049,4513852.502956202,12.0,1.5,0,0,0,0,0,0,0,0
Wasatch Express,429550.98125356494,4513854.731123689,12.0,1.5,0,0,0,0,0,0,0,0
Wasatch Express,429550.1584682396,4513856.959291282,12.0,1.5,0,0,0,0,0,0,0,0
Wasatch Express,429547.6478607097,4513859.20352048,12.0,1.5,0,0,0,0,0,0,0,0
Wasatch Express,429542.6055213808,4513861.471844395,12.0,1.5,0,0,0,0,0,0,0,0
Wasatch Express,429527.4996550254,4513870.49697418,12.0,1.5,0,0,0,0,0,0,0,0
Wasatch Express,429488.3116519079,4513920.827727777,12.0,1.5,0,0,0,0,0,0,0,0
Wasatch Express,429475.8117056654,4513937.599334663,12.0,1.5,0,0,0,0,0,0,0,0
Wasatch Express,429472.5312724123,4513947.622110589,12.0,1.5,0,0,0,0,0,0,0,0
Wasatch Express,429464.9996180578,4513954.354882808,12.0,1.5,0,0,0,0,0,0,0,0
Wasatch Express,429456.6134998997,4513959.985635491,12.0,1.5,0,0,0,0,0,0,0,0
Wasatch Express,429447.3834950456,4513965.624440268,12.0,1.5,0,0,0,0,0,0,0,0
Wasatch Express,429445.7062755955,4513966.750594105,12.0,1.5,0,0,0,0,0,0,0,0
Wasatch Express,429440.66404022544,4513969.018989154,12.0,1.5,0,0,0,0,0,0,0,0
Wasatch Express,429431.4128956137,4513972.43767659,12.0,1.5,0,0,0,0,0,0,0,0
Wasatch Express,429428.0478830972,4513973.579923208,12.0,1.5,0,0,0,0,0,0,0,0
Wasatch Express,429424.6828715892,4513974.722171373,12.0,1.5,0,0,0,0,0,0,0,0
Wasatch Express,429420.4633797293,4513974.762397737,12.0,1.5,0,0,0,0,0,0,0,0
Wasatch Express,429416.2438878603,4513974.802626508,12.0,1.5,0,0,0,0,0,0,0,0
Wasatch Express,429413.71219273616,4513974.826764924,12.0,1.5,0,0,0,0,0,0,0,0
Wasatch Express,429410.32601459866,4513973.748882014,12.0,1.5,0,0,0,0,0,0,0,0
Wasatch Express,429405.2414527959,4513971.577026127,12.0,1.5,0,0,0,0,0,0,0,0
Wasatch Express,429401.844685978,4513969.389078253,12.0,1.5,0,0,0,0,0,0,0,0
Wasatch Express,429397.6040178724,4513967.20917998,12.0,1.5,0,0,0,0,0,0,0,0
Wasatch Express,429394.19665973936,4513963.911166766,12.0,1.5,0,0,0,0,0,0,0,0
Wasatch Express,429389.02738418966,4513952.85877149,12.0,1.5,0,0,0,0,0,0,0,0
Wasatch Express,429379.6385827356,4513941.846629211,12.0,1.5,0,0,0,0,0,0,0,0
Wasatch Express,429377.9295996124,4513939.642592099,12.0,1.5,0,0,0,0,0,0,0,0
Wasatch Express,429356.6625582125,4513922.082779698,12.0,1.5,0,0,0,0,0,0,0,0
Wasatch Express,429341.3875194868,4513913.347194055,12.0,1.5,0,0,0,0,0,0,0,0
Wasatch Express,429329.5198599421,4513907.909621896,12.0,1.5,0,0,0,0,0,0,0,0
Wasatch Express,429329.5198599421,4513907.909621896,12.0,1.5,0,0,0,0,0,0,0,0
Wasatch Express,429316.8188743202,4513903.590194494,12.0,1.5,0,0,0,0,0,0,0,0
Wasatch Express,429308.3374092162,4513899.230496597,12.0,1.5,0,0,0,0,0,0,0,0
Wasatch Express,429297.31360970926,4513893.784917451,12.0,1.5,0,0,0,0,0,0,0,0
Wasatch Express,429284.5807705232,4513886.135338667,12.0,1.5,0,0,0,0,0,0,0,0
Wasatch Express,429276.9325708157,4513880.657546813,12.0,1.5,0,0,0,0,0,0,0,0
Wasatch Express,429270.9827848322,4513876.273706465,12.0,1.5,0,0,0,0,0,0,0,0
Wasatch Express,429267.58593415376,4513874.085819446,12.0,1.5,0,0,0,0,0,0,0,0
Wasatch Express,429248.0274820712,4513858.730327233,12.0,1.5,0,0,0,0,0,0,0,0
Wasatch Express,429246.3290495356,4513857.63638873,12.0,1.5,0,0,0,0,0,0,0,0
Wasatch Express,429243.7867043856,4513856.550516048,12.0,1.5,0,0,0,0,0,0,0,0
Wasatch Express,429240.4110559507,4513856.582778738,12.0,1.5,0,0,0,0,0,0,0,0
Wasatch Express,429237.0247972945,4513855.504974273,12.0,1.5,0,0,0,0,0,0,0,0
Wasatch Express,429233.6597590664,4513856.647308738,12.0,1.5,0,0,0,0,0,0,0,0
Wasatch Express,429173.9225336981,4513876.091450958,12.0,1.5,0,0,0,0,0,0,0,0
Wasatch Express,429135.2301811082,4513889.783758001,12.0,1.5,0,0,0,0,0,0,0,0
Wasatch Express,429125.1245335648,4513892.100837395,12.0,1.5,0,0,0,0,0,0,0,0
Wasatch Express,429109.9660735672,4513895.576482515,12.0,1.5,0,0,0,0,0,0,0,0
Wasatch Express,429055.11206223513,4513896.101937285,12.0,1.5,0,0,0,0,0,0,0,0
Wasatch Express,429055.11206223513,4513896.101937285,12.0,1.5,0,0,0,0,0,0,0,0
Wasatch Express,429055.5304717765,4513851.691097757,12.0,1.5,0,0,0,0,0,0,0,0
Wasatch Express,429055.28581180633,4513826.15951642,12.0,1.5,0,0,0,0,0,0,0,0
Wasatch Express,429055.2326250082,4513820.609172783,12.0,1.5,0,0,0,0,0,0,0,0
Wasatch Express,429055.9488949157,4513807.280261381,12.0,1.5,0,0,0,0,0,0,0,0
Wasatch Express,429056.7609017014,4513803.94196852,12.0,1.5,0,0,0,0,0,0,0,0
Wasatch Express,429057.5409984692,4513797.273469719,12.0,1.5,0,0,0,0,0,0,0,0
Wasatch Express,429059.91320789175,4513780.598180289,12.0,1.5,0,0,0,0,0,0,0,0
Wasatch Express,429063.1399881019,4513765.02487482,12.0,1.5,0,0,0,0,0,0,0,0
Wasatch Express,429067.2213428033,4513750.55355441,12.0,1.5,0,0,0,0,0,0,0,0
Wasatch Express,429071.3239836352,4513738.302373922,12.0,1.5,0,0,0,0,0,0,0,0
Wasatch Express,429072.1572749428,4513737.184220432,12.0,1.5,0,0,0,0,0,0,0,0
Wasatch Express,429078.7385466096,4513719.3584477,12.0,1.5,0,0,0,0,0,0,0,0
Wasatch Express,429086.1956781708,4513704.854803972,12.0,1.5,0,0,0,0,0,0,0,0
Wasatch Express,429098.673905773,4513685.862402186,12.0,1.5,0,0,0,0,0,0,0,0
Wasatch Express,429106.16299942567,4513674.688985562,12.0,1.5,0,0,0,0,0,0,0,0
Wasatch Express,429115.3293568479,4513662.389348703,12.0,1.5,0,0,0,0,0,0,0,0
Wasatch Express,429152.84965703066,4513614.292913777,12.0,1.5,0,0,0,0,0,0,0,0
Wasatch Express,429170.3706264764,4513593.032052072,12.0,1.5,0,0,0,0,0,0,0,0
Wasatch Express,429170.3706264764,4513593.032052072,12.0,1.5,0,0,0,0,0,0,0,0
Wasatch Express,429191.2037795048,4513565.078539496,12.0,1.5,0,0,0,0,0,0,0,0
Wasatch Express,429195.2855056272,4513550.607298789,12.0,1.5,0,0,0,0,0,0,0,0
Wasatch Express,429243.6403839193,4513487.975553672,12.0,1.5,0,0,0,0,0,0,0,0
Wasatch Express,429264.5483505222,4513467.7927352125,12.0,1.5,0,0,0,0,0,0,0,0
Wasatch Express,429286.3215930825,4513449.822053751,12.0,1.5,0,0,0,0,0,0,0,0
Wasatch Express,429321.49234709947,4513420.621850864,12.0,1.5,0,0,0,0,0,0,0,0
Wasatch Express,429363.36214961146,4513385.807068351,12.0,1.5,0,0,0,0,0,0,0,0
Wasatch Express,429387.6148457542,4513362.262201432,12.0,1.5,0,0,0,0,0,0,0,0
Wasatch Express,429398.44883678097,4513347.726699989,12.0,1.5,0,0,0,0,0,0,0,0
Wasatch Express,429405.9175679326,4513334.333467147,12.0,1.5,0,0,0,0,0,0,0,0
Wasatch Express,429414.13506311737,4513310.94158796,12.0,1.5,0,0,0,0,0,0,0,0
Wasatch Express,429416.3812870738,4513280.945625999,12.0,1.5,0,0,0,0,0,0,0,0
Wasatch Express,429415.43149459467,4513269.852994831,12.0,1.5,0,0,0,0,0,0,0,0
Wasatch Express,429417.8682008819,4513259.838251717,12.0,1.5,0,0,0,0,0,0,0,0
Wasatch Express,429404.764019136,4513213.336096572,12.0,1.5,0,0,0,0,0,0,0,0
Wasatch Express,429389.992870588,4513169.07019618,12.0,1.5,0,0,0,0,0,0,0,0
Wasatch Express,429377.8488192046,4513134.770784691,12.0,1.5,0,0,0,0,0,0,0,0
Wasatch Express,429371.7291092599,4513112.625783416,12.0,1.5,0,0,0,0,0,0,0,0
Wasatch Express,429366.421599313,4513087.142535104,12.0,1.5,0,0,0,0,0,0,0,0
Wasatch Express,429359.690780733,4513089.427075801,12.0,1.5,0,0,0,0,0,0,0,0
Wasatch Express,429355.48137370206,4513090.577400044,12.0,1.5,0,0,0,0,0,0,0,0
Wasatch Express,429348.7505614286,4513092.861950781,12.0,1.5,0,0,0,0,0,0,0,0
Wasatch Express,429329.45511617017,4513105.257922228,12.0,1.5,0,0,0,0,0,0,0,0
Wasatch Express,429319.4436935956,4513117.565325719,12.0,1.5,0,0,0,0,0,0,0,0
Wasatch Express,429305.4136840683,4513151.004310632,12.0,1.5,0,0,0,0,0,0,0,0
Wasatch Express,429277.0678042289,4513187.910546117,12.0,1.5,0,0,0,0,0,0,0,0
Wasatch Express,429252.85728538566,4513215.896036265,12.0,1.5,0,0,0,0,0,0,0,0
Wasatch Express,429190.2271603316,4513286.435333916,12.0,1.5,0,0,0,0,0,0,0,0
Wasatch Express,429050.65508652735,4513430.983254297,12.0,1.5,0,0,0,0,0,0,0,0
Wasatch Express,428956.2034980861,4513527.363549012,12.0,1.5,0,0,0,0,0,0,0,0
Wasatch Express,428900.36238750926,4513601.1708278805,12.0,1.5,0,0,0,0,0,0,0,0
Wasatch Express,428900.36238750926,4513601.1708278805,12.0,1.5,0,0,0,0,0,0,0,0
Wasatch Express,428898.69582422415,4513603.407173429,12.0,1.5,0,0,0,0,0,0,0,0
Wasatch Express,428885.4379897273,4513629.068431365,12.0,1.5,0,0,0,0,0,0,0,0
Wasatch Express,428852.3844881928,4513702.657272909,12.0,1.5,0,0,0,0,0,0,0,0
Wasatch Express,428852.3844881928,4513702.657272909,12.0,1.5,0,0,0,0,0,0,0,0
Wasatch Express,428863.4729041881,4513714.762607599,12.0,1.5,0,0,0,0,0,0,0,0
Wasatch Express,428872.8734293264,4513726.884173603,12.0,1.5,0,0,0,0,0,0,0,0
Wasatch Express,428880.58607198246,4513739.021964603,12.0,1.5,0,0,0,0,0,0,0,0
Wasatch Express,428889.206586623,4513757.812069884,12.0,1.5,0,0,0,0,0,0,0,0
Wasatch Express,428895.2526489156,4513772.186225131,12.0,1.5,0,0,0,0,0,0,0,0
Wasatch Express,428906.5860632793,4513809.823204447,12.0,1.5,0,0,0,0,0,0,0,0
Wasatch Express,428916.0823251838,4513831.935443729,12.0,1.5,0,0,0,0,0,0,0,0
Wasatch Express,428929.7554714626,4513849.566912324,12.0,1.5,0,0,0,0,0,0,0,0
Wasatch Express,428939.97832465125,4513859.460323568,12.0,1.5,0,0,0,0,0,0,0,0
Wasatch Express,428951.0450617141,4513869.345649806,12.0,1.5,0,0,0,0,0,0,0,0
Wasatch Express,428966.320668086,4513878.080436581,12.0,1.5,0,0,0,0,0,0,0,0
Wasatch Express,428968.9163013126,4513884.716558798,12.0,1.5,0,0,0,0,0,0,0,0
Wasatch Express,428983.3160012392,4513890.1292705145,12.0,1.5,0,0,0,0,0,0,0,0
Wasatch Express,428997.70503338205,4513894.431941132,12.0,1.5,0,0,0,0,0,0,0,0
Wasatch Express,429020.51183900295,4513896.433587057,12.0,1.5,0,0,0,0,0,0,0,0
Wasatch Express,429055.11206223513,4513896.101937285,12.0,1.5,0,0,0,0,0,0,0,0
Wasatch Express,429055.11206223513,4513896.101937285,12.0,1.5,0,0,0,0,0,0,0,0
Wasatch Express,429109.9660735672,4513895.576482515,12.0,1.5,0,0,0,0,0,0,0,0
Wasatch Express,429125.1245335648,4513892.100837395,12.0,1.5,0,0,0,0,0,0,0,0
Wasatch Express,429135.2301811082,4513889.783758001,12.0,1.5,0,0,0,0,0,0,0,0
Wasatch Express,429173.9225336981,4513876.091450958,12.0,1.5,0,0,0,0,0,0,0,0
Wasatch Express,429184.8615091579,4513872.656297682,12.0,1.5,0,0,0,0,0,0,0,0
Wasatch Express,429233.6597590664,4513856.647308738,12.0,1.5,0,0,0,0,0,0,0,0
Wasatch Express,429237.0247972945,4513855.504974273,12.0,1.5,0,0,0,0,0,0,0,0
Wasatch Express,429240.4110559507,4513856.582778738,12.0,1.5,0,0,0,0,0,0,0,0
Wasatch Express,429243.7867043856,4513856.550516048,12.0,1.5,0,0,0,0,0,0,0,0
Wasatch Express,429246.3290495356,4513857.63638873,12.0,1.5,0,0,0,0,0,0,0,0
Wasatch Express,429248.0274820712,4513858.730327233,12.0,1.5,0,0,0,0,0,0,0,0
Wasatch Express,429248.0274820712,4513858.730327233,12.0,1.5,0,0,0,0,0,0,0,0
Wasatch Express,429262.32095142815,4513853.042892723,12.0,1.5,0,0,0,0,0,0,0,0
Wasatch Express,429267.36321499967,4513850.774376936,12.0,1.5,0,0,0,0,0,0,0,0
Wasatch Express,429273.2281850708,4513846.277665146,12.0,1.5,0,0,0,0,0,0,0,0
Wasatch Express,429279.92647225206,4513840.662828091,12.0,1.5,0,0,0,0,0,0,0,0
Wasatch Express,429320.7695722459,4513786.984646148,12.0,1.5,0,0,0,0,0,0,0,0
Wasatch Express,429320.7695722459,4513786.984646148,12.0,1.5,0,0,0,0,0,0,0,0
Wasatch Express,429325.8860751624,4513792.486650958,12.0,1.5,0,0,0,0,0,0,0,0
Wasatch Express,429330.1480558144,4513796.886646204,12.0,1.5,0,0,0,0,0,0,0,0
Wasatch Express,429332.7221948819,4513801.302754199,12.0,1.5,0,0,0,0,0,0,0,0
Wasatch Express,429333.6084954057,4513805.734973218,12.0,1.5,0,0,0,0,0,0,0,0
Wasatch Express,429333.65087769006,4513810.175247482,12.0,1.5,0,0,0,0,0,0,0,0
Wasatch Express,429333.70385559415,4513815.725590355,12.0,1.5,0,0,0,0,0,0,0,0
Wasatch Express,429328.6509521575,4513816.883991691,12.0,1.5,0,0,0,0,0,0,0,0
Wasatch Express,429326.9631191466,4513816.900103379,12.0,1.5,0,0,0,0,0,0,0,0
Wasatch Express,429325.28588299046,4513818.026284039,12.0,1.5,0,0,0,0,0,0,0,0
Wasatch Express,429323.5980502301,4513818.042396498,12.0,1.5,0,0,0,0,0,0,0,0
Wasatch Express,429321.92081483296,4513819.16857793,12.0,1.5,0,0,0,0,0,0,0,0
Wasatch Express,429318.576943434,4513822.531010561,12.0,1.5,0,0,0,0,0,0,0,0
Wasatch Express,429315.23307508667,4513825.893444757,12.0,1.5,0,0,0,0,0,0,0,0
Wasatch Express,429310.2331770295,4513832.602201915,12.0,1.5,0,0,0,0,0,0,0,0
Wasatch Express,429306.8999167566,4513837.074708666,12.0,1.5,0,0,0,0,0,0,0,0
Wasatch Express,429306.8999167566,4513837.074708666,12.0,1.5,0,0,0,0,0,0,0,0
Wasatch Express,429297.7334720408,4513849.374110395,12.0,1.5,0,0,0,0,0,0,0,0
Wasatch Express,429296.0562476948,4513850.500297884,12.0,1.5,0,0,0,0,0,0,0,0
Wasatch Express,429292.7336061072,4513856.082880022,12.0,1.5,0,0,0,0,0,0,0,0
Wasatch Express,429290.2336765833,4513859.43726617,12.0,1.5,0,0,0,0,0,0,0,0
Wasatch Express,429288.5776606859,4513862.783592777,12.0,1.5,0,0,0,0,0,0,0,0
Wasatch Express,429286.0989411705,4513868.358117797,12.0,1.5,0,0,0,0,0,0,0,0
Wasatch Express,429282.76571201714,4513872.830636054,12.0,1.5,0,0,0,0,0,0,0,0
Wasatch Express,429276.9325708157,4513880.657546813,12.0,1.5,0,0,0,0,0,0,0,0
Wasatch Express,429276.9325708157,4513880.657546813,12.0,1.5,0,0,0,0,0,0,0,0
Wasatch Express,429284.5807705232,4513886.135338667,12.0,1.5,0,0,0,0,0,0,0,0
Wasatch Express,429297.31360970926,4513893.784917451,12.0,1.5,0,0,0,0,0,0,0,0
Wasatch Express,429308.3374092162,4513899.230496597,12.0,1.5,0,0,0,0,0,0,0,0
Wasatch Express,429316.8188743202,4513903.590194494,12.0,1.5,0,0,0,0,0,0,0,0
Wasatch Express,429329.5198599421,4513907.909621896,12.0,1.5,0,0,0,0,0,0,0,0
Wasatch Express,429329.5198599421,4513907.909621896,12.0,1.5,0,0,0,0,0,0,0,0
Wasatch Express,429341.3875194868,4513913.347194055,12.0,1.5,0,0,0,0,0,0,0,0
Wasatch Express,429356.6625582125,4513922.082779698,12.0,1.5,0,0,0,0,0,0,0,0
Wasatch Express,429377.9295996124,4513939.642592099,12.0,1.5,0,0,0,0,0,0,0,0
Wasatch Express,429379.6385827356,4513941.846629211,12.0,1.5,0,0,0,0,0,0,0,0
Wasatch Express,429389.02738418966,4513952.85877149,12.0,1.5,0,0,0,0,0,0,0,0
Wasatch Express,429400.8949269216,4513958.296437936,12.0,1.5,0,0,0,0,0,0,0,0
Wasatch Express,429406.0006695424,4513962.688428512,12.0,1.5,0,0,0,0,0,0,0,0
Wasatch Express,429406.8657395497,4513964.900519008,12.0,1.5,0,0,0,0,0,0,0,0
Wasatch Express,429410.2519222301,4513965.978400379,12.0,1.5,0,0,0,0,0,0,0,0
Wasatch Express,429412.79420463456,4513967.064329617,12.0,1.5,0,0,0,0,0,0,0,0
Wasatch Express,429416.1698016781,4513967.032144881,12.0,1.5,0,0,0,0,0,0,0,0
Wasatch Express,429418.7014994582,4513967.008007338,12.0,1.5,0,0,0,0,0,0,0,0
Wasatch Express,429422.0770964928,4513966.975825297,12.0,1.5,0,0,0,0,0,0,0,0
Wasatch Express,429425.4526935244,4513966.943644793,12.0,1.5,0,0,0,0,0,0,0,0
Wasatch Express,429427.973809333,4513965.809441635,12.0,1.5,0,0,0,0,0,0,0,0
Wasatch Express,429433.01604322833,4513963.541037932,12.0,1.5,0,0,0,0,0,0,0,0
Wasatch Express,429436.381061072,4513962.398793656,12.0,1.5,0,0,0,0,0,0,0,0
Wasatch Express,429442.25661998393,4513959.012283925,12.0,1.5,0,0,0,0,0,0,0,0
Wasatch Express,429446.4549623427,4513956.751932564,12.0,1.5,0,0,0,0,0,0,0,0
Wasatch Express,429450.6533072343,4513954.491583622,12.0,1.5,0,0,0,0,0,0,0,0
Wasatch Express,429455.6849777933,4513951.11312684,12.0,1.5,0,0,0,0,0,0,0,0
Wasatch Express,429459.883328635,4513948.852783229,12.0,1.5,0,0,0,0,0,0,0,0
Wasatch Express,429460.7166529142,4513947.734673552,12.0,1.5,0,0,0,0,0,0,0,0
Wasatch Express,429464.9044308284,4513944.364264115,12.0,1.5,0,0,0,0,0,0,0,0
Wasatch Express,429466.581658279,4513943.238114768,12.0,1.5,0,0,0,0,0,0,0,0
Wasatch Express,429475.8117056654,4513937.599334663,12.0,1.5,0,0,0,0,0,0,0,0
